{
  "next": "https://a.egwwritings.org/search?lang=en&period=all&facets=False&query=stone%20cut%20without%20hands&offset=20&limit=20&order=rel&snippet=long&query_type=prefer_exact",
  "previous": null,
  "total": 317,
  "count": 317,
  "results": [
    {
      "index": 0,
      "lang": "en",
      "para_id": "14820.425",
      "pub_code": "JTLD",
      "pub_name": "My Journey to Life - Daily Study Guide",
      "refcode_long": "My Journey to Life - Daily Study Guide, p. 86.2 (Ellen G. White Estate)",
      "refcode_short": "JTLD 86.2",
      "pub_year": "2025",
      "snippet": "… great <mark>stone cut without hands</mark>, representing God’s kingdom that succeeds all others and lasts forever, is about to shatter all earthly empires. God’s promises …",
      "weight": 1,
      "group": "reference"
    },
    {
      "index": 1,
      "lang": "en",
      "para_id": "14375.80",
      "pub_code": "JTL6",
      "pub_name": "My Journey to Life, Step 6—The Second Coming of Jesus Christ",
      "refcode_long": "My Journey to Life, Step 6—The Second Coming of Jesus Christ, p. 6.1 (Ellen G. White Estate)",
      "refcode_short": "JTL6 6.1",
      "pub_year": "",
      "snippet": "… great <mark>stone cut without hands</mark>, representing God’s kingdom that succeeds all others and lasts forever, is about to shatter all earthly empires. God’s promises …",
      "weight": 1,
      "group": "reference"
    },
    {
      "index": 2,
      "lang": "en",
      "para_id": "1653.1193",
      "pub_code": "HST",
      "pub_name": "Signs of the Times [Himes], vol. 1",
      "refcode_long": "Signs of the Times [Himes], vol. 1 June 15,  1840, page 41 paragraph 7",
      "refcode_short": "HST June 15,  1840, page 41.7",
      "pub_year": "1840",
      "snippet": "… the “<mark>stone cut without hands</mark>” is to demolish them. Half of this period, that is, three times and a half, is assigned for the captivity of the Gentile church in mystical …",
      "weight": 0.96,
      "group": "apl"
    },
    {
      "index": 3,
      "lang": "en",
      "para_id": "12669.4116",
      "pub_code": "SDASB",
      "pub_name": "SDA Bible Students’ Source Book",
      "refcode_long": "SDA Bible Students’ Source Book, p. 310.6 (Francis Nichol-GCSDA)",
      "refcode_short": "SDASB 310.6",
      "pub_year": "1962",
      "snippet": "",
      "weight": 0.85,
      "group": "bible",
      "action_required": "purchased"
    },
    {
      "index": 4,
      "lang": "en",
      "para_id": "956.3182",
      "pub_code": "PFF1",
      "pub_name": "The Prophetic Faith of Our Fathers, vol. 1",
      "refcode_long": "The Prophetic Faith of Our Fathers, vol. 1, p. 488.7 (LeRoy Edwin Froom)",
      "refcode_short": "PFF1 488.7",
      "pub_year": "1950",
      "snippet": "… wherefore <mark>without hands</mark>? Because <mark>without</mark> the cooperation of man did the Virgin bear Christ. Now then was that <mark>stone cut</mark> out <mark>without hands</mark> before the eyes …",
      "weight": 0.81,
      "group": "apl"
    },
    {
      "index": 5,
      "lang": "en",
      "para_id": "1381.24",
      "pub_code": "TBI",
      "pub_name": "The Biblical Institute",
      "refcode_long": "The Biblical Institute, p. 4.1 (Uriah Smith)",
      "refcode_short": "TBI 4.1",
      "pub_year": "1878",
      "snippet": "… . The <mark>stone cut</mark> out of the mountain <mark>without hands</mark>, shall roll until it becomes a great mountain and fills the whole earth. All the proof for the world’s conversion …",
      "weight": 0.8,
      "group": "apl"
    },
    {
      "index": 6,
      "lang": "en",
      "para_id": "1447.84",
      "pub_code": "BIAD",
      "pub_name": "Bible Adventism",
      "refcode_long": "Bible Adventism, p. 23.3 (James Springer White)",
      "refcode_short": "BIAD 23.3",
      "pub_year": "0",
      "snippet": "… . The <mark>stone cut</mark> out of the mountain <mark>without hands</mark>, shall roll until it becomes a great mountain, and fills the whole earth. All the proof for the world’s conversion …",
      "weight": 0.8,
      "group": "apl"
    },
    {
      "index": 7,
      "lang": "en",
      "para_id": "1469.56",
      "pub_code": "OFH1",
      "pub_name": "Our Faith and Hope, No. 1",
      "refcode_long": "Our Faith and Hope, No. 1, p. 13.4 (James Springer White)",
      "refcode_short": "OFH1 13.4",
      "pub_year": "1870",
      "snippet": "… . The <mark>stone cut</mark> out of the mountain <mark>without hands</mark>, shall roll until it becomes a great mountain, and fills the whole earth. All the proof for the world’s conversion …",
      "weight": 0.8,
      "group": "apl"
    },
    {
      "index": 8,
      "lang": "en",
      "para_id": "1641.6642",
      "pub_code": "ARSH",
      "pub_name": "The Advent Review, and Sabbath Herald, vol. 7",
      "refcode_long": "The Advent Review, and Sabbath Herald, vol. 7 March 6,  1856, page 181 paragraph 5",
      "refcode_short": "ARSH March 6,  1856, page 181.5",
      "pub_year": "1855",
      "snippet": "… the <mark>stone</mark> smiting the image. To say that the “<mark>stone cut</mark> out of the mountain <mark>without hands</mark>,” represents the saints being brought out from human governments, and …",
      "weight": 0.8,
      "group": "apl"
    },
    {
      "index": 9,
      "lang": "en",
      "para_id": "1488.213",
      "pub_code": "FUMP",
      "pub_name": "The Four Universal Monarchies of the Prophecy of Daniel, and God’s Everlasting Kingdom",
      "refcode_long": "The Four Universal Monarchies of the Prophecy of Daniel, and God’s Everlasting Kingdom, p. 43.7 (James Springer White)",
      "refcode_short": "FUMP 43.7",
      "pub_year": "1855",
      "snippet": "8th. This power is to be broken <mark>without hand</mark>. Compare with Chap. 2:34, 45, where it is said that the <mark>stone “cut</mark> out <mark>without hands</mark>,” smote the image, etc. Its destruction then takes place at the final overthrow of all earthly powers.",
      "weight": 0.77,
      "group": "apl"
    },
    {
      "index": 10,
      "lang": "en",
      "para_id": "1656.5184",
      "pub_code": "HST",
      "pub_name": "Signs of the Times and Expositor of Prophecy [Himes], vol. 4",
      "refcode_long": "Signs of the Times and Expositor of Prophecy [Himes], vol. 4 March 1,  1843, page 190 paragraph 8",
      "refcode_short": "HST March 1,  1843, page 190.8",
      "pub_year": "1842",
      "snippet": "I wish you to observe, that the ‘great image,’ representing the four great monarchies, was dashed all to pieces by a <mark>stone, cut</mark> out <mark>without hands</mark>, which <mark>stone</mark>, (the kingdom of God,) “filled the whole earth.”",
      "weight": 0.76,
      "group": "apl"
    },
    {
      "index": 11,
      "lang": "en",
      "para_id": "956.1464",
      "pub_code": "PFF1",
      "pub_name": "The Prophetic Faith of Our Fathers, vol. 1",
      "refcode_long": "The Prophetic Faith of Our Fathers, vol. 1, p. 245.2 (LeRoy Edwin Froom)",
      "refcode_short": "PFF1 245.2",
      "pub_year": "1950",
      "snippet": "… “<mark>stone,” cut</mark> out of the mountain <mark>without hands</mark>, does not smite the image before but after Rome’s division. He definitely dates the heaven-descending <mark>stone</mark> smiting …",
      "weight": 0.76,
      "group": "apl"
    },
    {
      "index": 12,
      "lang": "en",
      "para_id": "1582.3172",
      "pub_code": "PFF3",
      "pub_name": "The Prophetic Faith of Our Fathers, vol. 3",
      "refcode_long": "The Prophetic Faith of Our Fathers, vol. 3, p. 459.5 (LeRoy Edwin Froom)",
      "refcode_short": "PFF3 459.5",
      "pub_year": "1946",
      "snippet": "“This statue is now in the toes; and in the battle of Armageddon, these, and all the rest of it, are ground into dust, by the smiting of the <mark>stone cut</mark> out <mark>without hands</mark>.” Ibid., p. 121.",
      "weight": 0.75,
      "group": "apl"
    },
    {
      "index": 13,
      "lang": "en",
      "para_id": "956.1462",
      "pub_code": "PFF1",
      "pub_name": "The Prophetic Faith of Our Fathers, vol. 1",
      "refcode_long": "The Prophetic Faith of Our Fathers, vol. 1, p. 245.1 (LeRoy Edwin Froom)",
      "refcode_short": "PFF1 245.1",
      "pub_year": "1950",
      "snippet": "… <mark>stone cut</mark> out <mark>without hands</mark>; and as he does himself say: ‘The feet were indeed the one part iron, the other part clay, until the <mark>stone</mark> was <mark>cut</mark> out <mark>without hands</mark>, and …",
      "weight": 0.74,
      "group": "apl"
    },
    {
      "index": 14,
      "lang": "en",
      "para_id": "1124.487",
      "pub_code": "CWCP",
      "pub_name": "The Consecrated Way to Christian Perfection",
      "refcode_long": "The Consecrated Way to Christian Perfection, p. 95.1 (Alonzo Trevier Jones)",
      "refcode_short": "CWCP 95.1",
      "pub_year": "1905",
      "snippet": "… “broken <mark>without hand</mark> ” by that <mark>stone “cut</mark> out of the mountain <mark>without hands</mark>, ” which then breaks in pieces and consumes all earthly kingdoms. Daniel 2:34, 35, 44, 45 …",
      "weight": 0.73,
      "group": "apl"
    },
    {
      "index": 15,
      "lang": "en",
      "para_id": "1469.589",
      "pub_code": "OFH1",
      "pub_name": "Our Faith and Hope, No. 1",
      "refcode_long": "Our Faith and Hope, No. 1, p. 116.5 (James Springer White)",
      "refcode_short": "OFH1 116.5",
      "pub_year": "1870",
      "snippet": "… broken <mark>without hand</mark>.” How clear the reference to the <mark>stone “cut</mark> out <mark>without hands</mark>,” that smote the image. Daniel 2:34. Its destruction, then, does not take place until …",
      "weight": 0.73,
      "group": "apl"
    },
    {
      "index": 16,
      "lang": "en",
      "para_id": "1656.1639",
      "pub_code": "HST",
      "pub_name": "Signs of the Times and Expositor of Prophecy [Himes], vol. 4",
      "refcode_long": "Signs of the Times and Expositor of Prophecy [Himes], vol. 4 November 16,  1842, page 67 paragraph 19",
      "refcode_short": "HST November 16,  1842, page 67.19",
      "pub_year": "1842",
      "snippet": "Its fate is to be broken <mark>without hand</mark>. The fate of Rome may be learned by referring to the doom of the image “ broken to pieces by the <mark>stone cut</mark> out <mark>without hands</mark> .” Destroyed by the brightness of Christ’s coming.",
      "weight": 0.73,
      "group": "apl"
    },
    {
      "index": 17,
      "lang": "en",
      "para_id": "1642.4613",
      "pub_code": "ARSH",
      "pub_name": "The Advent Review, and Sabbath Herald, vol. 6",
      "refcode_long": "The Advent Review, and Sabbath Herald, vol. 6 November 21,  1854, page 117 paragraph 1",
      "refcode_short": "ARSH November 21,  1854, page 117.1",
      "pub_year": "1854",
      "snippet": "8th. This power is to be broken <mark>without hand</mark>. Compare with Chap 2:34, 45, where it is said that the <mark>stone “cut</mark> out <mark>without hands</mark>,” smote the image, etc. Its destruction then takes place at the final overthrow of all earthly powers.",
      "weight": 0.73,
      "group": "apl"
    },
    {
      "index": 18,
      "lang": "en",
      "para_id": "1674.7891",
      "pub_code": "ARSH",
      "pub_name": "Advent Review, and Sabbath Herald, vol. 9",
      "refcode_long": "Advent Review, and Sabbath Herald, vol. 9 April 30,  1857, page 203 paragraph 22",
      "refcode_short": "ARSH April 30,  1857, page 203.22",
      "pub_year": "1856",
      "snippet": "8th. This power is to be broken <mark>without hand</mark>. Compare with Chap. 2:34, 45, where it is said that the <mark>stone “cut</mark> out <mark>without hands</mark>,” smote the image, etc. Its destruction then takes place at the final overthrow of all earthly powers.",
      "weight": 0.73,
      "group": "apl"
    },
    {
      "index": 19,
      "lang": "en",
      "para_id": "1656.561",
      "pub_code": "HST",
      "pub_name": "Signs of the Times and Expositor of Prophecy [Himes], vol. 4",
      "refcode_long": "Signs of the Times and Expositor of Prophecy [Himes], vol. 4 October 12,  1842, page 26 paragraph 5",
      "refcode_short": "HST October 12,  1842, page 26.5",
      "pub_year": "1842",
      "snippet": "… <mark> cut</mark> out <mark>without hands</mark>,—body destroyed and given to the burning flame,—broken <mark>without hands</mark>, etc., see Daniel 7:8. All other persons were broken with <mark>hands</mark>.",
      "weight": 0.72,
      "group": "apl"
    }
  ]
}
