{
  "next": "https://a.egwwritings.org/search?lang=en&period=all&facets=False&query=Daniel%202%20image&offset=25&limit=25&order=rel&snippet=long&query_type=prefer_exact",
  "previous": null,
  "total": 556,
  "count": 556,
  "results": [
    {
      "index": 0,
      "lang": "en",
      "para_id": "953.867",
      "pub_code": "CFF1",
      "pub_name": "The Conditionalist Faith of Our Fathers, vol. 1",
      "refcode_long": "The Conditionalist Faith of Our Fathers, vol. 1, p. 126.1 (LeRoy Edwin Froom)",
      "refcode_short": "CFF1 126.1",
      "pub_year": "1966",
      "snippet": "… things” ( <mark>Daniel 2</mark>:22 )—particularly as to “what shall be in the latter days” ( <mark>Daniel 2</mark>:28, 29 ).",
      "weight": 1,
      "group": "apl"
    },
    {
      "index": 1,
      "lang": "en",
      "para_id": "934.1145",
      "pub_code": "HSFM",
      "pub_name": "Historical Sketches of the Foreign Missions of the Seventh-day Adventists",
      "refcode_long": "Historical Sketches of the Foreign Missions of the Seventh-day Adventists, p. 296.13 (Foreign Missions of the Seventh-day Adventists)",
      "refcode_short": "HSFM 296.13",
      "pub_year": "1886",
      "snippet": "THE GREAT <mark>IMAGE</mark> OF <mark>Daniel 2</mark>, AND THE FOUR SYMBOLIC BEASTS OF <mark>Daniel</mark> 7. (La grande Statue de <mark>Daniel 2</mark> .) 8 cts.",
      "weight": 0.95,
      "group": "apl"
    },
    {
      "index": 2,
      "lang": "en",
      "para_id": "956.1538",
      "pub_code": "PFF1",
      "pub_name": "The Prophetic Faith of Our Fathers, vol. 1",
      "refcode_long": "The Prophetic Faith of Our Fathers, vol. 1, p. 256.2 (LeRoy Edwin Froom)",
      "refcode_short": "PFF1 256.2",
      "pub_year": "1950",
      "snippet": "He specifically declares Christ to be the stone of <mark>Daniel 2</mark> that will smite at His second coming the “secular kingdom” <mark>image</mark> of <mark>Daniel 2</mark> .",
      "weight": 0.94,
      "group": "apl"
    },
    {
      "index": 3,
      "lang": "en",
      "para_id": "14170.6755003",
      "pub_code": "HCon",
      "pub_name": "Strong’s Hebrew Concordance",
      "refcode_long": "Strong’s Hebrew Concordance, p. TSELEM.3 (James Strong)",
      "refcode_short": "HCon TSELEM.3",
      "pub_year": "1894",
      "snippet": "<mark>image Daniel 2</mark>:31 <mark>Daniel 2</mark>:34 <mark>Daniel 2</mark>:35 <mark>Daniel</mark> 3:1 <mark>Daniel</mark> 3:<mark>2 Daniel</mark> 3:3 <mark>Daniel</mark> 3:5 <mark>Daniel</mark> 3:7 <mark>Daniel</mark> 3:10 <mark>Daniel</mark> 3:12 <mark>Daniel</mark> 3:14 <mark>Daniel</mark> 3:15 <mark>Daniel</mark> 3:18",
      "weight": 0.94,
      "group": "bible"
    },
    {
      "index": 4,
      "lang": "en",
      "para_id": "14720.7433",
      "pub_code": "ABC-OT",
      "pub_name": "Andrews Bible Commentary - Old Testament",
      "refcode_long": "Andrews Bible Commentary - Old Testament, p. 1027.28",
      "refcode_short": "ABC-OT 1027.28",
      "pub_year": "",
      "snippet": "",
      "weight": 0.93,
      "group": "bible",
      "action_required": "purchased"
    },
    {
      "index": 5,
      "lang": "en",
      "para_id": "1656.1615",
      "pub_code": "HST",
      "pub_name": "Signs of the Times and Expositor of Prophecy [Himes], vol. 4",
      "refcode_long": "Signs of the Times and Expositor of Prophecy [Himes], vol. 4 November 16,  1842, page 66 paragraph 13",
      "refcode_short": "HST November 16,  1842, page 66.13",
      "pub_year": "1842",
      "snippet": "… the <mark>image</mark> of <mark>Daniel 2</mark> ., the stone smites the <mark>image</mark> in the feet of it, which are of iron and clay—these represent the fourth, or Roman kingdom divided, when all the …",
      "weight": 0.88,
      "group": "apl"
    },
    {
      "index": 6,
      "lang": "en",
      "para_id": "956.2527",
      "pub_code": "PFF1",
      "pub_name": "The Prophetic Faith of Our Fathers, vol. 1",
      "refcode_long": "The Prophetic Faith of Our Fathers, vol. 1, p. 404.3 (LeRoy Edwin Froom)",
      "refcode_short": "PFF1 404.3",
      "pub_year": "1950",
      "snippet": "… prophetic <mark>image</mark> of <mark>Daniel 2</mark> paralleling the four beasts of chapter 7 means Babylon, Media, Alexander’s kingdom, and “the children of Esau” (Rome), and that the …",
      "weight": 0.88,
      "group": "apl"
    },
    {
      "index": 7,
      "lang": "en",
      "para_id": "12666.8719",
      "pub_code": "HSDAT",
      "pub_name": "Handbook of SDA Theology",
      "refcode_long": "Handbook of SDA Theology, p. 803.3 (Raoul Dederen-GCSDA)",
      "refcode_short": "HSDAT 803.3",
      "pub_year": "2000",
      "snippet": "",
      "weight": 0.87,
      "group": "bible",
      "action_required": "purchased"
    },
    {
      "index": 8,
      "lang": "en",
      "para_id": "1579.2124",
      "pub_code": "PFF2",
      "pub_name": "The Prophetic Faith of Our Fathers, vol. 2",
      "refcode_long": "The Prophetic Faith of Our Fathers, vol. 2, p. 347.1 (LeRoy Edwin Froom)",
      "refcode_short": "PFF2 347.1",
      "pub_year": "1948",
      "snippet": "… , in <mark>Daniel 2</mark> the prophet <mark>Daniel</mark> is portrayed as expounding to Nebuchadnezzar the meaning of the great <mark>image</mark> of <mark>Daniel 2</mark>, which is pictured, with the stone from …",
      "weight": 0.86,
      "group": "apl"
    },
    {
      "index": 9,
      "lang": "en",
      "para_id": "1579.2781",
      "pub_code": "PFF2",
      "pub_name": "The Prophetic Faith of Our Fathers, vol. 2",
      "refcode_long": "The Prophetic Faith of Our Fathers, vol. 2, p. 438.2 (LeRoy Edwin Froom)",
      "refcode_short": "PFF2 438.2",
      "pub_year": "1948",
      "snippet": "… of <mark>Daniel 2</mark>, nor on the ten horns, and the Little Horn of <mark>Daniel</mark> 7. Of <mark>Daniel 2</mark>, Calvin does say, “Under one <mark>image</mark> the whole state of the world is here depicted for us …",
      "weight": 0.85,
      "group": "apl"
    },
    {
      "index": 10,
      "lang": "en",
      "para_id": "1476.218",
      "pub_code": "RDAC",
      "pub_name": "Refutation of the Doctrine Called The Age to Come",
      "refcode_long": "Refutation of the Doctrine Called The Age to Come, p. 48.3 (Joseph Harvey Waggoner)",
      "refcode_short": "RDAC 48.3",
      "pub_year": "1872",
      "snippet": "<mark>2</mark>. The margin of <mark>Daniel 2</mark>:44, has “ Chald., their days .” Dr. Clarke says that from <mark>Daniel 2</mark>:4, to the end of chapter 7, it was written in Chaldee, or Syro-Chaldaic. The reader …",
      "weight": 0.83,
      "group": "apl"
    },
    {
      "index": 11,
      "lang": "en",
      "para_id": "1538.1247",
      "pub_code": "SITI",
      "pub_name": "The Signs of the Times, vol. 11",
      "refcode_long": "The Signs of the Times, vol. 11 October 29,  1885, page 646 paragraph 2",
      "refcode_short": "SITI October 29,  1885, page 646.2",
      "pub_year": "1885",
      "snippet": "… of <mark>Daniel</mark>. In that chapter, as already learned, four universal empires are symbolized by the four different metals of which the <mark>image</mark> was composed. The fourth …",
      "weight": 0.81,
      "group": "apl"
    },
    {
      "index": 12,
      "lang": "en",
      "para_id": "1583.2058",
      "pub_code": "PFF4",
      "pub_name": "The Prophetic Faith of Our Fathers, vol. 4",
      "refcode_long": "The Prophetic Faith of Our Fathers, vol. 4, p. 345.1 (LeRoy Edwin Froom)",
      "refcode_short": "PFF4 345.1",
      "pub_year": "1954",
      "snippet": "… power ( <mark>Daniel</mark> 7 ). “<mark>Image</mark> of gold, silver, brass, and iron” here are the “four universal monarchies” ( <mark>Daniel 2</mark> ). “Moon” stands for the Jewish ecclesiastical state, and “mountain …",
      "weight": 0.81,
      "group": "apl"
    },
    {
      "index": 13,
      "lang": "en",
      "para_id": "14720.329",
      "pub_code": "ABC-OT",
      "pub_name": "Andrews Bible Commentary - Old Testament",
      "refcode_long": "Andrews Bible Commentary - Old Testament, p. 47.12",
      "refcode_short": "ABC-OT 47.12",
      "pub_year": "",
      "snippet": "",
      "weight": 0.8,
      "group": "bible",
      "action_required": "purchased"
    },
    {
      "index": 14,
      "lang": "en",
      "para_id": "1453.478",
      "pub_code": "FEE",
      "pub_name": "From Eden to Eden",
      "refcode_long": "From Eden to Eden, p. 89.5 (Joseph Harvey Waggoner)",
      "refcode_short": "FEE 89.5",
      "pub_year": "1890",
      "snippet": "… in <mark>Daniel 2</mark>; the second, Medo-Persia, is named in <mark>Daniel</mark> 8; and the third, Grecia, is also named in <mark>Daniel</mark> 8, as we have seen. The ram was said by the angel to be the kings …",
      "weight": 0.8,
      "group": "apl"
    },
    {
      "index": 15,
      "lang": "en",
      "para_id": "1579.4722",
      "pub_code": "PFF2",
      "pub_name": "The Prophetic Faith of Our Fathers, vol. 2",
      "refcode_long": "The Prophetic Faith of Our Fathers, vol. 2, p. 729.1 (LeRoy Edwin Froom)",
      "refcode_short": "PFF2 729.1",
      "pub_year": "1948",
      "snippet": "… which <mark>Daniel</mark> speaks in his Prophecy, <mark>Daniel 2</mark>:28, 44 and <mark>Daniel</mark> 7:27 .” The stone is the eternal “Kingdom of Christ,” to be established only after “the Days” of the kings …",
      "weight": 0.79,
      "group": "apl"
    },
    {
      "index": 16,
      "lang": "en",
      "para_id": "12668.10710",
      "pub_code": "SDAEnc",
      "pub_name": "SDA Encyclopedia",
      "refcode_long": "SDA Encyclopedia, p. .0 (General Conference of SDA)",
      "refcode_short": "SDAEnc .0",
      "pub_year": "1966",
      "snippet": "",
      "weight": 0.76,
      "group": "bible",
      "action_required": "purchased"
    },
    {
      "index": 17,
      "lang": "en",
      "para_id": "14192.19036",
      "pub_code": "MHBCC",
      "pub_name": "Matthew Henry’s Complete Bible Commentary",
      "refcode_long": "Matthew Henry’s Complete Bible Commentary, p. 853.24 (Matthew Henry)",
      "refcode_short": "MHBCC 853.24",
      "pub_year": "1708",
      "snippet": "… , <mark>Daniel 2</mark>:42. Endeavours were used to unite and cement them for the strengthening of the empire, but in vain: They shall not cleave one to another, <mark>Daniel 2</mark>:43. This …",
      "weight": 0.75,
      "group": "bible"
    },
    {
      "index": 18,
      "lang": "en",
      "para_id": "956.1637",
      "pub_code": "PFF1",
      "pub_name": "The Prophetic Faith of Our Fathers, vol. 1",
      "refcode_long": "The Prophetic Faith of Our Fathers, vol. 1, p. 272.3 (LeRoy Edwin Froom)",
      "refcode_short": "PFF1 272.3",
      "pub_year": "1950",
      "snippet": "The <mark>image</mark> of <mark>Daniel 2</mark> and the four beasts of <mark>Daniel</mark> 7 are declared to be identical in scope, simply with amplification in <mark>Daniel</mark> 7. These he proceeds to parallel:",
      "weight": 0.74,
      "group": "apl"
    },
    {
      "index": 19,
      "lang": "en",
      "para_id": "1681.5164",
      "pub_code": "ARSH",
      "pub_name": "Advent Review, and Sabbath Herald, vol. 22",
      "refcode_long": "Advent Review, and Sabbath Herald, vol. 22 September 15,  1863, page 124",
      "refcode_short": "ARSH September 15,  1863, page 124",
      "pub_year": "1863",
      "snippet": "Lessons for Bible Students LESSON XXII. Nebuchadnezzar’s Great <mark>image- Daniel 2</mark>. (PROPHECY OF <mark>DANIEL</mark>, PP.3-7.)",
      "weight": 0.74,
      "group": "apl"
    },
    {
      "index": 20,
      "lang": "en",
      "para_id": "1681.5573",
      "pub_code": "ARSH",
      "pub_name": "Advent Review, and Sabbath Herald, vol. 22",
      "refcode_long": "Advent Review, and Sabbath Herald, vol. 22 September 22,  1863, page 132",
      "refcode_short": "ARSH September 22,  1863, page 132",
      "pub_year": "1863",
      "snippet": "Lessons for Bible Students LESSON XXIII. Nebuchadnezzar’s Great <mark>Image- Daniel 2</mark>, (Concluded.) (PROPHECY OF <mark>DANIEL</mark>, PP.7-14.)",
      "weight": 0.74,
      "group": "apl"
    },
    {
      "index": 21,
      "lang": "en",
      "para_id": "12861.161",
      "pub_code": "DAR",
      "pub_name": "Daniel and The Revelation",
      "refcode_long": "Daniel and The Revelation, p. 16.2 (Uriah Smith)",
      "refcode_short": "DAR 16.2",
      "pub_year": "1897",
      "snippet": "The Great World-Kingdom <mark>Image, Daniel 2</mark>:34, 38 ..... 41",
      "weight": 0.73,
      "group": "apl"
    },
    {
      "index": 22,
      "lang": "en",
      "para_id": "1345.1195",
      "pub_code": "SYNPT",
      "pub_name": "Synopsis of the Present Truth",
      "refcode_long": "Synopsis of the Present Truth, p. 250.1 (Uriah Smith)",
      "refcode_short": "SYNPT 250.1",
      "pub_year": "1884",
      "snippet": "… the <mark>image</mark> of <mark>Daniel 2</mark> are again symbolized, with some sharply-outlined subdivisions, and the fixed limitations of a prophetic period. As in <mark>Daniel 2</mark>, so here …",
      "weight": 0.73,
      "group": "apl"
    },
    {
      "index": 23,
      "lang": "en",
      "para_id": "1641.5680",
      "pub_code": "ARSH",
      "pub_name": "The Advent Review, and Sabbath Herald, vol. 7",
      "refcode_long": "The Advent Review, and Sabbath Herald, vol. 7 February 14,  1856, page 154 paragraph 15",
      "refcode_short": "ARSH February 14,  1856, page 154.15",
      "pub_year": "1855",
      "snippet": "… <mark>image</mark> upon its feet, when it becomes like the chaff of the summer threshing floors, and the wind carries them away, that no place was found for them. <mark>Daniel 2</mark>:35 …",
      "weight": 0.73,
      "group": "apl"
    },
    {
      "index": 24,
      "lang": "en",
      "para_id": "1381.220",
      "pub_code": "TBI",
      "pub_name": "The Biblical Institute",
      "refcode_long": "The Biblical Institute, p. 38.4 (Uriah Smith)",
      "refcode_short": "TBI 38.4",
      "pub_year": "1878",
      "snippet": "<mark>2. Daniel 2</mark>:45. What is the mountain out of which the stone was cut that smote the <mark>image</mark> on its feet?",
      "weight": 0.73,
      "group": "apl"
    }
  ]
}
