{
  "next": "https://a.egwwritings.org/search?lang=en&period=all&facets=False&query=judgment%20scene%20Daniel%207&offset=25&limit=25&order=rel&snippet=long&query_type=prefer_exact",
  "previous": null,
  "total": 106,
  "count": 106,
  "results": [
    {
      "index": 0,
      "lang": "en",
      "para_id": "1203.262",
      "pub_code": "TSAM",
      "pub_name": "The Second Advent Manual",
      "refcode_long": "The Second Advent Manual, p. 49.1 (Apollos Hale)",
      "refcode_short": "TSAM 49.1",
      "pub_year": "1843",
      "snippet": "… the <mark>judgment scene. Daniel 7</mark>:10; Revelation 20:12, 15; 21:27. The second of these wonders is, therefore, the <mark>judgment scene</mark>, which brings “trouble” to the wicked and …",
      "weight": 1,
      "group": "apl"
    },
    {
      "index": 1,
      "lang": "en",
      "para_id": "1655.2869",
      "pub_code": "HST",
      "pub_name": "Signs of the Times and Expositor of Prophecy [Himes], vol. 5",
      "refcode_long": "Signs of the Times and Expositor of Prophecy [Himes], vol. 5 May 24,  1843, page 93 paragraph 12",
      "refcode_short": "HST May 24,  1843, page 93.12",
      "pub_year": "1843",
      "snippet": "… the <mark>judgment scene. Daniel 7</mark>:10; Revelation 20:12, 15; 21:27. The second of these wonders is, therefore, the <mark>judgment scene</mark>, which brings “trouble” to the wicked and …",
      "weight": 0.97,
      "group": "apl"
    },
    {
      "index": 2,
      "lang": "en",
      "para_id": "818.52",
      "pub_code": "QSEW",
      "pub_name": "101 Questions on the Sanctuary and on Ellen White",
      "refcode_long": "101 Questions on the Sanctuary and on Ellen White, p. 10.2 (Robert W. Olson)",
      "refcode_short": "QSEW 10.2",
      "pub_year": "1981",
      "snippet": "… the <mark>scene. Daniel 7</mark>:1-<mark>7</mark>, 23, 24. These nations, in turn, would witness the development and age-long supremacy of the papal power. <mark>Daniel 7</mark>:8, 24, 25. <mark>Daniel</mark> states that …",
      "weight": 0.78,
      "group": "reference"
    },
    {
      "index": 3,
      "lang": "en",
      "para_id": "1149.160",
      "pub_code": "JEO",
      "pub_name": "The Judgment. Its Events and Their Order",
      "refcode_long": "The Judgment. Its Events and Their Order, p. 33.2 (John Nevins Andrews)",
      "refcode_short": "JEO 33.2",
      "pub_year": "1890",
      "snippet": "… . Compare <mark>Daniel</mark> 12:1; <mark>7</mark>:9, 10. This shows that the <mark>judgment scene</mark> of <mark>Daniel 7</mark> relates to the righteous, and that it precedes their final deliverance at the advent …",
      "weight": 0.74,
      "group": "apl"
    },
    {
      "index": 4,
      "lang": "en",
      "para_id": "12666.9468",
      "pub_code": "HSDAT",
      "pub_name": "Handbook of SDA Theology",
      "refcode_long": "Handbook of SDA Theology, p. 874.4 (Raoul Dederen-GCSDA)",
      "refcode_short": "HSDAT 874.4",
      "pub_year": "2000",
      "snippet": "",
      "weight": 0.72,
      "group": "bible",
      "action_required": "purchased"
    },
    {
      "index": 5,
      "lang": "en",
      "para_id": "12666.4161",
      "pub_code": "HSDAT",
      "pub_name": "Handbook of SDA Theology",
      "refcode_long": "Handbook of SDA Theology, p. 396.4 (Raoul Dederen-GCSDA)",
      "refcode_short": "HSDAT 396.4",
      "pub_year": "2000",
      "snippet": "",
      "weight": 0.71,
      "group": "bible",
      "action_required": "purchased"
    },
    {
      "index": 6,
      "lang": "en",
      "para_id": "14720.5266",
      "pub_code": "ABC-OT",
      "pub_name": "Andrews Bible Commentary - Old Testament",
      "refcode_long": "Andrews Bible Commentary - Old Testament, p. 723.150",
      "refcode_short": "ABC-OT 723.150",
      "pub_year": "",
      "snippet": "",
      "weight": 0.66,
      "group": "bible",
      "action_required": "purchased"
    },
    {
      "index": 7,
      "lang": "en",
      "para_id": "1408.1040",
      "pub_code": "STTHD",
      "pub_name": "The Sanctuary and the Twenty-three Hundred Days of Daniel 8:14",
      "refcode_long": "The Sanctuary and the Twenty-three Hundred Days of Daniel 8:14, p. 254.1 (Uriah Smith)",
      "refcode_short": "STTHD 254.1",
      "pub_year": "1877",
      "snippet": "… man. <mark>Daniel 7</mark>:13, 14. Then opened the solemn <mark>Judgment scene</mark> of verses 9, 10 of <mark>Daniel 7</mark>. Then the seventh angel sounded, and the work of finishing the mystery of God …",
      "weight": 0.66,
      "group": "apl"
    },
    {
      "index": 8,
      "lang": "en",
      "para_id": "12666.9081",
      "pub_code": "HSDAT",
      "pub_name": "Handbook of SDA Theology",
      "refcode_long": "Handbook of SDA Theology, p. 834.3 (Raoul Dederen-GCSDA)",
      "refcode_short": "HSDAT 834.3",
      "pub_year": "2000",
      "snippet": "",
      "weight": 0.65,
      "group": "bible",
      "action_required": "purchased"
    },
    {
      "index": 9,
      "lang": "en",
      "para_id": "956.2854",
      "pub_code": "PFF1",
      "pub_name": "The Prophetic Faith of Our Fathers, vol. 1",
      "refcode_long": "The Prophetic Faith of Our Fathers, vol. 1, p. 446.3 (LeRoy Edwin Froom)",
      "refcode_short": "PFF1 446.3",
      "pub_year": "1950",
      "snippet": "Describing at considerable length the <mark>judgment scene</mark> of <mark>Daniel 7</mark>:9 and related texts, Jerome parallels similar <mark>scenes</mark> in the Apocalypse and Ezekiel, with God as judge, and the books of <mark>judgment</mark> involved. Ibid., verses 9-27, cols. 531-534.",
      "weight": 0.63,
      "group": "apl"
    },
    {
      "index": 10,
      "lang": "en",
      "para_id": "12666.8890",
      "pub_code": "HSDAT",
      "pub_name": "Handbook of SDA Theology",
      "refcode_long": "Handbook of SDA Theology, p. 817.5 (Raoul Dederen-GCSDA)",
      "refcode_short": "HSDAT 817.5",
      "pub_year": "2000",
      "snippet": "",
      "weight": 0.62,
      "group": "bible",
      "action_required": "purchased"
    },
    {
      "index": 11,
      "lang": "en",
      "para_id": "1582.1512",
      "pub_code": "PFF3",
      "pub_name": "The Prophetic Faith of Our Fathers, vol. 3",
      "refcode_long": "The Prophetic Faith of Our Fathers, vol. 3, p. 222.3 (LeRoy Edwin Froom)",
      "refcode_short": "PFF3 222.3",
      "pub_year": "1946",
      "snippet": "On <mark>Daniel 7</mark>, Osgood was in contusion, believing the second beast to represent the Mohammedan power. But he held that the great <mark>judgment scene</mark> of verses 10, 26 …",
      "weight": 0.62,
      "group": "apl"
    },
    {
      "index": 12,
      "lang": "en",
      "para_id": "1582.5282",
      "pub_code": "PFF3",
      "pub_name": "The Prophetic Faith of Our Fathers, vol. 3",
      "refcode_long": "The Prophetic Faith of Our Fathers, vol. 3, p. 747.2 (LeRoy Edwin Froom)",
      "refcode_short": "PFF3 747.2",
      "pub_year": "1946",
      "snippet": "… : the <mark>judgment</mark> was set, and the books were opened.” This portrays the <mark>judgment scene</mark> in heaven while error and evil are still at work here on earth. While the unbelieving …",
      "weight": 0.6,
      "group": "apl"
    },
    {
      "index": 13,
      "lang": "en",
      "para_id": "12666.9141",
      "pub_code": "HSDAT",
      "pub_name": "Handbook of SDA Theology",
      "refcode_long": "Handbook of SDA Theology, p. 841.3 (Raoul Dederen-GCSDA)",
      "refcode_short": "HSDAT 841.3",
      "pub_year": "2000",
      "snippet": "",
      "weight": 0.6,
      "group": "bible",
      "action_required": "purchased"
    },
    {
      "index": 14,
      "lang": "en",
      "para_id": "1149.214",
      "pub_code": "JEO",
      "pub_name": "The Judgment. Its Events and Their Order",
      "refcode_long": "The Judgment. Its Events and Their Order, p. 46.1 (John Nevins Andrews)",
      "refcode_short": "JEO 46.1",
      "pub_year": "1890",
      "snippet": "… God’s <mark>judgment</mark> has come is announced to the inhabitants of the earth by a mighty proclamation. The <mark>judgment scene</mark> of <mark>Daniel 7</mark> is closed by the coronation …",
      "weight": 0.6,
      "group": "apl"
    },
    {
      "index": 15,
      "lang": "en",
      "para_id": "1462.1658",
      "pub_code": "LIFIN",
      "pub_name": "Life Incidents",
      "refcode_long": "Life Incidents, p. 323.3 (James Springer White)",
      "refcode_short": "LIFIN 323.3",
      "pub_year": "1868",
      "snippet": "… throw, <mark>Daniel</mark> 3:20, 21, 24; 6:17. (2.) To set, to place, e.g., thrones. <mark>Daniel 7</mark>:9; comp. Revelation 4:2 .” The term used by the Septuagint is, which literally rendered, according …",
      "weight": 0.59,
      "group": "apl"
    },
    {
      "index": 16,
      "lang": "en",
      "para_id": "1583.4682",
      "pub_code": "PFF4",
      "pub_name": "The Prophetic Faith of Our Fathers, vol. 4",
      "refcode_long": "The Prophetic Faith of Our Fathers, vol. 4, p. 808.2 (LeRoy Edwin Froom)",
      "refcode_short": "PFF4 808.2",
      "pub_year": "1954",
      "snippet": "… of <mark>Daniel 7</mark> parallel the four metals of <mark>Daniel</mark> 2 -Babylonia, Persia, Grecia, and Rome. Then, after the great <mark>judgment scene</mark>, comes God’s kingdom forever. The Little …",
      "weight": 0.58,
      "group": "apl"
    },
    {
      "index": 17,
      "lang": "en",
      "para_id": "14720.1704",
      "pub_code": "ABC-OT",
      "pub_name": "Andrews Bible Commentary - Old Testament",
      "refcode_long": "Andrews Bible Commentary - Old Testament, p. 262.32",
      "refcode_short": "ABC-OT 262.32",
      "pub_year": "",
      "snippet": "",
      "weight": 0.57,
      "group": "bible",
      "action_required": "purchased"
    },
    {
      "index": 18,
      "lang": "en",
      "para_id": "1149.142",
      "pub_code": "JEO",
      "pub_name": "The Judgment. Its Events and Their Order",
      "refcode_long": "The Judgment. Its Events and Their Order, p. 29.2 (John Nevins Andrews)",
      "refcode_short": "JEO 29.2",
      "pub_year": "1890",
      "snippet": "… that <mark>judgment scene</mark> at which the Father presides. We are certain, therefore, that the tribunal of <mark>Daniel 7</mark>:9-14 precedes the descent of our Lord from heaven …",
      "weight": 0.57,
      "group": "apl"
    },
    {
      "index": 19,
      "lang": "en",
      "para_id": "14720.7442",
      "pub_code": "ABC-OT",
      "pub_name": "Andrews Bible Commentary - Old Testament",
      "refcode_long": "Andrews Bible Commentary - Old Testament, p. 1027.37",
      "refcode_short": "ABC-OT 1027.37",
      "pub_year": "",
      "snippet": "",
      "weight": 0.56,
      "group": "bible",
      "action_required": "purchased"
    },
    {
      "index": 20,
      "lang": "en",
      "para_id": "14720.7530",
      "pub_code": "ABC-OT",
      "pub_name": "Andrews Bible Commentary - Old Testament",
      "refcode_long": "Andrews Bible Commentary - Old Testament, p. 1037.48",
      "refcode_short": "ABC-OT 1037.48",
      "pub_year": "",
      "snippet": "",
      "weight": 0.56,
      "group": "bible",
      "action_required": "purchased"
    },
    {
      "index": 21,
      "lang": "en",
      "para_id": "1582.5248",
      "pub_code": "PFF3",
      "pub_name": "The Prophetic Faith of Our Fathers, vol. 3",
      "refcode_long": "The Prophetic Faith of Our Fathers, vol. 3, p. 740.2 (LeRoy Edwin Froom)",
      "refcode_short": "PFF3 740.2",
      "pub_year": "1946",
      "snippet": "… last <mark>judgment-scene</mark> phase of <mark>Daniel 7</mark> and to the particular study of <mark>Daniel</mark> 8. Emphasis shifts from the ending of the 1260 years to the approaching close of …",
      "weight": 0.56,
      "group": "apl"
    },
    {
      "index": 22,
      "lang": "en",
      "para_id": "1149.136",
      "pub_code": "JEO",
      "pub_name": "The Judgment. Its Events and Their Order",
      "refcode_long": "The Judgment. Its Events and Their Order, p. 28.3 (John Nevins Andrews)",
      "refcode_short": "JEO 28.3",
      "pub_year": "1890",
      "snippet": "… the <mark>judgment scene</mark> described in <mark>Daniel 7</mark> does not take place upon our earth. Indeed, were it true that immediately preceding the descent of the Saviour to …",
      "weight": 0.55,
      "group": "apl"
    },
    {
      "index": 23,
      "lang": "en",
      "para_id": "1317.536",
      "pub_code": "LUJ",
      "pub_name": "Looking Unto Jesus",
      "refcode_long": "Looking Unto Jesus, p. 135.1 (Uriah Smith)",
      "refcode_short": "LUJ 135.1",
      "pub_year": "1898",
      "snippet": "… investigative <mark>Judgment</mark> is brought to view in <mark>Daniel 7</mark>:9, 10. And it is said that at that time “the Ancient of Days did sit.” The word here rendered “did sit,” signifies …",
      "weight": 0.54,
      "group": "apl"
    },
    {
      "index": 24,
      "lang": "en",
      "para_id": "1408.966",
      "pub_code": "STTHD",
      "pub_name": "The Sanctuary and the Twenty-three Hundred Days of Daniel 8:14",
      "refcode_long": "The Sanctuary and the Twenty-three Hundred Days of Daniel 8:14, p. 234.2 (Uriah Smith)",
      "refcode_short": "STTHD 234.2",
      "pub_year": "1877",
      "snippet": "… investigative <mark>Judgment</mark> is brought to view in <mark>Daniel 7</mark>:9, 10. And it is said that at that time “the Ancient of days did sit.” The word here rendered “did sit,” signifies …",
      "weight": 0.54,
      "group": "apl"
    }
  ]
}
