{
  "next": "https://a.egwwritings.org/search?lang=en&period=all&facets=False&query=investigative%20judgment&offset=30&limit=30&order=rel&snippet=long&query_type=prefer_exact",
  "previous": null,
  "total": 1005,
  "count": 1005,
  "results": [
    {
      "index": 0,
      "lang": "en",
      "para_id": "12667.3010",
      "pub_code": "1EGWLM",
      "pub_name": "The Ellen G. White Letters and Manuscripts: Volume 1",
      "refcode_long": "The Ellen G. White Letters and Manuscripts: Volume 1, p. 519.1 (Ellen Gould White)",
      "refcode_short": "1EGWLM 519.1",
      "pub_year": "2014",
      "snippet": "… <mark> judgment</mark> up to 1857, see Paul A. Gordon, The Sanctuary, 1844, and the Pioneers; SDAE, s.v. “<mark>Investigative Judgment</mark>”; EGWEnc, s.v. “<mark>Investigative Judgment</mark>.”",
      "weight": 1,
      "group": "egwwritings"
    },
    {
      "index": 1,
      "lang": "en",
      "para_id": "1201.66",
      "pub_code": "SOTB",
      "pub_name": "The Sanctuary of the Bible",
      "refcode_long": "The Sanctuary of the Bible, p. 14.1 (John Nevins Andrews)",
      "refcode_short": "SOTB 14.1",
      "pub_year": "1865",
      "snippet": "… <mark> judgment</mark>, which takes place in the heavenly sanctuary, God the Father sitting in <mark>judgment</mark>. The second part is the execution of the <mark>judgment</mark>, and is …",
      "weight": 0.9,
      "group": "apl"
    },
    {
      "index": 2,
      "lang": "en",
      "para_id": "14670.2134",
      "pub_code": "BR-ASI9",
      "pub_name": "Bible Readings — Bible Questions Answered",
      "refcode_long": "Bible Readings — Bible Questions Answered, p. 171.11 (Ellen G. White Estate)",
      "refcode_short": "BR-ASI9 171.11",
      "pub_year": "2023",
      "snippet": "… the <mark>judgment</mark> mentioned in the Scriptures: the <mark>investigative judgment</mark>, preceding the Second Advent; the <mark>judgment</mark> of the lost world and wicked angels by Christ …",
      "weight": 0.86,
      "group": "bible"
    },
    {
      "index": 3,
      "lang": "en",
      "para_id": "818.47",
      "pub_code": "QSEW",
      "pub_name": "101 Questions on the Sanctuary and on Ellen White",
      "refcode_long": "101 Questions on the Sanctuary and on Ellen White, p. 9.6 (Robert W. Olson)",
      "refcode_short": "QSEW 9.6",
      "pub_year": "1981",
      "snippet": "… -advent <mark>judgment</mark>” is not the same as the Adventist teaching of an <mark>investigative judgment</mark>. Ford states, “A pre-advent <mark>judgment</mark> decision as Christ is about to …",
      "weight": 0.85,
      "group": "reference"
    },
    {
      "index": 4,
      "lang": "en",
      "para_id": "12668.11413",
      "pub_code": "SDAEnc",
      "pub_name": "SDA Encyclopedia",
      "refcode_long": "SDA Encyclopedia, p. .0 (General Conference of SDA)",
      "refcode_short": "SDAEnc .0",
      "pub_year": "1966",
      "snippet": "",
      "weight": 0.85,
      "group": "bible",
      "action_required": "purchased"
    },
    {
      "index": 5,
      "lang": "en",
      "para_id": "818.53",
      "pub_code": "QSEW",
      "pub_name": "101 Questions on the Sanctuary and on Ellen White",
      "refcode_long": "101 Questions on the Sanctuary and on Ellen White, p. 10.3 (Robert W. Olson)",
      "refcode_short": "QSEW 10.3",
      "pub_year": "1981",
      "snippet": "… the <mark>investigative judgment</mark> after the year 1798, but before the return of Christ. A more precise date for the beginning of the <mark>judgment</mark>, October 22, 1844, can …",
      "weight": 0.83,
      "group": "reference"
    },
    {
      "index": 6,
      "lang": "en",
      "para_id": "12666.9152",
      "pub_code": "HSDAT",
      "pub_name": "Handbook of SDA Theology",
      "refcode_long": "Handbook of SDA Theology, p. 842.3 (Raoul Dederen-GCSDA)",
      "refcode_short": "HSDAT 842.3",
      "pub_year": "2000",
      "snippet": "",
      "weight": 0.83,
      "group": "bible",
      "action_required": "purchased"
    },
    {
      "index": 7,
      "lang": "en",
      "para_id": "818.21",
      "pub_code": "QSEW",
      "pub_name": "101 Questions on the Sanctuary and on Ellen White",
      "refcode_long": "101 Questions on the Sanctuary and on Ellen White, p. 6.4 (Robert W. Olson)",
      "refcode_short": "QSEW 6.4",
      "pub_year": "1981",
      "snippet": "… the <mark>investigative judgment</mark> and the belief that Ellen White was divinely inspired, are unique to Seventh-day Adventists. If Christ did not begin an <mark>investigative</mark> …",
      "weight": 0.82,
      "group": "reference"
    },
    {
      "index": 8,
      "lang": "en",
      "para_id": "131.1710",
      "pub_code": "FLB",
      "pub_name": "The Faith I Live By",
      "refcode_long": "The Faith I Live By, p. 213.2 (Ellen Gould White)",
      "refcode_short": "FLB 213.2",
      "pub_year": "1958",
      "snippet": "… the <mark>judgment</mark> at which their cases are to be <mark>investigated</mark>.... When the <mark>investigative judgment</mark> closes, Christ will come, and His reward will be with Him to give …",
      "weight": 0.81,
      "group": "egwwritings"
    },
    {
      "index": 9,
      "lang": "en",
      "para_id": "74.1844",
      "pub_code": "Mar",
      "pub_name": "Maranatha",
      "refcode_long": "Maranatha, p. 251.2 (Ellen Gould White)",
      "refcode_short": "Mar 251.2",
      "pub_year": "1976",
      "snippet": "… the <mark>judgment</mark> at which their cases are to be <mark>investigated</mark>.... When the <mark>investigative judgment</mark> closes, Christ will come, and His reward will be with Him to give …",
      "weight": 0.81,
      "group": "egwwritings"
    },
    {
      "index": 10,
      "lang": "en",
      "para_id": "818.196",
      "pub_code": "QSEW",
      "pub_name": "101 Questions on the Sanctuary and on Ellen White",
      "refcode_long": "101 Questions on the Sanctuary and on Ellen White, p. 24.4 (Robert W. Olson)",
      "refcode_short": "QSEW 24.4",
      "pub_year": "1981",
      "snippet": "… <mark> judgment</mark> have cut the nerve of joyous witness for many church members. Legalism is one result, and lack of assurance another, when the <mark>judgment</mark> is …",
      "weight": 0.81,
      "group": "reference"
    },
    {
      "index": 11,
      "lang": "en",
      "para_id": "14670.1914",
      "pub_code": "BR-ASI9",
      "pub_name": "Bible Readings — Bible Questions Answered",
      "refcode_long": "Bible Readings — Bible Questions Answered, p. 155.6 (Ellen G. White Estate)",
      "refcode_short": "BR-ASI9 155.6",
      "pub_year": "2023",
      "snippet": "… of <mark>judgment</mark>, and was, in fact, a type of the <mark>investigative judgment</mark> in heaven. The 2300-day period, representing 2300 years according to symbolic prophecy, reaches …",
      "weight": 0.81,
      "group": "bible"
    },
    {
      "index": 12,
      "lang": "en",
      "para_id": "925.28",
      "pub_code": "FB1931",
      "pub_name": "Fundamental Beliefs 1931",
      "refcode_long": "Fundamental Beliefs 1931, p. 379.2 (General Conference of SDA)",
      "refcode_short": "FB1931 379.2",
      "pub_year": "1931",
      "snippet": "… of <mark>investigative judgment</mark>, first with reference to the dead, and secondly, with reference to the living. This <mark>investigative judgment</mark> determines who of the …",
      "weight": 0.8,
      "group": "apl"
    },
    {
      "index": 13,
      "lang": "en",
      "para_id": "927.28",
      "pub_code": "FB1942",
      "pub_name": "Fundamental Beliefs 1942",
      "refcode_long": "Fundamental Beliefs 1942, p. 5.8 (Claude Conard)",
      "refcode_short": "FB1942 5.8",
      "pub_year": "1942",
      "snippet": "… of <mark>investigative judgment</mark>, first with reference to the dead, and secondly, with reference to the living. This <mark>investigative judgment</mark> determines who of the …",
      "weight": 0.8,
      "group": "apl"
    },
    {
      "index": 14,
      "lang": "en",
      "para_id": "923.29",
      "pub_code": "FB1955",
      "pub_name": "Fundamental Beliefs 1955",
      "refcode_long": "Fundamental Beliefs 1955, p. 4.17 (H. W. Klaser)",
      "refcode_short": "FB1955 4.17",
      "pub_year": "1955",
      "snippet": "… of <mark>investigative judgment</mark>, first with reference to the dead, and secondly, with reference to the living. This <mark>investigative judgment</mark> determines who of the …",
      "weight": 0.8,
      "group": "apl"
    },
    {
      "index": 15,
      "lang": "en",
      "para_id": "929.25",
      "pub_code": "FB1965",
      "pub_name": "Fundamental Beliefs 1965",
      "refcode_long": "Fundamental Beliefs 1965, p. 5.16 (General Conference of SDA)",
      "refcode_short": "FB1965 5.16",
      "pub_year": "1965",
      "snippet": "… of <mark>investigative judgment</mark>, first with reference to the dead, and second with reference to the living. This <mark>investigative judgment</mark> determines who of the …",
      "weight": 0.8,
      "group": "apl"
    },
    {
      "index": 16,
      "lang": "en",
      "para_id": "924.29",
      "pub_code": "FB1975",
      "pub_name": "Fundamental Beliefs 1975",
      "refcode_long": "Fundamental Beliefs 1975, p. 5.17 (Jesse O. Gibson)",
      "refcode_short": "FB1975 5.17",
      "pub_year": "1975",
      "snippet": "… of <mark>investigative judgment</mark>, first with reference to the dead, and second with reference to the living. This <mark>investigative judgment</mark> determines who of the …",
      "weight": 0.8,
      "group": "apl"
    },
    {
      "index": 17,
      "lang": "en",
      "para_id": "951.61",
      "pub_code": "DOF",
      "pub_name": "In Defense of the Faith",
      "refcode_long": "In Defense of the Faith, p. 16.5 (William Henry Branson)",
      "refcode_short": "DOF 16.5",
      "pub_year": "1933",
      "snippet": "… of <mark>investigative judgment</mark>, first with reference to the dead, and secondly, with reference to the living. This <mark>investigative judgment</mark> determines who of the …",
      "weight": 0.8,
      "group": "apl"
    },
    {
      "index": 18,
      "lang": "en",
      "para_id": "949.1493",
      "pub_code": "FSDA",
      "pub_name": "Foundations of the Seventh-day Adventist Message and Mission",
      "refcode_long": "Foundations of the Seventh-day Adventist Message and Mission, p. 308.1 (Pieter Gerard Damsteegt)",
      "refcode_short": "FSDA 308.1",
      "pub_year": "1977",
      "snippet": "… of <mark>investigative judgment</mark>, first, with reference to the dead, and second, with reference to the living. This <mark>investigative judgment</mark> determines who of the …",
      "weight": 0.8,
      "group": "apl"
    },
    {
      "index": 19,
      "lang": "en",
      "para_id": "12668.11386",
      "pub_code": "SDAEnc",
      "pub_name": "SDA Encyclopedia",
      "refcode_long": "SDA Encyclopedia, p. .0 (General Conference of SDA)",
      "refcode_short": "SDAEnc .0",
      "pub_year": "1966",
      "snippet": "",
      "weight": 0.79,
      "group": "bible",
      "action_required": "purchased"
    },
    {
      "index": 20,
      "lang": "en",
      "para_id": "14820.290",
      "pub_code": "JTLD",
      "pub_name": "My Journey to Life - Daily Study Guide",
      "refcode_long": "My Journey to Life - Daily Study Guide, p. 60.2 (Ellen G. White Estate)",
      "refcode_short": "JTLD 60.2",
      "pub_year": "2025",
      "snippet": "… the <mark>judgment</mark> seat of God. In the pre-Advent <mark>investigative judgment</mark>, the true believer who recognizes his need of the righteousness of Christ, will be separated …",
      "weight": 0.78,
      "group": "reference"
    },
    {
      "index": 21,
      "lang": "en",
      "para_id": "14373.83",
      "pub_code": "JTL4",
      "pub_name": "My Journey to Life, Step 4—The Sanctuary",
      "refcode_long": "My Journey to Life, Step 4—The Sanctuary, p. 6.7 (Ellen G. White Estate)",
      "refcode_short": "JTL4 6.7",
      "pub_year": "",
      "snippet": "… the <mark>judgment</mark> seat of God. In the pre-Advent <mark>investigative judgment</mark>, the true believer who recognizes his need of the righteousness of Christ, will be separated …",
      "weight": 0.78,
      "group": "reference"
    },
    {
      "index": 22,
      "lang": "en",
      "para_id": "12362.7992",
      "pub_code": "EGWEnc",
      "pub_name": "The Ellen G. White Encyclopedia",
      "refcode_long": "The Ellen G. White Encyclopedia, p. 904.3 (Denis Fortin, Jerry Moon)",
      "refcode_short": "EGWEnc 904.3",
      "pub_year": "2013",
      "snippet": "",
      "weight": 0.78,
      "group": "reference",
      "action_required": "purchased"
    },
    {
      "index": 23,
      "lang": "en",
      "para_id": "12119.826",
      "pub_code": "CIHS",
      "pub_name": "Christ in His Sanctuary",
      "refcode_long": "Christ in His Sanctuary, p. 180.2 (Ellen Gould White)",
      "refcode_short": "CIHS 180.2",
      "pub_year": "1969",
      "snippet": "… the <mark>investigative judgment</mark> and the blotting out of sins is to be accomplished before the second advent of the Lord. Since the dead are to be judged out of the …",
      "weight": 0.78,
      "group": "egwwritings"
    },
    {
      "index": 24,
      "lang": "en",
      "para_id": "133.2205",
      "pub_code": "GC88",
      "pub_name": "The Great Controversy (1888 ed.)",
      "refcode_long": "The Great Controversy (1888 ed.), p. 485.2 (Ellen Gould White)",
      "refcode_short": "GC88 485.2",
      "pub_year": "1888",
      "snippet": "… the <mark>investigative Judgment</mark> and the blotting out of sins is to be accomplished before the second advent of the Lord. Since the dead are to be judged out of the …",
      "weight": 0.78,
      "group": "egwwritings"
    },
    {
      "index": 25,
      "lang": "en",
      "para_id": "132.2196",
      "pub_code": "GC",
      "pub_name": "The Great Controversy",
      "refcode_long": "The Great Controversy, p. 485.2 (Ellen Gould White)",
      "refcode_short": "GC 485.2",
      "pub_year": "1911",
      "snippet": "… the <mark>investigative judgment</mark> and the blotting out of sins is to be accomplished before the second advent of the Lord. Since the dead are to be judged out of the …",
      "weight": 0.78,
      "group": "egwwritings"
    },
    {
      "index": 26,
      "lang": "en",
      "para_id": "12862.2184",
      "pub_code": "HB",
      "pub_name": "Homeward Bound",
      "refcode_long": "Homeward Bound, p. 321.3 (Ellen Gould White)",
      "refcode_short": "HB 321.3",
      "pub_year": "2015",
      "snippet": "… the <mark>investigative judgment</mark> and the blotting out of sins is to be accomplished before the second advent of the Lord. Since the dead are to be judged out of the …",
      "weight": 0.78,
      "group": "egwwritings"
    },
    {
      "index": 27,
      "lang": "en",
      "para_id": "12666.10025",
      "pub_code": "HSDAT",
      "pub_name": "Handbook of SDA Theology",
      "refcode_long": "Handbook of SDA Theology, p. 921.10 (Raoul Dederen-GCSDA)",
      "refcode_short": "HSDAT 921.10",
      "pub_year": "2000",
      "snippet": "",
      "weight": 0.78,
      "group": "bible",
      "action_required": "purchased"
    },
    {
      "index": 28,
      "lang": "en",
      "para_id": "12362.7997",
      "pub_code": "EGWEnc",
      "pub_name": "The Ellen G. White Encyclopedia",
      "refcode_long": "The Ellen G. White Encyclopedia, p. 905.2 (Denis Fortin, Jerry Moon)",
      "refcode_short": "EGWEnc 905.2",
      "pub_year": "2013",
      "snippet": "",
      "weight": 0.78,
      "group": "reference",
      "action_required": "purchased"
    },
    {
      "index": 29,
      "lang": "en",
      "para_id": "818.46",
      "pub_code": "QSEW",
      "pub_name": "101 Questions on the Sanctuary and on Ellen White",
      "refcode_long": "101 Questions on the Sanctuary and on Ellen White, p. 9.5 (Robert W. Olson)",
      "refcode_short": "QSEW 9.5",
      "pub_year": "1981",
      "snippet": "… an <mark>investigative judgment</mark> of the saints beginning long before the advent.” “Either our basic sanctuary doctrine is found in the New Testament chapter which …",
      "weight": 0.78,
      "group": "reference"
    }
  ]
}
