{
  "next": "https://a.egwwritings.org/search?lang=en&period=all&facets=False&query=2300%20days%20end&offset=30&limit=30&order=rel&snippet=long&query_type=prefer_exact",
  "previous": null,
  "total": 1527,
  "count": 1527,
  "results": [
    {
      "index": 0,
      "lang": "en",
      "para_id": "1408.1165",
      "pub_code": "STTHD",
      "pub_name": "The Sanctuary and the Twenty-three Hundred Days of Daniel 8:14",
      "refcode_long": "The Sanctuary and the Twenty-three Hundred Days of Daniel 8:14, p. 288.1 (Uriah Smith)",
      "refcode_short": "STTHD 288.1",
      "pub_year": "1877",
      "snippet": "… , the <mark>2300 days</mark> have not yet <mark>ended</mark>. But the evidence that the <mark>2300 days</mark> have <mark>ended</mark> is unanswerable. Therefore, the cleansing of the sanctuary must now be transpiring …",
      "weight": 1,
      "group": "apl"
    },
    {
      "index": 1,
      "lang": "en",
      "para_id": "1641.2350",
      "pub_code": "ARSH",
      "pub_name": "The Advent Review, and Sabbath Herald, vol. 7",
      "refcode_long": "The Advent Review, and Sabbath Herald, vol. 7 October 30,  1855, page 69 paragraph 12",
      "refcode_short": "ARSH October 30,  1855, page 69.12",
      "pub_year": "1855",
      "snippet": "… , the <mark>2300 days</mark> have not <mark>ended</mark>. But the evidence that the <mark>2300 days</mark> have <mark>ended</mark> is unanswerable. Therefore the cleansing of the Sanctuary must now be transpiring …",
      "weight": 0.97,
      "group": "apl"
    },
    {
      "index": 2,
      "lang": "en",
      "para_id": "1408.88",
      "pub_code": "STTHD",
      "pub_name": "The Sanctuary and the Twenty-three Hundred Days of Daniel 8:14",
      "refcode_long": "The Sanctuary and the Twenty-three Hundred Days of Daniel 8:14, p. 26.1 (Uriah Smith)",
      "refcode_short": "STTHD 26.1",
      "pub_year": "1877",
      "snippet": "… the <mark>2300 days end</mark> in 1844? The answer to this question involves an answer to two other questions already noticed; namely, 1. Are the seventy weeks of Daniel 9 …",
      "weight": 0.95,
      "group": "apl"
    },
    {
      "index": 3,
      "lang": "en",
      "para_id": "1681.2294",
      "pub_code": "ARSH",
      "pub_name": "Advent Review, and Sabbath Herald, vol. 22",
      "refcode_long": "Advent Review, and Sabbath Herald, vol. 22 July 14,  1863, page 52 paragraph 12",
      "refcode_short": "ARSH July 14,  1863, page 52.12",
      "pub_year": "1863",
      "snippet": "But to return: Did the <mark>2300 days end</mark> in 1844? This question involves the two others already noticed, viz., are the seventy weeks of Daniel 9 a part of the <mark>2300 days</mark> of Daniel 8 ? and are they rightly dated from B. C. 457?",
      "weight": 0.92,
      "group": "apl"
    },
    {
      "index": 4,
      "lang": "en",
      "para_id": "1656.4121",
      "pub_code": "HST",
      "pub_name": "Signs of the Times and Expositor of Prophecy [Himes], vol. 4",
      "refcode_long": "Signs of the Times and Expositor of Prophecy [Himes], vol. 4 February 1,  1843, page 155 paragraph 9",
      "refcode_short": "HST February 1,  1843, page 155.9",
      "pub_year": "1842",
      "snippet": "The <mark>day</mark> of judgment, then, and the <mark>end</mark> of <mark>2300 days</mark>, must come at one and the same time. But when does the <mark>2300 days end</mark>? This is the length of the whole vision; and Daniel …",
      "weight": 0.89,
      "group": "apl"
    },
    {
      "index": 5,
      "lang": "en",
      "para_id": "1648.697",
      "pub_code": "HST",
      "pub_name": "The Advent Herald, and Signs of the Times Reporter [Himes], vol. 8",
      "refcode_long": "The Advent Herald, and Signs of the Times Reporter [Himes], vol. 8 August 21,  1844, page 21 paragraph 4",
      "refcode_short": "HST August 21,  1844, page 21.4",
      "pub_year": "1844",
      "snippet": "… the <mark>2300 days end</mark> in that month.",
      "weight": 0.86,
      "group": "apl"
    },
    {
      "index": 6,
      "lang": "en",
      "para_id": "140.1984",
      "pub_code": "4SP",
      "pub_name": "The Spirit of Prophecy, vol. 4",
      "refcode_long": "The Spirit of Prophecy, vol. 4",
      "refcode_short": "4SP",
      "pub_year": "1884",
      "snippet": "|___________________________________________| Decree given. <mark>2300. Days end</mark> in 1844.",
      "weight": 0.85,
      "group": "egwwritings"
    },
    {
      "index": 7,
      "lang": "en",
      "para_id": "1657.986",
      "pub_code": "HST",
      "pub_name": "Signs of the Times and Expositor of Prophecy [Himes], vol. 3",
      "refcode_long": "Signs of the Times and Expositor of Prophecy [Himes], vol. 3 May 4,  1842, page 39 paragraph 25",
      "refcode_short": "HST May 4,  1842, page 39.25",
      "pub_year": "1842",
      "snippet": "… the <mark>2,300 Days</mark> in Daniel 8:13, 14, shown to be false. IV. Further matters in regard to the <mark>2,300 Days</mark>. V. The Time, Times, and Dividing of them Fulfilled; Extracts from …",
      "weight": 0.82,
      "group": "apl"
    },
    {
      "index": 8,
      "lang": "en",
      "para_id": "1657.1768",
      "pub_code": "HST",
      "pub_name": "Signs of the Times and Expositor of Prophecy [Himes], vol. 3",
      "refcode_long": "Signs of the Times and Expositor of Prophecy [Himes], vol. 3 May 25,  1842, page 63 paragraph 25",
      "refcode_short": "HST May 25,  1842, page 63.25",
      "pub_year": "1842",
      "snippet": "… the <mark>2,300 Days</mark> in Daniel 8:13, 14, shown to be false. IV. Further mutters in regard to the <mark>2,300 Days</mark>. V. The Time, Times, and Dividing of them Fulfilled; Extracts from …",
      "weight": 0.82,
      "group": "apl"
    },
    {
      "index": 9,
      "lang": "en",
      "para_id": "1317.970",
      "pub_code": "LUJ",
      "pub_name": "Looking Unto Jesus",
      "refcode_long": "Looking Unto Jesus, p. 219.3 (Uriah Smith)",
      "refcode_short": "LUJ 219.3",
      "pub_year": "1898",
      "snippet": "From these considerations, it follows that if we are to have a long preliminary work preceding the cleansing of the sanctuary, that work must be accomplished before the <mark>2300 days end</mark>. But those <mark>days</mark> have certainly <mark>ended</mark>.",
      "weight": 0.8,
      "group": "apl"
    },
    {
      "index": 10,
      "lang": "en",
      "para_id": "1648.702",
      "pub_code": "HST",
      "pub_name": "The Advent Herald, and Signs of the Times Reporter [Himes], vol. 8",
      "refcode_long": "The Advent Herald, and Signs of the Times Reporter [Himes], vol. 8 August 21,  1844, page 21 paragraph 9",
      "refcode_short": "HST August 21,  1844, page 21.9",
      "pub_year": "1844",
      "snippet": "… the <mark>2300 days end</mark> in the seventh month, I do not now recollect that one of them has shown that the Lord has promised, in either the 8th or 9th chapters of Daniel …",
      "weight": 0.78,
      "group": "apl"
    },
    {
      "index": 11,
      "lang": "en",
      "para_id": "1321.286",
      "pub_code": "MWV2",
      "pub_name": "Miller’s Works, vol. 2. Evidence from Scripture and History of the Second Coming of Christ about the Year",
      "refcode_long": "Miller’s Works, vol. 2. Evidence from Scripture and History of the Second Coming of Christ about the Year, p. 73.3 (William Miller)",
      "refcode_short": "MWV2 73.3",
      "pub_year": "1843",
      "snippet": "… , if <mark>2300 days</mark> is the length of the vision, and 490 <mark>days</mark> of that vision were fulfilled in 490 years <mark>ending</mark> with Christ’s death, so must 1810 <mark>days end</mark> the vision …",
      "weight": 0.77,
      "group": "apl"
    },
    {
      "index": 12,
      "lang": "en",
      "para_id": "1655.4940",
      "pub_code": "HST",
      "pub_name": "Signs of the Times and Expositor of Prophecy [Himes], vol. 5",
      "refcode_long": "Signs of the Times and Expositor of Prophecy [Himes], vol. 5 July 26,  1843, page 165 paragraph 3",
      "refcode_short": "HST July 26,  1843, page 165.3",
      "pub_year": "1843",
      "snippet": "We have not had time to examine our brother’s view as much as we would wish. Our view of the sanctuary is, as yet, different from his. And when the <mark>2300 days end</mark>, we expect probation will <mark>end</mark>.",
      "weight": 0.77,
      "group": "apl"
    },
    {
      "index": 13,
      "lang": "en",
      "para_id": "957.110",
      "pub_code": "SLG",
      "pub_name": "A Seal of the Living God",
      "refcode_long": "A Seal of the Living God, p. 15.1 (Joseph Bates)",
      "refcode_short": "SLG 15.1",
      "pub_year": "1849",
      "snippet": "… the <mark>2,300 days</mark> will <mark>end</mark> in the time of trouble? no; will Jesus come then before the voice of God? no; where, and when then, did the <mark>2,300 days end</mark>, and the door close …",
      "weight": 0.76,
      "group": "apl"
    },
    {
      "index": 14,
      "lang": "en",
      "para_id": "1693.1288",
      "pub_code": "ARSH",
      "pub_name": "Advent Review, and Sabbath Herald, vol. 10",
      "refcode_long": "Advent Review, and Sabbath Herald, vol. 10 June 4,  1857, page 36 paragraph 20",
      "refcode_short": "ARSH June 4,  1857, page 36.20",
      "pub_year": "1857",
      "snippet": "… the <mark>2300 days ended</mark> in the Fall of 1844. While those who explain from Nehemiah’s date, B. C. 445, show that the <mark>2300 days ended</mark> in 1855, or at the farthest in 1856. Now …",
      "weight": 0.75,
      "group": "apl"
    },
    {
      "index": 15,
      "lang": "en",
      "para_id": "1674.7930",
      "pub_code": "ARSH",
      "pub_name": "Advent Review, and Sabbath Herald, vol. 9",
      "refcode_long": "Advent Review, and Sabbath Herald, vol. 9 April 30,  1857, page 204 paragraph 16",
      "refcode_short": "ARSH April 30,  1857, page 204.16",
      "pub_year": "1856",
      "snippet": "… , the <mark>2300 days ended</mark> in 1844, the Herald still contends that the passing of the time has demonstrated that the <mark>days</mark> did not there <mark>end</mark>.",
      "weight": 0.74,
      "group": "apl"
    },
    {
      "index": 16,
      "lang": "en",
      "para_id": "1680.5539",
      "pub_code": "ARSH",
      "pub_name": "Advent Review, and Sabbath Herald, vol. 23",
      "refcode_long": "Advent Review, and Sabbath Herald, vol. 23 April 5,  1864, page 150 paragraph 8",
      "refcode_short": "ARSH April 5,  1864, page 150.8",
      "pub_year": "1864",
      "snippet": "… the <mark>2300 days end</mark> in 1822, and adds to that 45 years, the difference between the <mark>ending</mark> of the 1290 and the 1335 <mark>days</mark> of Daniel 12, and comes to a similar conclusion …",
      "weight": 0.73,
      "group": "apl"
    },
    {
      "index": 17,
      "lang": "en",
      "para_id": "1659.428",
      "pub_code": "ARSH",
      "pub_name": "Second Advent Review, and Sabbath Herald, vol. 1",
      "refcode_long": "Second Advent Review, and Sabbath Herald, vol. 1 December 1850, page 23 paragraph 7",
      "refcode_short": "ARSH December 1850, page 23.7",
      "pub_year": "1851",
      "snippet": "… tenth <mark>day</mark> of the seventh month, the <mark>2300 days</mark> would <mark>end</mark> this spring, and the Lord would come. Months, seasons and times, which God had fixed, could be altered easy …",
      "weight": 0.73,
      "group": "apl"
    },
    {
      "index": 18,
      "lang": "en",
      "para_id": "1200.408",
      "pub_code": "S23D",
      "pub_name": "The Sanctuary and Twenty-three Hundred Days",
      "refcode_long": "The Sanctuary and Twenty-three Hundred Days, p. 94.1 (John Nevins Andrews)",
      "refcode_short": "S23D 94.1",
      "pub_year": "1872",
      "snippet": "… the <mark>2300 days</mark> would terminate in the seventh Jewish month, 1844. Neither did our disappointment arise from believing that at the <mark>end</mark> of the <mark>2300 days</mark> the work …",
      "weight": 0.71,
      "group": "apl"
    },
    {
      "index": 19,
      "lang": "en",
      "para_id": "1408.76",
      "pub_code": "STTHD",
      "pub_name": "The Sanctuary and the Twenty-three Hundred Days of Daniel 8:14",
      "refcode_long": "The Sanctuary and the Twenty-three Hundred Days of Daniel 8:14, p. 22.3 (Uriah Smith)",
      "refcode_short": "STTHD 22.3",
      "pub_year": "1877",
      "snippet": "… the <mark>2300 days</mark>. This class claim that the seventy weeks of Daniel 9 are no part of the <mark>2300 days</mark> of Daniel 8, and that, consequently, the date of the former does in …",
      "weight": 0.71,
      "group": "apl"
    },
    {
      "index": 20,
      "lang": "en",
      "para_id": "1637.343",
      "pub_code": "JUBST",
      "pub_name": "The Jubilee Standard, vol. 1",
      "refcode_long": "The Jubilee Standard, vol. 1 May 22,  1845, page 85 paragraph 5",
      "refcode_short": "JUBST May 22,  1845, page 85.5",
      "pub_year": "1845",
      "snippet": "… the <mark>2300 days end</mark>, and Zion receives her justification or pardon in the completion of the atonement on the 10th <mark>day</mark> of the 7th month, and that to before the King …",
      "weight": 0.71,
      "group": "apl"
    },
    {
      "index": 21,
      "lang": "en",
      "para_id": "1641.3791",
      "pub_code": "ARSH",
      "pub_name": "The Advent Review, and Sabbath Herald, vol. 7",
      "refcode_long": "The Advent Review, and Sabbath Herald, vol. 7 January 3,  1856, page 107 paragraph 6",
      "refcode_short": "ARSH January 3,  1856, page 107.6",
      "pub_year": "1855",
      "snippet": "… to <mark>end</mark> referred to, [ Daniel 8:19 ,] was the <mark>2300 days</mark> of verse 14. But this is evidently a mistake; for the <mark>2300 days</mark> were given to serve another purpose. They were given …",
      "weight": 0.71,
      "group": "apl"
    },
    {
      "index": 22,
      "lang": "en",
      "para_id": "1644.5996",
      "pub_code": "ARSH",
      "pub_name": "The Advent Review, and Sabbath Herald, vol. 4",
      "refcode_long": "The Advent Review, and Sabbath Herald, vol. 4 January 10,  1854, page 201 paragraph 12",
      "refcode_short": "ARSH January 10,  1854, page 201.12",
      "pub_year": "1853",
      "snippet": "… the <mark>2300 days ended</mark> 1844. To escape this, came the denial of the connection of the 70 weeks and the <mark>2300 days</mark>. This glaring error of disconnecting those periods …",
      "weight": 0.7,
      "group": "apl"
    },
    {
      "index": 23,
      "lang": "en",
      "para_id": "1656.207",
      "pub_code": "HST",
      "pub_name": "Signs of the Times and Expositor of Prophecy [Himes], vol. 4",
      "refcode_long": "Signs of the Times and Expositor of Prophecy [Himes], vol. 4 September 28,  1842, page 9 paragraph 5",
      "refcode_short": "HST September 28,  1842, page 9.5",
      "pub_year": "1842",
      "snippet": "… <mark> days</mark>, it will necessarily follow that the “seventy heptades,” are seventy weeks of just such <mark>days</mark> as are the <mark>2300 days</mark>, and are, therefore, weeks of <mark>days</mark>; and the …",
      "weight": 0.69,
      "group": "apl"
    },
    {
      "index": 24,
      "lang": "en",
      "para_id": "1654.5238",
      "pub_code": "HST",
      "pub_name": "Signs of the Times and Expositor of Prophecy [Himes], vol. 6",
      "refcode_long": "Signs of the Times and Expositor of Prophecy [Himes], vol. 6 January 31,  1844, page 195 paragraph 7",
      "refcode_short": "HST January 31,  1844, page 195.7",
      "pub_year": "1843",
      "snippet": "… the “<mark>2300 days</mark>” allotted for cleansing the sanctuary; that Daniel’s “time, times, and a half,” is the last or concluding part of the “<mark>2300 days</mark>” that the “70 weeks” commenced …",
      "weight": 0.69,
      "group": "apl"
    },
    {
      "index": 25,
      "lang": "en",
      "para_id": "974.148",
      "pub_code": "BP3",
      "pub_name": "[Bates’ Pamphlet #3] An Explanation of the Typical and Anti-typical Sanctuary by the Scriptures",
      "refcode_long": "[Bates’ Pamphlet #3] An Explanation of the Typical and Anti-typical Sanctuary by the Scriptures, p. 139.2 (Joseph Bates)",
      "refcode_short": "BP3 139.2",
      "pub_year": "1850",
      "snippet": "… the <mark>2300 days end</mark>, and the door in the temple opens, for here is where he gets his message. Hear him - “Here is the patience of the saints, here are they who keep the …",
      "weight": 0.69,
      "group": "apl"
    },
    {
      "index": 26,
      "lang": "en",
      "para_id": "1317.1034",
      "pub_code": "LUJ",
      "pub_name": "Looking Unto Jesus",
      "refcode_long": "Looking Unto Jesus, p. 0235.1 (Uriah Smith)",
      "refcode_short": "LUJ 0235.1",
      "pub_year": "1898",
      "snippet": "… the <mark>2300 days</mark> terminate; and the expression is equivalent to a declaration that then prophetic time should <mark>end</mark>, or the <mark>2300 days</mark> would reach their termination …",
      "weight": 0.68,
      "group": "apl"
    },
    {
      "index": 27,
      "lang": "en",
      "para_id": "1408.1106",
      "pub_code": "STTHD",
      "pub_name": "The Sanctuary and the Twenty-three Hundred Days of Daniel 8:14",
      "refcode_long": "The Sanctuary and the Twenty-three Hundred Days of Daniel 8:14, p. 273.1 (Uriah Smith)",
      "refcode_short": "STTHD 273.1",
      "pub_year": "1877",
      "snippet": "… the <mark>2300 days</mark> terminate; and the expression is equivalent to a declaration that then prophetic time should <mark>end</mark>, or the <mark>2300 days</mark> would terminate. Then the …",
      "weight": 0.68,
      "group": "apl"
    },
    {
      "index": 28,
      "lang": "en",
      "para_id": "1656.4912",
      "pub_code": "HST",
      "pub_name": "Signs of the Times and Expositor of Prophecy [Himes], vol. 4",
      "refcode_long": "Signs of the Times and Expositor of Prophecy [Himes], vol. 4 February 22,  1843, page 181 paragraph 17",
      "refcode_short": "HST February 22,  1843, page 181.17",
      "pub_year": "1842",
      "snippet": "… the <mark>2300 days</mark> commence with the seventy weeks, and others deny that the seventy weeks terminate near the crucifixion. Some claim the <mark>2300 days</mark> are literal …",
      "weight": 0.67,
      "group": "apl"
    },
    {
      "index": 29,
      "lang": "en",
      "para_id": "1317.724",
      "pub_code": "LUJ",
      "pub_name": "Looking Unto Jesus",
      "refcode_long": "Looking Unto Jesus, p. 169.2 (Uriah Smith)",
      "refcode_short": "LUJ 169.2",
      "pub_year": "1898",
      "snippet": "… <mark>2300 days ended</mark> with a promise respecting the sanctuary. And it is evident from this expression that Daniel had in some way connected the <mark>end</mark> of the <mark>2300 days</mark> …",
      "weight": 0.67,
      "group": "apl"
    }
  ]
}
