{
  "next": "https://a.egwwritings.org/search?lang=en&period=all&facets=False&query=seventy%20weeks%20Messiah&offset=25&limit=25&order=rel&snippet=long&query_type=prefer_exact",
  "previous": null,
  "total": 279,
  "count": 279,
  "results": [
    {
      "index": 0,
      "lang": "en",
      "para_id": "12269.1140",
      "pub_code": "LF",
      "pub_name": "Love Under Fire",
      "refcode_long": "Love Under Fire, p. 137.7 (Ellen Gould White)",
      "refcode_short": "LF 137.7",
      "pub_year": "2011",
      "snippet": "… seven <mark>weeks</mark> and sixty-two <mark>weeks</mark>; the street shall be built again, and the wall, even in troublesome times. And after the sixty-two <mark>weeks Messiah</mark> shall be cut off …",
      "weight": 1,
      "group": "egwwritings"
    },
    {
      "index": 1,
      "lang": "en",
      "para_id": "14753.1213",
      "pub_code": "5TC",
      "pub_name": "The Victory",
      "refcode_long": "The Victory, p. 192.5 (Ellen Gould White)",
      "refcode_short": "5TC 192.5",
      "pub_year": "2024",
      "snippet": "… seven <mark>weeks</mark> and sixty-two <mark>weeks</mark>; the street shall be built again, and the wall, even in troublesome times. And after the sixty-two <mark>weeks Messiah</mark> shall be cut off …",
      "weight": 1,
      "group": "egwwritings"
    },
    {
      "index": 2,
      "lang": "en",
      "para_id": "1321.188",
      "pub_code": "MWV2",
      "pub_name": "Miller’s Works, vol. 2. Evidence from Scripture and History of the Second Coming of Christ about the Year",
      "refcode_long": "Miller’s Works, vol. 2. Evidence from Scripture and History of the Second Coming of Christ about the Year, p. 57.1 (William Miller)",
      "refcode_short": "MWV2 57.1",
      "pub_year": "1843",
      "snippet": "… the <mark>seventy weeks</mark> of this vision, at the crucifixion of the <mark>Messiah</mark>. We learn by the instruction of Gabriel that the <mark>seventy weeks</mark> were a part of the vision …",
      "weight": 0.93,
      "group": "apl"
    },
    {
      "index": 3,
      "lang": "en",
      "para_id": "1316.213",
      "pub_code": "LDT",
      "pub_name": "Last Day Tokens",
      "refcode_long": "Last Day Tokens, p. 46.1 (John Norton Loughborough)",
      "refcode_short": "LDT 46.1",
      "pub_year": "1904",
      "snippet": "… true <mark>Messiah</mark>, and that the date of the <mark>seventy weeks</mark> was unalterably fixed. Failing to discover that the <mark>seventy weeks</mark> were the first part of the twenty-three …",
      "weight": 0.9,
      "group": "apl"
    },
    {
      "index": 4,
      "lang": "en",
      "para_id": "1669.72",
      "pub_code": "GCB",
      "pub_name": "General Conference Bulletin, vol. 5",
      "refcode_long": "General Conference Bulletin, vol. 5 March 30,  1903, page 3 paragraph 11",
      "refcode_short": "GCB March 30,  1903, page 3.11",
      "pub_year": "1903",
      "snippet": "… fulfilled. <mark>Seventy weeks</mark> are determined upon God’s peculiar people; <mark>seventy weeks</mark> were cut off in a special manner as devoted to them; <mark>seventy weeks</mark>, four …",
      "weight": 0.89,
      "group": "apl"
    },
    {
      "index": 5,
      "lang": "en",
      "para_id": "1069.571",
      "pub_code": "BIC",
      "pub_name": "The Bible Class",
      "refcode_long": "The Bible Class, p. 116.1 (Roswell Fenner Cottrell)",
      "refcode_short": "BIC 116.1",
      "pub_year": "1855",
      "snippet": "… which <mark>Messiah</mark> was cut off, (crucified,) we must add seven years. This gives us the year 34 for the end of the <mark>seventy weeks</mark>. Now we take <mark>seventy weeks</mark>, which are 490 …",
      "weight": 0.88,
      "group": "apl"
    },
    {
      "index": 6,
      "lang": "en",
      "para_id": "1655.3856",
      "pub_code": "HST",
      "pub_name": "Signs of the Times and Expositor of Prophecy [Himes], vol. 5",
      "refcode_long": "Signs of the Times and Expositor of Prophecy [Himes], vol. 5 June 21,  1843, page 124 paragraph 4",
      "refcode_short": "HST June 21,  1843, page 124.4",
      "pub_year": "1843",
      "snippet": "… the <mark>Messiah</mark>, the time of his sufferings being at the end of the <mark>seventy weeks</mark>, that they broke up the discussion. The Rabbins then held a meeting and pronounced …",
      "weight": 0.88,
      "group": "apl"
    },
    {
      "index": 7,
      "lang": "en",
      "para_id": "1194.175",
      "pub_code": "PSC",
      "pub_name": "The Probability of the Second Coming of Christ About A.D. 1843",
      "refcode_long": "The Probability of the Second Coming of Christ About A.D. 1843, p. 43.6 (Josiah Litch)",
      "refcode_short": "PSC 43.6",
      "pub_year": "1843",
      "snippet": "… the <mark>seventy weeks</mark> fulfil this design? Certainly not. The New Testament was all written after the <mark>seventy weeks</mark> ended. But it was to seal up or confirm the vision …",
      "weight": 0.87,
      "group": "apl"
    },
    {
      "index": 8,
      "lang": "en",
      "para_id": "951.1832",
      "pub_code": "DOF",
      "pub_name": "In Defense of the Faith",
      "refcode_long": "In Defense of the Faith, p. 291.1 (William Henry Branson)",
      "refcode_short": "DOF 291.1",
      "pub_year": "1933",
      "snippet": "… of <mark>seventy weeks</mark>, or 490 days, brought to view in the scripture already quoted, is only a division of the full period of 2300 days. The <mark>seventy weeks</mark> also had several …",
      "weight": 0.87,
      "group": "apl"
    },
    {
      "index": 9,
      "lang": "en",
      "para_id": "1321.171",
      "pub_code": "MWV2",
      "pub_name": "Miller’s Works, vol. 2. Evidence from Scripture and History of the Second Coming of Christ about the Year",
      "refcode_long": "Miller’s Works, vol. 2. Evidence from Scripture and History of the Second Coming of Christ about the Year, p. 52.2 (William Miller)",
      "refcode_short": "MWV2 52.2",
      "pub_year": "1843",
      "snippet": "… the <mark>Messiah</mark> should be accomplished. We also learn that this <mark>seventy weeks</mark> is divided into three parts; seven <mark>weeks</mark> being employed in building the streets …",
      "weight": 0.85,
      "group": "apl"
    },
    {
      "index": 10,
      "lang": "en",
      "para_id": "1681.2686",
      "pub_code": "ARSH",
      "pub_name": "Advent Review, and Sabbath Herald, vol. 22",
      "refcode_long": "Advent Review, and Sabbath Herald, vol. 22 July 21,  1863, page 60 paragraph 21",
      "refcode_short": "ARSH July 21,  1863, page 60.21",
      "pub_year": "1863",
      "snippet": "… the <mark>seventy weeks</mark> were to extend to the <mark>Messiah</mark> the Prince, or, to the commencement of our Lord’s ministry upon the earth. During the seventieth <mark>week</mark> he was …",
      "weight": 0.84,
      "group": "apl"
    },
    {
      "index": 11,
      "lang": "en",
      "para_id": "1140.490",
      "pub_code": "GSAM",
      "pub_name": "The Great Second Advent Movement: Its Rise and Progress",
      "refcode_long": "The Great Second Advent Movement: Its Rise and Progress, p. 84.2 (John Norton Loughborough)",
      "refcode_short": "GSAM 84.2",
      "pub_year": "1905",
      "snippet": "… true <mark>Messiah</mark>, and that the date of the commencement of the <mark>seventy weeks</mark> was thus unalterably fixed. Their failing to discover that the <mark>seventy weeks</mark> was …",
      "weight": 0.84,
      "group": "apl"
    },
    {
      "index": 12,
      "lang": "en",
      "para_id": "1006.179",
      "pub_code": "JUO",
      "pub_name": "Judaism Overthrown",
      "refcode_long": "Judaism Overthrown, p. 35.1 (Josiah Litch)",
      "refcode_short": "JUO 35.1",
      "pub_year": "1843",
      "snippet": "… the <mark>seventy weeks</mark>. “From the commandment to restore and build Jerusalem to <mark>Messiah</mark> the Prince, there will be seven <mark>weeks</mark> and 62 <mark>weeks</mark>. And the street shall be …",
      "weight": 0.83,
      "group": "apl"
    },
    {
      "index": 13,
      "lang": "en",
      "para_id": "1636.903",
      "pub_code": "PTJW",
      "pub_name": "The Present Truth, vol. 1",
      "refcode_long": "The Present Truth, vol. 1 March 1850, page 62 paragraph 1",
      "refcode_short": "PTJW March 1850, page 62.1",
      "pub_year": "1850",
      "snippet": "… <mark>Messiah</mark>. This brings us to the end of the <mark>seventy weeks</mark>, or 490 years, and also to the cross, thus confirming his first statement that the <mark>seventy weeks</mark> reach …",
      "weight": 0.82,
      "group": "apl"
    },
    {
      "index": 14,
      "lang": "en",
      "para_id": "1200.107",
      "pub_code": "S23D",
      "pub_name": "The Sanctuary and Twenty-three Hundred Days",
      "refcode_long": "The Sanctuary and Twenty-three Hundred Days, p. 19.2 (John Nevins Andrews)",
      "refcode_short": "S23D 19.2",
      "pub_year": "1872",
      "snippet": "… the <mark>seventy weeks</mark> are cut off from the 2300 days. Hence, when the date of the <mark>seventy weeks</mark> is established, the key to unlock and understand the reckoning of …",
      "weight": 0.8,
      "group": "apl"
    },
    {
      "index": 15,
      "lang": "en",
      "para_id": "1582.535",
      "pub_code": "PFF3",
      "pub_name": "The Prophetic Faith of Our Fathers, vol. 3",
      "refcode_long": "The Prophetic Faith of Our Fathers, vol. 3, p. 87.4 (LeRoy Edwin Froom)",
      "refcode_short": "PFF3 87.4",
      "pub_year": "1946",
      "snippet": "… the <mark>seventy weeks</mark>, or “<mark>seventy</mark> sevens of years,” Davenport stresses the exactness and literality of the fulfillment. Discussing the three divisions of the …",
      "weight": 0.79,
      "group": "apl"
    },
    {
      "index": 16,
      "lang": "en",
      "para_id": "1680.5536",
      "pub_code": "ARSH",
      "pub_name": "Advent Review, and Sabbath Herald, vol. 23",
      "refcode_long": "Advent Review, and Sabbath Herald, vol. 23 April 5,  1864, page 150 paragraph 5",
      "refcode_short": "ARSH April 5,  1864, page 150.5",
      "pub_year": "1864",
      "snippet": "… vision <mark>Seventy weeks</mark> are cut off ” As there was nothing in the vision, from which <mark>seventy weeks</mark> could be cut off, but the 2300 days, and taking this in connection …",
      "weight": 0.79,
      "group": "apl"
    },
    {
      "index": 17,
      "lang": "en",
      "para_id": "653.1717",
      "pub_code": "AGP",
      "pub_name": "The Abiding Gift of Prophecy",
      "refcode_long": "The Abiding Gift of Prophecy, p. 241.4 (Arthur Grosvenor Daniells)",
      "refcode_short": "AGP 241.4",
      "pub_year": "1936",
      "snippet": "… the “<mark>seventy weeks</mark>” of Daniel 9:24 were indeed “cut off” from the beginning of the 2300 days of Daniel 8:14. In other words, they understood them to begin simultaneously …",
      "weight": 0.79,
      "group": "reference"
    },
    {
      "index": 18,
      "lang": "en",
      "para_id": "1655.4260",
      "pub_code": "HST",
      "pub_name": "Signs of the Times and Expositor of Prophecy [Himes], vol. 5",
      "refcode_long": "Signs of the Times and Expositor of Prophecy [Himes], vol. 5 July 5,  1843, page 140 paragraph 4",
      "refcode_short": "HST July 5,  1843, page 140.4",
      "pub_year": "1843",
      "snippet": "… to <mark>Messiah</mark> the prince when he entered on his public ministry was seven <mark>weeks</mark> and threescore and two <mark>weeks</mark> or sixty-nine <mark>weeks</mark>. And the one <mark>week</mark> during which …",
      "weight": 0.79,
      "group": "apl"
    },
    {
      "index": 19,
      "lang": "en",
      "para_id": "1321.229",
      "pub_code": "MWV2",
      "pub_name": "Miller’s Works, vol. 2. Evidence from Scripture and History of the Second Coming of Christ about the Year",
      "refcode_long": "Miller’s Works, vol. 2. Evidence from Scripture and History of the Second Coming of Christ about the Year, p. 63.4 (William Miller)",
      "refcode_short": "MWV2 63.4",
      "pub_year": "1843",
      "snippet": "… the <mark>seventy weeks</mark>, such as, The cutting off of the <mark>Messiah</mark>, but not for himself. This can mean nothing less than the crucifixion of Christ. See Luke 24:26, 46. “Ought …",
      "weight": 0.78,
      "group": "apl"
    },
    {
      "index": 20,
      "lang": "en",
      "para_id": "1453.1073",
      "pub_code": "FEE",
      "pub_name": "From Eden to Eden",
      "refcode_long": "From Eden to Eden, p. 191.1 (Joseph Harvey Waggoner)",
      "refcode_short": "FEE 191.1",
      "pub_year": "1890",
      "snippet": "… . The <mark>seventy weeks</mark> point out the time when our <mark>Messiah</mark> should make his sacrifice and begin his priestly work. The two thousand three hundred years point out …",
      "weight": 0.77,
      "group": "apl"
    },
    {
      "index": 21,
      "lang": "en",
      "para_id": "1485.864",
      "pub_code": "AERS",
      "pub_name": "The Atonement",
      "refcode_long": "The Atonement, p. 214.4 (Joseph Harvey Waggoner)",
      "refcode_short": "AERS 214.4",
      "pub_year": "1884",
      "snippet": "… . The “<mark>seventy weeks</mark>” of Daniel 9, marking the manifestation of the <mark>Messiah</mark>, which took place at the time of his baptism, see Matthew 3:16, 17; John 1:32-34; Mark 1:14, 15 …",
      "weight": 0.77,
      "group": "apl"
    },
    {
      "index": 22,
      "lang": "en",
      "para_id": "14720.7558",
      "pub_code": "ABC-OT",
      "pub_name": "Andrews Bible Commentary - Old Testament",
      "refcode_long": "Andrews Bible Commentary - Old Testament, p. 1048.13",
      "refcode_short": "ABC-OT 1048.13",
      "pub_year": "",
      "snippet": "",
      "weight": 0.76,
      "group": "bible",
      "action_required": "purchased"
    },
    {
      "index": 23,
      "lang": "en",
      "para_id": "1582.33",
      "pub_code": "PFF3",
      "pub_name": "The Prophetic Faith of Our Fathers, vol. 3",
      "refcode_long": "The Prophetic Faith of Our Fathers, vol. 3, p. 11.2 (LeRoy Edwin Froom)",
      "refcode_short": "PFF3 11.2",
      "pub_year": "1946",
      "snippet": "… . The <mark>seventy weeks</mark> were cut off for the Jews, and led to the cutting off of the <mark>Messiah</mark> in the seventieth <mark>week</mark>, or end—<mark>week</mark>, of years. This principle of a day for a …",
      "weight": 0.75,
      "group": "apl"
    },
    {
      "index": 24,
      "lang": "en",
      "para_id": "1321.211",
      "pub_code": "MWV2",
      "pub_name": "Miller’s Works, vol. 2. Evidence from Scripture and History of the Second Coming of Christ about the Year",
      "refcode_long": "Miller’s Works, vol. 2. Evidence from Scripture and History of the Second Coming of Christ about the Year, p. 61.1 (William Miller)",
      "refcode_short": "MWV2 61.1",
      "pub_year": "1843",
      "snippet": "The <mark>seventy weeks</mark> were now being fulfilled. And then, at last, when Jesus had completed his work, when the fullness of time had come, he finished transgression …",
      "weight": 0.75,
      "group": "apl"
    }
  ]
}
