{
  "next": "https://a.egwwritings.org/search?lang=en&period=all&facets=False&query=Day%20of%20Atonement%20Most%20Holy&offset=25&limit=25&order=rel&snippet=long&query_type=prefer_exact",
  "previous": null,
  "total": 465,
  "count": 465,
  "results": [
    {
      "index": 0,
      "lang": "en",
      "para_id": "649.72",
      "pub_code": "SPIAM",
      "pub_name": "The Spirit of Prophecy in the Advent Movement",
      "refcode_long": "The Spirit of Prophecy in the Advent Movement, p. 15.2 (William Ambrose Spicer)",
      "refcode_short": "SPIAM 15.2",
      "pub_year": "1937",
      "snippet": "… phase <mark>of</mark> service for sin, on the last <mark>day of</mark> the yearly ritual, was the cleansing <mark>of</mark> the sanctuary, the <mark>Day of Atonement</mark>. It was the <mark>day of</mark> judgment in the camp. For …",
      "weight": 1,
      "group": "reference"
    },
    {
      "index": 1,
      "lang": "en",
      "para_id": "1583.7180",
      "pub_code": "PFF4",
      "pub_name": "The Prophetic Faith of Our Fathers, vol. 4",
      "refcode_long": "The Prophetic Faith of Our Fathers, vol. 4, p. 1231.6 (LeRoy Edwin Froom)",
      "refcode_short": "PFF4 1231.6",
      "pub_year": "1954",
      "snippet": "… the <mark>holy</mark> place, were to be blotted out through the solemn service in the <mark>most holy</mark> on the <mark>Day of Atonement</mark>, the <mark>most</mark> important <mark>day of</mark> the year. Crosier continues …",
      "weight": 0.96,
      "group": "apl"
    },
    {
      "index": 2,
      "lang": "en",
      "para_id": "14721.4653",
      "pub_code": "ABC-NT",
      "pub_name": "Andrews Bible Commentary - New Testament",
      "refcode_long": "Andrews Bible Commentary - New Testament, p. 1842.23",
      "refcode_short": "ABC-NT 1842.23",
      "pub_year": "",
      "snippet": "",
      "weight": 0.96,
      "group": "bible",
      "action_required": "purchased"
    },
    {
      "index": 3,
      "lang": "en",
      "para_id": "14720.1526",
      "pub_code": "ABC-OT",
      "pub_name": "Andrews Bible Commentary - Old Testament",
      "refcode_long": "Andrews Bible Commentary - Old Testament, p. 239.6",
      "refcode_short": "ABC-OT 239.6",
      "pub_year": "",
      "snippet": "",
      "weight": 0.94,
      "group": "bible",
      "action_required": "purchased"
    },
    {
      "index": 4,
      "lang": "en",
      "para_id": "12517.17403",
      "pub_code": "7SDABC",
      "pub_name": "SDA Bible Commentary, vol. 7",
      "refcode_long": "SDA Bible Commentary, vol. 7, p. 758.5 (Francis Nichol-GCSDA)",
      "refcode_short": "7SDABC 758.5",
      "pub_year": "1957",
      "snippet": "",
      "weight": 0.93,
      "group": "bible",
      "action_required": "purchased"
    },
    {
      "index": 5,
      "lang": "en",
      "para_id": "12666.4058",
      "pub_code": "HSDAT",
      "pub_name": "Handbook of SDA Theology",
      "refcode_long": "Handbook of SDA Theology, p. 386.3 (Raoul Dederen-GCSDA)",
      "refcode_short": "HSDAT 386.3",
      "pub_year": "2000",
      "snippet": "",
      "weight": 0.93,
      "group": "bible",
      "action_required": "purchased"
    },
    {
      "index": 6,
      "lang": "en",
      "para_id": "1127.936",
      "pub_code": "CIS",
      "pub_name": "The Cross and its Shadow",
      "refcode_long": "The Cross and its Shadow, p. 218 (Stephen Nelson Haskell)",
      "refcode_short": "CIS 218",
      "pub_year": "1914",
      "snippet": "… the <mark>most holy</mark> place on the <mark>day of atonement</mark>. Daniel 7:9, 10. The Father enters the <mark>most holy</mark> place <mark>of</mark> the heavenly sanctuary before the opening <mark>of</mark> the judgment …",
      "weight": 0.92,
      "group": "apl"
    },
    {
      "index": 7,
      "lang": "en",
      "para_id": "1317.348",
      "pub_code": "LUJ",
      "pub_name": "Looking Unto Jesus",
      "refcode_long": "Looking Unto Jesus, p. 92.1 (Uriah Smith)",
      "refcode_short": "LUJ 92.1",
      "pub_year": "1898",
      "snippet": "… errors <mark>of</mark> the people.” Hebrews 9:7. When this work <mark>of atonement</mark> in the <mark>most holy</mark> place, with the exercises connected with it, was all accomplished, a complete round …",
      "weight": 0.91,
      "group": "apl"
    },
    {
      "index": 8,
      "lang": "en",
      "para_id": "1124.359",
      "pub_code": "CWCP",
      "pub_name": "The Consecrated Way to Christian Perfection",
      "refcode_long": "The Consecrated Way to Christian Perfection, p. 64.1 (Alonzo Trevier Jones)",
      "refcode_short": "CWCP 64.1",
      "pub_year": "1905",
      "snippet": "… <mark>day of</mark> the seventh month, was especially “the <mark>day of atonement</mark>” or the cleansing <mark>of</mark> the sanctuary. On that <mark>day</mark> service was concluded in the <mark>Most Holy</mark> Place …",
      "weight": 0.91,
      "group": "apl"
    },
    {
      "index": 9,
      "lang": "en",
      "para_id": "1408.1122",
      "pub_code": "STTHD",
      "pub_name": "The Sanctuary and the Twenty-three Hundred Days of Daniel 8:14",
      "refcode_long": "The Sanctuary and the Twenty-three Hundred Days of Daniel 8:14, p. 277.1 (Uriah Smith)",
      "refcode_short": "STTHD 277.1",
      "pub_year": "1877",
      "snippet": "… service <mark>of</mark> the priest preceded the <mark>atonement</mark>. The offering was not the <mark>atonement</mark>, nor was the service <mark>of</mark> the priest, until the <mark>day of atonement</mark> arrived, and …",
      "weight": 0.9,
      "group": "apl"
    },
    {
      "index": 10,
      "lang": "en",
      "para_id": "14720.783",
      "pub_code": "ABC-OT",
      "pub_name": "Andrews Bible Commentary - Old Testament",
      "refcode_long": "Andrews Bible Commentary - Old Testament, p. 128.9",
      "refcode_short": "ABC-OT 128.9",
      "pub_year": "",
      "snippet": "",
      "weight": 0.89,
      "group": "bible",
      "action_required": "purchased"
    },
    {
      "index": 11,
      "lang": "en",
      "para_id": "1381.392",
      "pub_code": "TBI",
      "pub_name": "The Biblical Institute",
      "refcode_long": "The Biblical Institute, p. 76.2 (Uriah Smith)",
      "refcode_short": "TBI 76.2",
      "pub_year": "1878",
      "snippet": "… the <mark>most holy</mark> on the <mark>day of atonement</mark>, who had ministered through all the year in the <mark>holy</mark> place. Thus on the <mark>day of atonement</mark> all the sins for which offering …",
      "weight": 0.89,
      "group": "apl"
    },
    {
      "index": 12,
      "lang": "en",
      "para_id": "12362.1876",
      "pub_code": "EGWEnc",
      "pub_name": "The Ellen G. White Encyclopedia",
      "refcode_long": "The Ellen G. White Encyclopedia, p. 297.1 (Denis Fortin, Jerry Moon)",
      "refcode_short": "EGWEnc 297.1",
      "pub_year": "2013",
      "snippet": "",
      "weight": 0.88,
      "group": "reference",
      "action_required": "purchased"
    },
    {
      "index": 13,
      "lang": "en",
      "para_id": "14721.4633",
      "pub_code": "ABC-NT",
      "pub_name": "Andrews Bible Commentary - New Testament",
      "refcode_long": "Andrews Bible Commentary - New Testament, p. 1842.6",
      "refcode_short": "ABC-NT 1842.6",
      "pub_year": "",
      "snippet": "",
      "weight": 0.88,
      "group": "bible",
      "action_required": "purchased"
    },
    {
      "index": 14,
      "lang": "en",
      "para_id": "1408.842",
      "pub_code": "STTHD",
      "pub_name": "The Sanctuary and the Twenty-three Hundred Days of Daniel 8:14",
      "refcode_long": "The Sanctuary and the Twenty-three Hundred Days of Daniel 8:14, p. 202.2 (Uriah Smith)",
      "refcode_short": "STTHD 202.2",
      "pub_year": "1877",
      "snippet": "… errors <mark>of</mark> the people. This yearly <mark>day of</mark> service in the <mark>most holy</mark> place was called the <mark>day of atonement</mark>, and fell each year on the tenth <mark>day of</mark> the seventh month …",
      "weight": 0.88,
      "group": "apl"
    },
    {
      "index": 15,
      "lang": "en",
      "para_id": "14820.247",
      "pub_code": "JTLD",
      "pub_name": "My Journey to Life - Daily Study Guide",
      "refcode_long": "My Journey to Life - Daily Study Guide, p. 52.2 (Ellen G. White Estate)",
      "refcode_short": "JTLD 52.2",
      "pub_year": "2025",
      "snippet": "… <mark>Most Holy</mark> Place on the ancient <mark>Day of Atonement</mark>, so at the end <mark>of</mark> the prophetic period <mark>of</mark> 2300 <mark>days</mark>, Jesus entered the second and last phase <mark>of</mark> His <mark>atoning</mark> ministry …",
      "weight": 0.88,
      "group": "reference"
    },
    {
      "index": 16,
      "lang": "en",
      "para_id": "14373.29",
      "pub_code": "JTL4",
      "pub_name": "My Journey to Life, Step 4—The Sanctuary",
      "refcode_long": "My Journey to Life, Step 4—The Sanctuary, p. 3.1 (Ellen G. White Estate)",
      "refcode_short": "JTL4 3.1",
      "pub_year": "",
      "snippet": "… <mark>Most Holy</mark> Place on the ancient <mark>Day of Atonement</mark>, so at the end <mark>of</mark> the prophetic period <mark>of</mark> 2300 <mark>days</mark>, Jesus entered the second and last phase <mark>of</mark> His <mark>atoning</mark> ministry …",
      "weight": 0.88,
      "group": "reference"
    },
    {
      "index": 17,
      "lang": "en",
      "para_id": "1140.3682",
      "pub_code": "GSAM",
      "pub_name": "The Great Second Advent Movement: Its Rise and Progress",
      "refcode_long": "The Great Second Advent Movement: Its Rise and Progress, p. 569 (John Norton Loughborough)",
      "refcode_short": "GSAM 569",
      "pub_year": "1905",
      "snippet": "… , [To <mark>Most Holy</mark>] [True “shut door,”] “shut door” = “age to come” “open door” —— in A.D. 31 = “open door” —— <mark>day of atonement</mark>, “shut door” to <mark>Holy</mark> Place: “open door” to <mark>Most Holy</mark> “no more mercy” for …",
      "weight": 0.87,
      "group": "apl"
    },
    {
      "index": 18,
      "lang": "en",
      "para_id": "12666.4145",
      "pub_code": "HSDAT",
      "pub_name": "Handbook of SDA Theology",
      "refcode_long": "Handbook of SDA Theology, p. 394.1 (Raoul Dederen-GCSDA)",
      "refcode_short": "HSDAT 394.1",
      "pub_year": "2000",
      "snippet": "",
      "weight": 0.87,
      "group": "bible",
      "action_required": "purchased"
    },
    {
      "index": 19,
      "lang": "en",
      "para_id": "14054.3866014",
      "pub_code": "4LtMs",
      "pub_name": "Letters and Manuscripts — Volume 4 (1883 - 1886)",
      "refcode_long": "Letters and Manuscripts — Volume 4 (1883 - 1886), Ms 25, 1886, par. 6",
      "refcode_short": "4LtMs, Ms 25, 1886, par. 6",
      "pub_year": "1883",
      "snippet": "… great <mark>day of atonement</mark>. O how many forget this! In the typical <mark>day of atonement</mark>, the people <mark>of</mark> Israel humbled themselves before God and confessed their sins …",
      "weight": 0.86,
      "group": "egwwritings"
    },
    {
      "index": 20,
      "lang": "en",
      "para_id": "12666.921",
      "pub_code": "HSDAT",
      "pub_name": "Handbook of SDA Theology",
      "refcode_long": "Handbook of SDA Theology, p. 80.7 (Raoul Dederen-GCSDA)",
      "refcode_short": "HSDAT 80.7",
      "pub_year": "2000",
      "snippet": "",
      "weight": 0.86,
      "group": "bible",
      "action_required": "purchased"
    },
    {
      "index": 21,
      "lang": "en",
      "para_id": "14721.4587",
      "pub_code": "ABC-NT",
      "pub_name": "Andrews Bible Commentary - New Testament",
      "refcode_long": "Andrews Bible Commentary - New Testament, p. 1835.14",
      "refcode_short": "ABC-NT 1835.14",
      "pub_year": "",
      "snippet": "",
      "weight": 0.86,
      "group": "bible",
      "action_required": "purchased"
    },
    {
      "index": 22,
      "lang": "en",
      "para_id": "1317.1047",
      "pub_code": "LUJ",
      "pub_name": "Looking Unto Jesus",
      "refcode_long": "Looking Unto Jesus, p. 238.1 (Uriah Smith)",
      "refcode_short": "LUJ 238.1",
      "pub_year": "1898",
      "snippet": "… service <mark>of</mark> the priest was not the <mark>atonement</mark>, so long as he ministered in the <mark>holy</mark> place; no complete <mark>atonement</mark> was made until the <mark>day of atonement</mark> arrived, and …",
      "weight": 0.86,
      "group": "apl"
    },
    {
      "index": 23,
      "lang": "en",
      "para_id": "14720.1700",
      "pub_code": "ABC-OT",
      "pub_name": "Andrews Bible Commentary - Old Testament",
      "refcode_long": "Andrews Bible Commentary - Old Testament, p. 262.28",
      "refcode_short": "ABC-OT 262.28",
      "pub_year": "",
      "snippet": "",
      "weight": 0.86,
      "group": "bible",
      "action_required": "purchased"
    },
    {
      "index": 24,
      "lang": "en",
      "para_id": "1201.47",
      "pub_code": "SOTB",
      "pub_name": "The Sanctuary of the Bible",
      "refcode_long": "The Sanctuary of the Bible, p. 9.2 (John Nevins Andrews)",
      "refcode_short": "SOTB 9.2",
      "pub_year": "1865",
      "snippet": "… tenth <mark>day of</mark> the seventh month, which was called the <mark>day of atonement</mark>, the ministration was transferred to the second apartment, or <mark>most holy</mark> place. Leviticus …",
      "weight": 0.86,
      "group": "apl"
    }
  ]
}
