{
  "next": "https://a.egwwritings.org/search?lang=en&period=all&facets=False&query=earthly%20sanctuary%20heavenly&offset=25&limit=25&order=rel&snippet=long&query_type=prefer_exact",
  "previous": null,
  "total": 799,
  "count": 799,
  "results": [
    {
      "index": 0,
      "lang": "en",
      "para_id": "12666.9162",
      "pub_code": "HSDAT",
      "pub_name": "Handbook of SDA Theology",
      "refcode_long": "Handbook of SDA Theology, p. 843.4 (Raoul Dederen-GCSDA)",
      "refcode_short": "HSDAT 843.4",
      "pub_year": "2000",
      "snippet": "",
      "weight": 1,
      "group": "bible",
      "action_required": "purchased"
    },
    {
      "index": 1,
      "lang": "en",
      "para_id": "12666.4317",
      "pub_code": "HSDAT",
      "pub_name": "Handbook of SDA Theology",
      "refcode_long": "Handbook of SDA Theology, p. 412.5 (Raoul Dederen-GCSDA)",
      "refcode_short": "HSDAT 412.5",
      "pub_year": "2000",
      "snippet": "",
      "weight": 0.95,
      "group": "bible",
      "action_required": "purchased"
    },
    {
      "index": 2,
      "lang": "en",
      "para_id": "12666.4326",
      "pub_code": "HSDAT",
      "pub_name": "Handbook of SDA Theology",
      "refcode_long": "Handbook of SDA Theology, p. 413.5 (Raoul Dederen-GCSDA)",
      "refcode_short": "HSDAT 413.5",
      "pub_year": "2000",
      "snippet": "",
      "weight": 0.95,
      "group": "bible",
      "action_required": "purchased"
    },
    {
      "index": 3,
      "lang": "en",
      "para_id": "1149.415",
      "pub_code": "JEO",
      "pub_name": "The Judgment. Its Events and Their Order",
      "refcode_long": "The Judgment. Its Events and Their Order, p. 85.4 (John Nevins Andrews)",
      "refcode_short": "JEO 85.4",
      "pub_year": "1890",
      "snippet": "… the <mark>earthly sanctuary</mark>, which was no longer the <mark>sanctuary</mark> of prophecy, but must relate to the <mark>heavenly</mark> tabernacle, which then became the <mark>sanctuary</mark> of prophecy …",
      "weight": 0.93,
      "group": "apl"
    },
    {
      "index": 4,
      "lang": "en",
      "para_id": "1201.63",
      "pub_code": "SOTB",
      "pub_name": "The Sanctuary of the Bible",
      "refcode_long": "The Sanctuary of the Bible, p. 13.2 (John Nevins Andrews)",
      "refcode_short": "SOTB 13.2",
      "pub_year": "1865",
      "snippet": "… the <mark>earthly sanctuary</mark> was now finished, and that in the <mark>heavenly</mark> was about to commence. The <mark>sanctuary</mark>, therefore, which at this time was anointed was that which …",
      "weight": 0.88,
      "group": "apl"
    },
    {
      "index": 5,
      "lang": "en",
      "para_id": "1201.62",
      "pub_code": "SOTB",
      "pub_name": "The Sanctuary of the Bible",
      "refcode_long": "The Sanctuary of the Bible, p. 13.1 (John Nevins Andrews)",
      "refcode_short": "SOTB 13.1",
      "pub_year": "1865",
      "snippet": "… <mark>earthly sanctuary</mark>. And it is worthy of notice that the actual transition from the <mark>earthly sanctuary</mark> to that of the new covenant, which is the <mark>heavenly</mark>, is in …",
      "weight": 0.86,
      "group": "apl"
    },
    {
      "index": 6,
      "lang": "en",
      "para_id": "12517.17403",
      "pub_code": "7SDABC",
      "pub_name": "SDA Bible Commentary, vol. 7",
      "refcode_long": "SDA Bible Commentary, vol. 7, p. 758.5 (Francis Nichol-GCSDA)",
      "refcode_short": "7SDABC 758.5",
      "pub_year": "1957",
      "snippet": "",
      "weight": 0.85,
      "group": "bible",
      "action_required": "purchased"
    },
    {
      "index": 7,
      "lang": "en",
      "para_id": "1127.781",
      "pub_code": "CIS",
      "pub_name": "The Cross and its Shadow",
      "refcode_long": "The Cross and its Shadow, p. 185 (Stephen Nelson Haskell)",
      "refcode_short": "CIS 185",
      "pub_year": "1914",
      "snippet": "… the <mark>heavenly sanctuary</mark>. Exodus 40:24, 25. The lamps in the <mark>earthly sanctuary</mark> were burning before the Lord. Revelation 4:2, 5. The seven lamps of fire were seen burning …",
      "weight": 0.84,
      "group": "apl"
    },
    {
      "index": 8,
      "lang": "en",
      "para_id": "951.1821",
      "pub_code": "DOF",
      "pub_name": "In Defense of the Faith",
      "refcode_long": "In Defense of the Faith, p. 289.4 (William Henry Branson)",
      "refcode_short": "DOF 289.4",
      "pub_year": "1933",
      "snippet": "… the <mark>earthly sanctuary</mark> was a type of the cleansing of the <mark>heavenly</mark>. Therefore it follows unquestionably that the cleansing of the <mark>heavenly sanctuary</mark> is …",
      "weight": 0.84,
      "group": "apl"
    },
    {
      "index": 9,
      "lang": "en",
      "para_id": "12666.4325",
      "pub_code": "HSDAT",
      "pub_name": "Handbook of SDA Theology",
      "refcode_long": "Handbook of SDA Theology, p. 413.4 (Raoul Dederen-GCSDA)",
      "refcode_short": "HSDAT 413.4",
      "pub_year": "2000",
      "snippet": "",
      "weight": 0.84,
      "group": "bible",
      "action_required": "purchased"
    },
    {
      "index": 10,
      "lang": "en",
      "para_id": "104.587",
      "pub_code": "1SG",
      "pub_name": "Spiritual Gifts, vol. 1",
      "refcode_long": "Spiritual Gifts, vol. 1, p. 160.1 (Ellen Gould White)",
      "refcode_short": "1SG 160.1",
      "pub_year": "1858",
      "snippet": "… the <mark>heavenly Sanctuary</mark>. He entered into the <mark>heavenly Sanctuary</mark> by the offering of his own blood. The <mark>earthly</mark> priests were removed by death, therefore they …",
      "weight": 0.84,
      "group": "egwwritings"
    },
    {
      "index": 11,
      "lang": "en",
      "para_id": "14634.1897",
      "pub_code": "SRE",
      "pub_name": "Story of Redemption",
      "refcode_long": "Story of Redemption, p. 277.3 (Ellen Gould White)",
      "refcode_short": "SRE 277.3",
      "pub_year": "",
      "snippet": "… . The <mark>heavenly sanctuary</mark> had taken the place of the <mark>earthly sanctuary</mark>. But the Jewish people did not know the <mark>heavenly sanctuary</mark> had taken the place of the …",
      "weight": 0.84,
      "group": "egwwritings"
    },
    {
      "index": 12,
      "lang": "en",
      "para_id": "1641.5405",
      "pub_code": "ARSH",
      "pub_name": "The Advent Review, and Sabbath Herald, vol. 7",
      "refcode_long": "The Advent Review, and Sabbath Herald, vol. 7 February 7,  1856, page 148 paragraph 6",
      "refcode_short": "ARSH February 7,  1856, page 148.6",
      "pub_year": "1855",
      "snippet": "… an <mark>earthly sanctuary</mark>, and there is an <mark>heavenly</mark>; there were two apartments in the <mark>earthly</mark>, and two in the <mark>heavenly</mark>; an <mark>earthly</mark> priest, and also an <mark>heavenly</mark> one …",
      "weight": 0.83,
      "group": "apl"
    },
    {
      "index": 13,
      "lang": "en",
      "para_id": "1127.831",
      "pub_code": "CIS",
      "pub_name": "The Cross and its Shadow",
      "refcode_long": "The Cross and its Shadow, p. 195.4 (Stephen Nelson Haskell)",
      "refcode_short": "CIS 195.4",
      "pub_year": "1914",
      "snippet": "… the <mark>sanctuary</mark>, the work performed on the day of atonement in the <mark>earthly sanctuary</mark>, to begin in the <mark>heavenly sanctuary</mark>. Daniel 8:14",
      "weight": 0.83,
      "group": "apl"
    },
    {
      "index": 14,
      "lang": "en",
      "para_id": "663.1163",
      "pub_code": "EGWW",
      "pub_name": "The Ellen G. White Writings",
      "refcode_long": "The Ellen G. White Writings, p. 163.5 (Arthur Lacey White)",
      "refcode_short": "EGWW 163.5",
      "pub_year": "1973",
      "snippet": "… the <mark>earthly Sanctuary</mark>, a figure of the <mark>heavenly</mark>. The furniture of the first apartment of the <mark>earthly Sanctuary</mark> was like that in the first apartment of the …",
      "weight": 0.83,
      "group": "reference"
    },
    {
      "index": 15,
      "lang": "en",
      "para_id": "12668.11390",
      "pub_code": "SDAEnc",
      "pub_name": "SDA Encyclopedia",
      "refcode_long": "SDA Encyclopedia, p. .0 (General Conference of SDA)",
      "refcode_short": "SDAEnc .0",
      "pub_year": "1966",
      "snippet": "",
      "weight": 0.83,
      "group": "bible",
      "action_required": "purchased"
    },
    {
      "index": 16,
      "lang": "en",
      "para_id": "14634.1858",
      "pub_code": "SRE",
      "pub_name": "Story of Redemption",
      "refcode_long": "Story of Redemption, p. 271.2 (Ellen Gould White)",
      "refcode_short": "SRE 271.2",
      "pub_year": "",
      "snippet": "… the <mark>sanctuary</mark>. In the <mark>heavenly sanctuary</mark>, the blood of Jesus was offered for the sins of the people. The <mark>earthly sanctuary</mark> was cleansed by removing the sins …",
      "weight": 0.83,
      "group": "egwwritings"
    },
    {
      "index": 17,
      "lang": "en",
      "para_id": "12666.9159",
      "pub_code": "HSDAT",
      "pub_name": "Handbook of SDA Theology",
      "refcode_long": "Handbook of SDA Theology, p. 843.1 (Raoul Dederen-GCSDA)",
      "refcode_short": "HSDAT 843.1",
      "pub_year": "2000",
      "snippet": "",
      "weight": 0.83,
      "group": "bible",
      "action_required": "purchased"
    },
    {
      "index": 18,
      "lang": "en",
      "para_id": "14634.1850",
      "pub_code": "SRE",
      "pub_name": "Story of Redemption",
      "refcode_long": "Story of Redemption, p. 270.2 (Ellen Gould White)",
      "refcode_short": "SRE 270.2",
      "pub_year": "",
      "snippet": "… a <mark>sanctuary</mark> the same as the pattern shown to him in the mountain. The Bible students learned that the <mark>earthly sanctuary</mark> was a copy of the <mark>heavenly sanctuary</mark> …",
      "weight": 0.83,
      "group": "egwwritings"
    },
    {
      "index": 19,
      "lang": "en",
      "para_id": "1583.5179",
      "pub_code": "PFF4",
      "pub_name": "The Prophetic Faith of Our Fathers, vol. 4",
      "refcode_long": "The Prophetic Faith of Our Fathers, vol. 4, p. 898.1 (LeRoy Edwin Froom)",
      "refcode_short": "PFF4 898.1",
      "pub_year": "1954",
      "snippet": "… <mark> sanctuary</mark> is not, they noted, identically like the little <mark>earthly</mark> model, for it is infinitely more glorious and supernal. But the <mark>earthly sanctuary</mark>, with its …",
      "weight": 0.83,
      "group": "apl"
    },
    {
      "index": 20,
      "lang": "en",
      "para_id": "12362.10119",
      "pub_code": "EGWEnc",
      "pub_name": "The Ellen G. White Encyclopedia",
      "refcode_long": "The Ellen G. White Encyclopedia, p. 1132.1 (Denis Fortin, Jerry Moon)",
      "refcode_short": "EGWEnc 1132.1",
      "pub_year": "2013",
      "snippet": "",
      "weight": 0.82,
      "group": "reference",
      "action_required": "purchased"
    },
    {
      "index": 21,
      "lang": "en",
      "para_id": "1136.510",
      "pub_code": "GNT",
      "pub_name": "The Great Nations of To-day",
      "refcode_long": "The Great Nations of To-day, p. 121.1 (Alonzo Trevier Jones)",
      "refcode_short": "GNT 121.1",
      "pub_year": "1901",
      "snippet": "… the <mark>earthly</mark>, but the <mark>heavenly, sanctuary</mark>. As the cleansing of the <mark>earthly sanctuary</mark> was the last work for that year in behalf of that people, so the cleansing …",
      "weight": 0.82,
      "group": "apl"
    },
    {
      "index": 22,
      "lang": "en",
      "para_id": "14721.4624",
      "pub_code": "ABC-NT",
      "pub_name": "Andrews Bible Commentary - New Testament",
      "refcode_long": "Andrews Bible Commentary - New Testament, p. 1840.9",
      "refcode_short": "ABC-NT 1840.9",
      "pub_year": "",
      "snippet": "",
      "weight": 0.81,
      "group": "bible",
      "action_required": "purchased"
    },
    {
      "index": 23,
      "lang": "en",
      "para_id": "104.590",
      "pub_code": "1SG",
      "pub_name": "Spiritual Gifts, vol. 1",
      "refcode_long": "Spiritual Gifts, vol. 1, p. 161.1 (Ellen Gould White)",
      "refcode_short": "1SG 161.1",
      "pub_year": "1858",
      "snippet": "… the <mark>heavenly Sanctuary</mark>. As the priests in the <mark>earthly Sanctuary</mark> entered the Most Holy once a year to cleanse the <mark>Sanctuary</mark>, Jesus entered the Most Holy of …",
      "weight": 0.81,
      "group": "egwwritings"
    },
    {
      "index": 24,
      "lang": "en",
      "para_id": "1645.7106",
      "pub_code": "ARSH",
      "pub_name": "The Advent Review, and Sabbath Herald, vol. 3",
      "refcode_long": "The Advent Review, and Sabbath Herald, vol. 3 May 12,  1853, page 205 paragraph 2",
      "refcode_short": "ARSH May 12,  1853, page 205.2",
      "pub_year": "1852",
      "snippet": "… the <mark>earthly Sanctuary</mark>? And does not Gabriel name the anointing of the <mark>heavenly Sanctuary</mark> as the last event of the 70 weeks? Does not the ninth chapter of Hebrews …",
      "weight": 0.81,
      "group": "apl"
    }
  ]
}
