{
  "next": "https://a.egwwritings.org/search?lang=en&period=all&facets=False&query=Daniel%2011%20willful%20king&offset=20&limit=20&order=rel&snippet=long&query_type=prefer_exact",
  "previous": null,
  "total": 29,
  "count": 29,
  "results": [
    {
      "index": 0,
      "lang": "en",
      "para_id": "1579.1595",
      "pub_code": "PFF2",
      "pub_name": "The Prophetic Faith of Our Fathers, vol. 2",
      "refcode_long": "The Prophetic Faith of Our Fathers, vol. 2, p. 270.4 (LeRoy Edwin Froom)",
      "refcode_short": "PFF2 270.4",
      "pub_year": "1948",
      "snippet": "Luther firmly believed that the <mark>willful king</mark> of <mark>Daniel 11</mark>:36 —that exalted and magnified himself above every God, and lorded it over emperors-referred to the pope.",
      "weight": 1,
      "group": "apl"
    },
    {
      "index": 1,
      "lang": "en",
      "para_id": "1583.6289",
      "pub_code": "PFF4",
      "pub_name": "The Prophetic Faith of Our Fathers, vol. 4",
      "refcode_long": "The Prophetic Faith of Our Fathers, vol. 4, p. 1086 (LeRoy Edwin Froom)",
      "refcode_short": "PFF4 1086",
      "pub_year": "1954",
      "snippet": "8. <mark>Daniel 11</mark> -POPE CONSIDERED THE <mark>WILLFUL KING</mark>",
      "weight": 1,
      "group": "apl"
    },
    {
      "index": 2,
      "lang": "en",
      "para_id": "1583.6498",
      "pub_code": "PFF4",
      "pub_name": "The Prophetic Faith of Our Fathers, vol. 4",
      "refcode_long": "The Prophetic Faith of Our Fathers, vol. 4, p. 1121.2 (LeRoy Edwin Froom)",
      "refcode_short": "PFF4 1121.2",
      "pub_year": "1954",
      "snippet": "On <mark>Daniel 11</mark>, Smith took the “<mark>willful” king</mark> to be France at the time of the French Revolution-an ascendant atheistical power operative near the beginning of …",
      "weight": 0.95,
      "group": "apl"
    },
    {
      "index": 3,
      "lang": "en",
      "para_id": "1579.4307",
      "pub_code": "PFF2",
      "pub_name": "The Prophetic Faith of Our Fathers, vol. 2",
      "refcode_long": "The Prophetic Faith of Our Fathers, vol. 2, p. 671.3 (LeRoy Edwin Froom)",
      "refcode_short": "PFF2 671.3",
      "pub_year": "1948",
      "snippet": "… of <mark>Daniel</mark> 7 and 9, and the 1290 and 1335 year days which, like the 2300, lead to the cleansing of the sanctuary. The “<mark>willful king</mark>” of <mark>Daniel 11</mark>:36, 37 is explained as …",
      "weight": 0.94,
      "group": "apl"
    },
    {
      "index": 4,
      "lang": "en",
      "para_id": "1582.444",
      "pub_code": "PFF3",
      "pub_name": "The Prophetic Faith of Our Fathers, vol. 3",
      "refcode_long": "The Prophetic Faith of Our Fathers, vol. 3, p. 73.4 (LeRoy Edwin Froom)",
      "refcode_short": "PFF3 73.4",
      "pub_year": "1946",
      "snippet": "… the <mark>willful king</mark> with Antichrist. Ibid., pp. 71-98. Ibid., p. 98. Ibid., pp. 99-106. Ibid., p. 106. Ibid., pp. 111-115, citing Gratserus and Brightman.",
      "weight": 0.89,
      "group": "apl"
    },
    {
      "index": 5,
      "lang": "en",
      "para_id": "1583.935",
      "pub_code": "PFF4",
      "pub_name": "The Prophetic Faith of Our Fathers, vol. 4",
      "refcode_long": "The Prophetic Faith of Our Fathers, vol. 4, p. 170.3 (LeRoy Edwin Froom)",
      "refcode_short": "PFF4 170.3",
      "pub_year": "1954",
      "snippet": "… the <mark>willful king</mark> of <mark>Daniel 11</mark>:36, who denies God’s existence and seeks to abolish religion and disregards Christ, giving divine honor to a phantom god. Lathrop …",
      "weight": 0.89,
      "group": "apl"
    },
    {
      "index": 6,
      "lang": "en",
      "para_id": "1579.3372",
      "pub_code": "PFF2",
      "pub_name": "The Prophetic Faith of Our Fathers, vol. 2",
      "refcode_long": "The Prophetic Faith of Our Fathers, vol. 2, p. 529.2 (LeRoy Edwin Froom)",
      "refcode_short": "PFF2 529.2",
      "pub_year": "1948",
      "snippet": "… of <mark>Daniel</mark> 7 and the <mark>willful king</mark> of <mark>Daniel 11</mark> also indicate the Papacy. There are some variations on these two symbols as referring to the Papacy, but never …",
      "weight": 0.87,
      "group": "apl"
    },
    {
      "index": 7,
      "lang": "en",
      "para_id": "1582.2922",
      "pub_code": "PFF3",
      "pub_name": "The Prophetic Faith of Our Fathers, vol. 3",
      "refcode_long": "The Prophetic Faith of Our Fathers, vol. 3, p. 425.4 (LeRoy Edwin Froom)",
      "refcode_short": "PFF3 425.4",
      "pub_year": "1946",
      "snippet": "… of <mark>Daniel</mark> 8 and the <mark>willful king</mark> of <mark>Daniel 11</mark>:36 refer to Mohammed and his successors. He held, further, that the 1260 and the 2300 years end together, and that …",
      "weight": 0.86,
      "group": "apl"
    },
    {
      "index": 8,
      "lang": "en",
      "para_id": "1582.1813",
      "pub_code": "PFF3",
      "pub_name": "The Prophetic Faith of Our Fathers, vol. 3",
      "refcode_long": "The Prophetic Faith of Our Fathers, vol. 3, p. 263.3 (LeRoy Edwin Froom)",
      "refcode_short": "PFF3 263.3",
      "pub_year": "1946",
      "snippet": "… the <mark>willful king</mark> of <mark>Daniel 11</mark>:36. The Napoleonic struggle, which for years absorbed the energies of Europe, came to a halt. It was the birth time of invention …",
      "weight": 0.84,
      "group": "apl"
    },
    {
      "index": 9,
      "lang": "en",
      "para_id": "1582.1890",
      "pub_code": "PFF3",
      "pub_name": "The Prophetic Faith of Our Fathers, vol. 3",
      "refcode_long": "The Prophetic Faith of Our Fathers, vol. 3, p. 279.1 (LeRoy Edwin Froom)",
      "refcode_short": "PFF3 279.1",
      "pub_year": "1946",
      "snippet": "… the <mark>willful king</mark> of <mark>Daniel 11</mark>, he considered to be infidelic or atheistic. The “little book” he thought to be a supplemental prophecy forming chapters 10-14 …",
      "weight": 0.84,
      "group": "apl"
    },
    {
      "index": 10,
      "lang": "en",
      "para_id": "12668.6247",
      "pub_code": "SDAEnc",
      "pub_name": "SDA Encyclopedia",
      "refcode_long": "SDA Encyclopedia, p. .0 (General Conference of SDA)",
      "refcode_short": "SDAEnc .0",
      "pub_year": "1966",
      "snippet": "",
      "weight": 0.82,
      "group": "bible",
      "action_required": "purchased"
    },
    {
      "index": 11,
      "lang": "en",
      "para_id": "1583.1330",
      "pub_code": "PFF4",
      "pub_name": "The Prophetic Faith of Our Fathers, vol. 4",
      "refcode_long": "The Prophetic Faith of Our Fathers, vol. 4, p. 231.2 (LeRoy Edwin Froom)",
      "refcode_short": "PFF4 231.2",
      "pub_year": "1954",
      "snippet": "… of <mark>Daniel 11</mark> culminates in the overthrow of the <mark>willful king</mark>—“Napoleon”—in agreement with which view he cites British Edward Cooper’s Crisis, and the vision …",
      "weight": 0.81,
      "group": "apl"
    },
    {
      "index": 12,
      "lang": "en",
      "para_id": "1582.815",
      "pub_code": "PFF3",
      "pub_name": "The Prophetic Faith of Our Fathers, vol. 3",
      "refcode_long": "The Prophetic Faith of Our Fathers, vol. 3, p. 127.2 (LeRoy Edwin Froom)",
      "refcode_short": "PFF3 127.2",
      "pub_year": "1946",
      "snippet": "… in <mark>Daniel 11</mark>:44, 45, the Roman Antichrist having been introduced in verse 36 as the “<mark>willful king</mark>.” Then come the “fearful devastations, which the Ottomanical …",
      "weight": 0.69,
      "group": "apl"
    },
    {
      "index": 13,
      "lang": "en",
      "para_id": "1583.1086",
      "pub_code": "PFF4",
      "pub_name": "The Prophetic Faith of Our Fathers, vol. 4",
      "refcode_long": "The Prophetic Faith of Our Fathers, vol. 4, p. 191.2 (LeRoy Edwin Froom)",
      "refcode_short": "PFF4 191.2",
      "pub_year": "1954",
      "snippet": "… of <mark>Daniel 11</mark> is introduced—the <mark>willful king</mark> as France, with Napoleon as the new “god of forces”; also the four kingdoms of <mark>Daniel</mark> 2, and the ten divisions that would …",
      "weight": 0.68,
      "group": "apl"
    },
    {
      "index": 14,
      "lang": "en",
      "para_id": "14720.7519",
      "pub_code": "ABC-OT",
      "pub_name": "Andrews Bible Commentary - Old Testament",
      "refcode_long": "Andrews Bible Commentary - Old Testament, p. 1037.37",
      "refcode_short": "ABC-OT 1037.37",
      "pub_year": "",
      "snippet": "",
      "weight": 0.59,
      "group": "bible",
      "action_required": "purchased"
    },
    {
      "index": 15,
      "lang": "en",
      "para_id": "1582.2826",
      "pub_code": "PFF3",
      "pub_name": "The Prophetic Faith of Our Fathers, vol. 3",
      "refcode_long": "The Prophetic Faith of Our Fathers, vol. 3, p. 411.3 (LeRoy Edwin Froom)",
      "refcode_short": "PFF3 411.3",
      "pub_year": "1946",
      "snippet": "… of <mark>Daniel</mark> 2, 7, and <mark>11</mark>-the legs and feet of the image, the fourth beast, and Little Horn, and the <mark>willful king</mark> who exalts himself above even God-is matched by the dragon …",
      "weight": 0.55,
      "group": "apl"
    },
    {
      "index": 16,
      "lang": "en",
      "para_id": "12513.252",
      "pub_code": "4SDABC",
      "pub_name": "SDA Bible Commentary, vol. 4",
      "refcode_long": "SDA Bible Commentary, vol. 4, p. 41.6 (Francis Nichol-GCSDA)",
      "refcode_short": "4SDABC 41.6",
      "pub_year": "1955",
      "snippet": "",
      "weight": 0.44,
      "group": "bible",
      "action_required": "purchased"
    },
    {
      "index": 17,
      "lang": "en",
      "para_id": "14341.33771",
      "pub_code": "NET",
      "pub_name": "New English Translation",
      "refcode_long": "New English Translation — Proverbs 6:17",
      "refcode_short": "NET — Proverbs 6:17",
      "pub_year": "",
      "snippet": "",
      "weight": 0.35,
      "group": "bible",
      "action_required": "authenticated"
    },
    {
      "index": 18,
      "lang": "en",
      "para_id": "14054.4211017",
      "pub_code": "4LtMs",
      "pub_name": "Letters and Manuscripts — Volume 4 (1883 - 1886)",
      "refcode_long": "Letters and Manuscripts — Volume 4 (1883 - 1886), Ms 10, 1885, par. 11",
      "refcode_short": "4LtMs, Ms 10, 1885, par. 11",
      "pub_year": "1883",
      "snippet": "… , O <mark>king</mark>, that we will not serve thy gods, nor worship the golden image which thou hast set up.” <mark>Daniel</mark> 3:17, 18. They were <mark>willing</mark> to lose this life, but they could not …",
      "weight": 0.01,
      "group": "egwwritings"
    },
    {
      "index": 19,
      "lang": "en",
      "para_id": "14192.19116",
      "pub_code": "MHBCC",
      "pub_name": "Matthew Henry’s Complete Bible Commentary",
      "refcode_long": "Matthew Henry’s Complete Bible Commentary, p. 856.5 (Matthew Henry)",
      "refcode_short": "MHBCC 856.5",
      "pub_year": "1708",
      "snippet": "… <mark>king’s</mark> wives and concubines were ( <mark>Daniel</mark> 5:2 ); it was not agreeable to her age and gravity to keep a merry night. But, tidings of the fright which the <mark>king</mark> and …",
      "weight": 0.01,
      "group": "bible"
    }
  ]
}
