{
  "next": "https://a.egwwritings.org/search?lang=en&period=all&facets=False&query=1290%201335%20days&offset=20&limit=20&order=rel&snippet=long&query_type=prefer_exact",
  "previous": null,
  "total": 294,
  "count": 294,
  "results": [
    {
      "index": 0,
      "lang": "en",
      "para_id": "1579.1360",
      "pub_code": "PFF2",
      "pub_name": "The Prophetic Faith of Our Fathers, vol. 2",
      "refcode_long": "The Prophetic Faith of Our Fathers, vol. 2, p. 231.4 (LeRoy Edwin Froom)",
      "refcode_short": "PFF2 231.4",
      "pub_year": "1948",
      "snippet": "… year-<mark>day</mark> reckoning (the numerical value of the word “<mark>days</mark>”), thus making the <mark>1290 days</mark> equal <mark>1290</mark> plus 100, or 1390 years; and similarly the <mark>1335 days</mark> mean 1435 years …",
      "weight": 1,
      "group": "apl"
    },
    {
      "index": 1,
      "lang": "en",
      "para_id": "949.818",
      "pub_code": "FSDA",
      "pub_name": "Foundations of the Seventh-day Adventist Message and Mission",
      "refcode_long": "Foundations of the Seventh-day Adventist Message and Mission, p. 169.4 (Pieter Gerard Damsteegt)",
      "refcode_short": "FSDA 169.4",
      "pub_year": "1977",
      "snippet": "… <mark>1290 days</mark> of Daniel 12:11 and the <mark>1335 days</mark> so that both periods would commence in 508 A.D. with the termination of the <mark>1290 days</mark> in 1798 and the <mark>1335 days</mark> in 1843 …",
      "weight": 0.82,
      "group": "apl"
    },
    {
      "index": 2,
      "lang": "en",
      "para_id": "12667.1368",
      "pub_code": "1EGWLM",
      "pub_name": "The Ellen G. White Letters and Manuscripts: Volume 1",
      "refcode_long": "The Ellen G. White Letters and Manuscripts: Volume 1, p. 255.3 (Ellen Gould White)",
      "refcode_short": "1EGWLM 255.3",
      "pub_year": "2014",
      "snippet": "… the <mark>1335 days</mark> of Daniel 12, see Alberto R. Timm, “The <mark>1,290</mark> and <mark>1,335 Days</mark> of Daniel 12 .”",
      "weight": 0.8,
      "group": "egwwritings"
    },
    {
      "index": 3,
      "lang": "en",
      "para_id": "1582.2720",
      "pub_code": "PFF3",
      "pub_name": "The Prophetic Faith of Our Fathers, vol. 3",
      "refcode_long": "The Prophetic Faith of Our Fathers, vol. 3, p. 399.2 (LeRoy Edwin Froom)",
      "refcode_short": "PFF3 399.2",
      "pub_year": "1946",
      "snippet": "… the <mark>1335 days</mark> in relation to the 1260 arid <mark>1290</mark> contained within it, Mason holds that the <mark>1335 days</mark> represent the gross number with respect “to the church’s …",
      "weight": 0.76,
      "group": "apl"
    },
    {
      "index": 4,
      "lang": "en",
      "para_id": "12513.557",
      "pub_code": "4SDABC",
      "pub_name": "SDA Bible Commentary, vol. 4",
      "refcode_long": "SDA Bible Commentary, vol. 4, p. 70.5 (Francis Nichol-GCSDA)",
      "refcode_short": "4SDABC 70.5",
      "pub_year": "1955",
      "snippet": "",
      "weight": 0.74,
      "group": "bible",
      "action_required": "purchased"
    },
    {
      "index": 5,
      "lang": "en",
      "para_id": "1656.2930",
      "pub_code": "HST",
      "pub_name": "Signs of the Times and Expositor of Prophecy [Himes], vol. 4",
      "refcode_long": "Signs of the Times and Expositor of Prophecy [Himes], vol. 4 December 28,  1842, page 115 paragraph 12",
      "refcode_short": "HST December 28,  1842, page 115.12",
      "pub_year": "1842",
      "snippet": "… the <mark>1335 days</mark>, is the same as that of the <mark>1290 days</mark>,” and then he says “no more probable time can be fixed upon for” the death of Antiochus, than “some time in February …",
      "weight": 0.74,
      "group": "apl"
    },
    {
      "index": 6,
      "lang": "en",
      "para_id": "1656.4365",
      "pub_code": "HST",
      "pub_name": "Signs of the Times and Expositor of Prophecy [Himes], vol. 4",
      "refcode_long": "Signs of the Times and Expositor of Prophecy [Himes], vol. 4 February 8,  1843, page 163 paragraph 16",
      "refcode_short": "HST February 8,  1843, page 163.16",
      "pub_year": "1842",
      "snippet": "… the <mark>1335 days</mark>, is the same as that of the <mark>1290 days</mark>;” and then he says, “no more probable time can be fixed upon for” the death of Antiochus, than “some time in February …",
      "weight": 0.74,
      "group": "apl"
    },
    {
      "index": 7,
      "lang": "en",
      "para_id": "14720.7629",
      "pub_code": "ABC-OT",
      "pub_name": "Andrews Bible Commentary - Old Testament",
      "refcode_long": "Andrews Bible Commentary - Old Testament, p. 1052.51",
      "refcode_short": "ABC-OT 1052.51",
      "pub_year": "",
      "snippet": "",
      "weight": 0.74,
      "group": "bible",
      "action_required": "purchased"
    },
    {
      "index": 8,
      "lang": "en",
      "para_id": "12513.560",
      "pub_code": "4SDABC",
      "pub_name": "SDA Bible Commentary, vol. 4",
      "refcode_long": "SDA Bible Commentary, vol. 4, p. 71.1 (Francis Nichol-GCSDA)",
      "refcode_short": "4SDABC 71.1",
      "pub_year": "1955",
      "snippet": "",
      "weight": 0.71,
      "group": "bible",
      "action_required": "purchased"
    },
    {
      "index": 9,
      "lang": "en",
      "para_id": "956.2954",
      "pub_code": "PFF1",
      "pub_name": "The Prophetic Faith of Our Fathers, vol. 1",
      "refcode_long": "The Prophetic Faith of Our Fathers, vol. 1, p. 459.7 (LeRoy Edwin Froom)",
      "refcode_short": "PFF1 459.7",
      "pub_year": "1950",
      "snippet": "(9) All other “time prophecies” were as yet restricted to literal time—the time, times, and a half, or 1260 <mark>days</mark>, and the <mark>1290, 1335</mark>, and the 2300 <mark>days</mark>.",
      "weight": 0.7,
      "group": "apl"
    },
    {
      "index": 10,
      "lang": "en",
      "para_id": "949.433",
      "pub_code": "FSDA",
      "pub_name": "Foundations of the Seventh-day Adventist Message and Mission",
      "refcode_long": "Foundations of the Seventh-day Adventist Message and Mission, p. 85.1 (Pieter Gerard Damsteegt)",
      "refcode_short": "FSDA 85.1",
      "pub_year": "1977",
      "snippet": "… the <mark>1335 days</mark> of Daniel 12:12. The <mark>1335 days</mark> were considered by many Millerites as extending exactly 45 years beyond the termination of the <mark>1290 days</mark> of Daniel …",
      "weight": 0.7,
      "group": "apl"
    },
    {
      "index": 11,
      "lang": "en",
      "para_id": "14720.7628",
      "pub_code": "ABC-OT",
      "pub_name": "Andrews Bible Commentary - Old Testament",
      "refcode_long": "Andrews Bible Commentary - Old Testament, p. 1052.50",
      "refcode_short": "ABC-OT 1052.50",
      "pub_year": "",
      "snippet": "",
      "weight": 0.7,
      "group": "bible",
      "action_required": "purchased"
    },
    {
      "index": 12,
      "lang": "en",
      "para_id": "1583.1165",
      "pub_code": "PFF4",
      "pub_name": "The Prophetic Faith of Our Fathers, vol. 4",
      "refcode_long": "The Prophetic Faith of Our Fathers, vol. 4, p. 205.4 (LeRoy Edwin Froom)",
      "refcode_short": "PFF4 205.4",
      "pub_year": "1954",
      "snippet": "3. Next, Jewish expositors from the eighth to the seventeenth centuries likewise applied the year-<mark>day</mark> principle to the <mark>1290, 1335</mark>, and the 2300 <mark>days</mark>, as well. See tabular chart, Vol. II, p. 194.",
      "weight": 0.69,
      "group": "apl"
    },
    {
      "index": 13,
      "lang": "en",
      "para_id": "956.1666",
      "pub_code": "PFF1",
      "pub_name": "The Prophetic Faith of Our Fathers, vol. 1",
      "refcode_long": "The Prophetic Faith of Our Fathers, vol. 1, p. 276 (LeRoy Edwin Froom)",
      "refcode_short": "PFF1 276",
      "pub_year": "1950",
      "snippet": "10. SEES 1260, <mark>1290, 1335</mark> MERELY As <mark>DAYS</mark>",
      "weight": 0.69,
      "group": "apl"
    },
    {
      "index": 14,
      "lang": "en",
      "para_id": "1657.4442",
      "pub_code": "HST",
      "pub_name": "Signs of the Times and Expositor of Prophecy [Himes], vol. 3",
      "refcode_long": "Signs of the Times and Expositor of Prophecy [Himes], vol. 3 August 24,  1842, page 167 paragraph 6",
      "refcode_short": "HST August 24,  1842, page 167.6",
      "pub_year": "1842",
      "snippet": "… 195 <mark>days</mark>; but <mark>1290 days</mark> are three years and 210 <mark>days</mark>, 15 <mark>days</mark> too many; then he applies the <mark>1335 days</mark> to another event, accomplished in Antiochus six weeks after …",
      "weight": 0.69,
      "group": "apl"
    },
    {
      "index": 15,
      "lang": "en",
      "para_id": "1641.4410",
      "pub_code": "ARSH",
      "pub_name": "The Advent Review, and Sabbath Herald, vol. 7",
      "refcode_long": "The Advent Review, and Sabbath Herald, vol. 7 January 17,  1856, page 122 paragraph 1",
      "refcode_short": "ARSH January 17,  1856, page 122.1",
      "pub_year": "1855",
      "snippet": "By reading this text carefully, it will be seen that the waiting time is between the <mark>1290</mark> and the <mark>1335 days</mark>, and also that the blessing is pronounced upon the waiting ones, DURING the waiting time, while waiting and coming to the <mark>1335 days</mark>.",
      "weight": 0.68,
      "group": "apl"
    },
    {
      "index": 16,
      "lang": "en",
      "para_id": "1652.2506",
      "pub_code": "HST",
      "pub_name": "The Advent Herald, and Signs of the Times Reporter [Himes], vol. 7",
      "refcode_long": "The Advent Herald, and Signs of the Times Reporter [Himes], vol. 7 April 3,  1844, page 69 paragraph 4",
      "refcode_short": "HST April 3,  1844, page 69.4",
      "pub_year": "1844",
      "snippet": "… , the <mark>1290 days</mark> could not have ended in Feb. 1798, as forty-six have passed since that time. The periods must have begun in A D. 509—the <mark>1290 days</mark> terminating in 1799 …",
      "weight": 0.68,
      "group": "apl"
    },
    {
      "index": 17,
      "lang": "en",
      "para_id": "956.1611",
      "pub_code": "PFF1",
      "pub_name": "The Prophetic Faith of Our Fathers, vol. 1",
      "refcode_long": "The Prophetic Faith of Our Fathers, vol. 1, p. 266.1 (LeRoy Edwin Froom)",
      "refcode_short": "PFF1 266.1",
      "pub_year": "1950",
      "snippet": "Later in the chapter, in discussing further the time phase of Daniel’s prophecy, Clement gives more detail. He applies not only the seventieth week to the seven years before the destruction of Jerusalem, but the <mark>1290, 1335</mark>, and 2300 <mark>days</mark> as well:",
      "weight": 0.68,
      "group": "apl"
    },
    {
      "index": 18,
      "lang": "en",
      "para_id": "12668.19705",
      "pub_code": "SDAEnc",
      "pub_name": "SDA Encyclopedia",
      "refcode_long": "SDA Encyclopedia, p. .0 (General Conference of SDA)",
      "refcode_short": "SDAEnc .0",
      "pub_year": "1966",
      "snippet": "",
      "weight": 0.67,
      "group": "bible",
      "action_required": "purchased"
    },
    {
      "index": 19,
      "lang": "en",
      "para_id": "1658.551",
      "pub_code": "HST",
      "pub_name": "Signs of the Times and Expositor of Prophecy [Himes], vol. 2",
      "refcode_long": "Signs of the Times and Expositor of Prophecy [Himes], vol. 2 May 1,  1841, page 21 paragraph 15",
      "refcode_short": "HST May 1,  1841, page 21.15",
      "pub_year": "1841",
      "snippet": "… . Daniel’s <mark>1290 days</mark>, the <mark>1335 days</mark>, both begin at this period. The <mark>1335 days</mark> carries us down to the time when Daniel will “ stand in his lot ,” in the first resurrection …",
      "weight": 0.67,
      "group": "apl"
    }
  ]
}
