{
  "next": "https://a.egwwritings.org/search?lang=en&period=all&facets=False&query=Michael%20standing%20up&offset=20&limit=20&order=rel&snippet=long&query_type=prefer_exact",
  "previous": null,
  "total": 372,
  "count": 372,
  "results": [
    {
      "index": 0,
      "lang": "en",
      "para_id": "1657.4965",
      "pub_code": "HST",
      "pub_name": "Signs of the Times and Expositor of Prophecy [Himes], vol. 3",
      "refcode_long": "Signs of the Times and Expositor of Prophecy [Himes], vol. 3 September 14,  1842, page 186 paragraph 2",
      "refcode_short": "HST September 14,  1842, page 186.2",
      "pub_year": "1842",
      "snippet": "… heaven:” <mark>Michael standing up</mark> from the mediatorial seat to shut too the door: see Daniel 12:1. Luke 13:25, the effect of which will be, that “all the tribes of the earth …",
      "weight": 1,
      "group": "apl"
    },
    {
      "index": 1,
      "lang": "en",
      "para_id": "1038.433",
      "pub_code": "SC3",
      "pub_name": "[Sabbath Controversy #3] A Vindication of the Seventh-day Sabbath, and the Commandments of God",
      "refcode_long": "[Sabbath Controversy #3] A Vindication of the Seventh-day Sabbath, and the Commandments of God, p. 233 (Joseph Bates)",
      "refcode_short": "SC3 233",
      "pub_year": "1848",
      "snippet": "… , 66 <mark>Michael standing up</mark>, 67 Past History, 68 Spiritualizing, 69 “Christ is God and God is love,” 70",
      "weight": 0.87,
      "group": "apl"
    },
    {
      "index": 2,
      "lang": "en",
      "para_id": "1321.422",
      "pub_code": "MWV2",
      "pub_name": "Miller’s Works, vol. 2. Evidence from Scripture and History of the Second Coming of Christ about the Year",
      "refcode_long": "Miller’s Works, vol. 2. Evidence from Scripture and History of the Second Coming of Christ about the Year, p. 113.2 (William Miller)",
      "refcode_short": "MWV2 113.2",
      "pub_year": "1843",
      "snippet": "… of <mark>Michael standing up</mark>, and the reformation that followed in the years 1815,16,17, even down to the present time. The unfulfilled prophecy which must come …",
      "weight": 0.8,
      "group": "apl"
    },
    {
      "index": 3,
      "lang": "en",
      "para_id": "711.186",
      "pub_code": "SDD",
      "pub_name": "The “Shut Door” Documents",
      "refcode_long": "The “Shut Door” Documents, p. 18.1 (Robert W. Olson)",
      "refcode_short": "SDD 18.1",
      "pub_year": "1982",
      "snippet": "… rising <mark>up</mark> in 1844, was to shut the door, and come to his Father, to receive his kingdom, and power to reign; but <mark>Michael’s standing up</mark>, is to manifest his kingly power …",
      "weight": 0.77,
      "group": "reference"
    },
    {
      "index": 4,
      "lang": "en",
      "para_id": "1149.159",
      "pub_code": "JEO",
      "pub_name": "The Judgment. Its Events and Their Order",
      "refcode_long": "The Judgment. Its Events and Their Order, p. 33.1 (John Nevins Andrews)",
      "refcode_short": "JEO 33.1",
      "pub_year": "1890",
      "snippet": "… the <mark>standing up</mark> of <mark>Michael</mark> (compare Daniel 7:13, 14; 12:1 ); for <mark>Michael</mark> is Christ, and his <mark>standing up</mark> is his beginning to reign. <mark>Michael</mark> is the name borne by our Lord …",
      "weight": 0.72,
      "group": "apl"
    },
    {
      "index": 5,
      "lang": "en",
      "para_id": "756.4166",
      "pub_code": "EGWC",
      "pub_name": "Ellen G. White and Her Critics",
      "refcode_long": "Ellen G. White and Her Critics, p. 568.3 (Francis D. Nichol)",
      "refcode_short": "EGWC 568.3",
      "pub_year": "1994",
      "snippet": "… the <mark>standing up</mark> of <mark>Michael</mark>, the time of trouble, and the delivering of the saints are in the future; and that all these events are to be accomplished at the second …",
      "weight": 0.72,
      "group": "reference"
    },
    {
      "index": 6,
      "lang": "en",
      "para_id": "1998.96",
      "pub_code": "AWLF",
      "pub_name": "A Word to the “Little Flock”",
      "refcode_long": "A Word to the “Little Flock”, p. 8.3 (James Springer White)",
      "refcode_short": "AWLF 8.3",
      "pub_year": "1847",
      "snippet": "… the <mark>standing up</mark> of <mark>Michael</mark>, the time of trouble, and the delivering of the saints are in the future; and that all these events are to be accomplished at the second …",
      "weight": 0.72,
      "group": "apl"
    },
    {
      "index": 7,
      "lang": "en",
      "para_id": "12668.13465",
      "pub_code": "SDAEnc",
      "pub_name": "SDA Encyclopedia",
      "refcode_long": "SDA Encyclopedia, p. .0 (General Conference of SDA)",
      "refcode_short": "SDAEnc .0",
      "pub_year": "1966",
      "snippet": "",
      "weight": 0.71,
      "group": "bible",
      "action_required": "purchased"
    },
    {
      "index": 8,
      "lang": "en",
      "para_id": "12861.1533",
      "pub_code": "DAR",
      "pub_name": "Daniel and The Revelation",
      "refcode_long": "Daniel and The Revelation, p. 293.2 (Uriah Smith)",
      "refcode_short": "DAR 293.2",
      "pub_year": "1897",
      "snippet": "… the <mark>standing up</mark> of <mark>Michael</mark>, the great prince. This movement on the part of Turkey is the signal for the <mark>standing up</mark> of <mark>Michael</mark>; that is, it marks this event as next …",
      "weight": 0.71,
      "group": "apl"
    },
    {
      "index": 9,
      "lang": "en",
      "para_id": "1297.1416",
      "pub_code": "DAR1909",
      "pub_name": "Daniel and The Revelation",
      "refcode_long": "Daniel and The Revelation, p. 319.2 (Uriah Smith)",
      "refcode_short": "DAR1909 319.2",
      "pub_year": "1909",
      "snippet": "… the <mark>standing up</mark> of <mark>Michael</mark>, the great prince. This movement on the part of Turkey is the signal for the <mark>standing up</mark> of <mark>Michael</mark>; that is, it marks this event as next …",
      "weight": 0.71,
      "group": "apl"
    },
    {
      "index": 10,
      "lang": "en",
      "para_id": "756.4167",
      "pub_code": "EGWC",
      "pub_name": "Ellen G. White and Her Critics",
      "refcode_long": "Ellen G. White and Her Critics, p. 568.4 (Francis D. Nichol)",
      "refcode_short": "EGWC 568.4",
      "pub_year": "1994",
      "snippet": "… ? If <mark>Michael</mark> stood <mark>up</mark> in 1844, what power came “to his end, and none to help him,” “AT THAT TIME”? The trouble that is to come at the time that <mark>Michael stands up</mark>, is not the …",
      "weight": 0.7,
      "group": "reference"
    },
    {
      "index": 11,
      "lang": "en",
      "para_id": "1998.97",
      "pub_code": "AWLF",
      "pub_name": "A Word to the “Little Flock”",
      "refcode_long": "A Word to the “Little Flock”, p. 8.4 (James Springer White)",
      "refcode_short": "AWLF 8.4",
      "pub_year": "1847",
      "snippet": "… ? If <mark>Michael</mark> stood <mark>up</mark> in 1844, what power came “to his end, and none to help him,” “AT THAT TIME”? The trouble that is to come at the time that <mark>Michael stands up</mark>, is not the …",
      "weight": 0.7,
      "group": "apl"
    },
    {
      "index": 12,
      "lang": "en",
      "para_id": "1583.6090",
      "pub_code": "PFF4",
      "pub_name": "The Prophetic Faith of Our Fathers, vol. 4",
      "refcode_long": "The Prophetic Faith of Our Fathers, vol. 4, p. 1061.3 (LeRoy Edwin Froom)",
      "refcode_short": "PFF4 1061.3",
      "pub_year": "1954",
      "snippet": "… <mark>Michael’s standing up</mark>, is to manifest his kingly power, which he already has, in the destruction of the wicked, and the deliverance of his people. <mark>Michael</mark> is …",
      "weight": 0.67,
      "group": "apl"
    },
    {
      "index": 13,
      "lang": "en",
      "para_id": "1273.298",
      "pub_code": "AMS",
      "pub_name": "American Sentinel, vol. 2",
      "refcode_long": "American Sentinel, vol. 2 December 1887, page 90 paragraph 8",
      "refcode_short": "AMS December 1887, page 90.8",
      "pub_year": "1887",
      "snippet": "… the <mark>standing up</mark> of <mark>Michael</mark>, who is Christ. Now the <mark>standing up</mark> of a king is an expression used in Scripture to indicate the taking of the reins of government …",
      "weight": 0.64,
      "group": "apl"
    },
    {
      "index": 14,
      "lang": "en",
      "para_id": "1540.2663",
      "pub_code": "SITI",
      "pub_name": "The Signs of the Times, vol. 13",
      "refcode_long": "The Signs of the Times, vol. 13 September 8,  1887, page 551 paragraph 18",
      "refcode_short": "SITI September 8,  1887, page 551.18",
      "pub_year": "1887",
      "snippet": "… the <mark>standing up</mark> of <mark>Michael</mark>, who is Christ. Now the <mark>standing up</mark> of a king is an expression used in Scripture to indicate the taking of the reins of government …",
      "weight": 0.64,
      "group": "apl"
    },
    {
      "index": 15,
      "lang": "en",
      "para_id": "14022.555",
      "pub_code": "GC-SG",
      "pub_name": "The Great Controversy -- Study Guide",
      "refcode_long": "The Great Controversy -- Study Guide, p. 71.1 (Ellen G. White Estate)",
      "refcode_short": "GC-SG 71.1",
      "pub_year": "2000",
      "snippet": "1. What does the <mark>standing up</mark> of <mark>Michael</mark> mean to (1) the guilty; (2) God’s people; (3) the angels of heaven; (4) Christ?",
      "weight": 0.63,
      "group": "reference"
    },
    {
      "index": 16,
      "lang": "en",
      "para_id": "1582.4026",
      "pub_code": "PFF3",
      "pub_name": "The Prophetic Faith of Our Fathers, vol. 3",
      "refcode_long": "The Prophetic Faith of Our Fathers, vol. 3, p. 575.3 (LeRoy Edwin Froom)",
      "refcode_short": "PFF3 575.3",
      "pub_year": "1946",
      "snippet": "Pym connects the <mark>standing up</mark> of <mark>Michael</mark> with the cleansing of the sanctuary from its pollutions, for the “seed of Abraham” shall be “restored to their own land.” This, he reiterates-",
      "weight": 0.62,
      "group": "apl"
    },
    {
      "index": 17,
      "lang": "en",
      "para_id": "11144.45056",
      "pub_code": "YLT",
      "pub_name": "Young’s Literal Translation",
      "refcode_long": "Young’s Literal Translation — Daniel 12:1",
      "refcode_short": "YLT — Daniel 12:1",
      "pub_year": "1898",
      "snippet": "… time <mark>stand up</mark> doth <mark>Michael</mark>, the great head, who is <mark>standing up</mark> for the sons of thy people, and there hath been a time of distress, such as hath not been since there …",
      "weight": 0.6,
      "group": "bible"
    },
    {
      "index": 18,
      "lang": "en",
      "para_id": "12861.1540",
      "pub_code": "DAR",
      "pub_name": "Daniel and The Revelation",
      "refcode_long": "Daniel and The Revelation, p. 295.1 (Uriah Smith)",
      "refcode_short": "DAR 295.1",
      "pub_year": "1897",
      "snippet": "… the <mark>standing up</mark> of <mark>Michael</mark>? The key to the interpretation of this expression is furnished us in verses 2 and 3 of chapter 11: “There shall <mark>stand up</mark> yet three kings …",
      "weight": 0.6,
      "group": "apl"
    },
    {
      "index": 19,
      "lang": "en",
      "para_id": "1297.1423",
      "pub_code": "DAR1909",
      "pub_name": "Daniel and The Revelation",
      "refcode_long": "Daniel and The Revelation, p. 321.1 (Uriah Smith)",
      "refcode_short": "DAR1909 321.1",
      "pub_year": "1909",
      "snippet": "… the <mark>standing up</mark> of <mark>Michael</mark>? The key to the interpretation of this expression is furnished us in verses 2 and 3 of chapter 11: “There shall <mark>stand up</mark> yet three kings …",
      "weight": 0.6,
      "group": "apl"
    }
  ]
}
