{
  "next": "https://a.egwwritings.org/search?lang=en&period=all&facets=False&query=Laodicea%20seven%20churches&offset=25&limit=25&order=rel&snippet=long&query_type=prefer_exact",
  "previous": null,
  "total": 91,
  "count": 91,
  "results": [
    {
      "index": 0,
      "lang": "en",
      "para_id": "127.2574",
      "pub_code": "AA",
      "pub_name": "The Acts of the Apostles",
      "refcode_long": "The Acts of the Apostles, p. 585.2 (Ellen Gould White)",
      "refcode_short": "AA 585.2",
      "pub_year": "1911",
      "snippet": "… <mark>seven</mark> golden candlesticks. The <mark>seven</mark> stars are the angels of the <mark>seven churches</mark>: and the <mark>seven</mark> candlesticks which thou sawest are the <mark>seven churches</mark>.” Revelation …",
      "weight": 1,
      "group": "egwwritings"
    },
    {
      "index": 1,
      "lang": "en",
      "para_id": "1675.7375",
      "pub_code": "ARSH",
      "pub_name": "Advent Review, and Sabbath Herald, vol. 8",
      "refcode_long": "Advent Review, and Sabbath Herald, vol. 8 October 16,  1856, page 188 paragraph 5",
      "refcode_short": "ARSH October 16,  1856, page 188.5",
      "pub_year": "1856",
      "snippet": "… the <mark>seven churches</mark> in Asia. Said the angel to John, “What thou seest, write in a book, and send it unto the <mark>seven churches</mark> which are in Asia; unto Ephesus, and unto …",
      "weight": 0.99,
      "group": "apl"
    },
    {
      "index": 2,
      "lang": "en",
      "para_id": "1686.5223",
      "pub_code": "ARSH",
      "pub_name": "Advent Review, and Sabbath Herald, vol. 17",
      "refcode_long": "Advent Review, and Sabbath Herald, vol. 17 March 26,  1861, page 148 paragraph 4",
      "refcode_short": "ARSH March 26,  1861, page 148.4",
      "pub_year": "1860",
      "snippet": "… the <mark>seven churches</mark>, are not found, according to Dr. Clarke, in ancient and reliable manuscripts. Understanding the <mark>seven churches</mark> in whatever way we may, those …",
      "weight": 0.98,
      "group": "apl"
    },
    {
      "index": 3,
      "lang": "en",
      "para_id": "12517.837",
      "pub_code": "7SDABC",
      "pub_name": "SDA Bible Commentary, vol. 7",
      "refcode_long": "SDA Bible Commentary, vol. 7, p. 108.1 (Francis Nichol-GCSDA)",
      "refcode_short": "7SDABC 108.1",
      "pub_year": "1957",
      "snippet": "",
      "weight": 0.9,
      "group": "bible",
      "action_required": "purchased"
    },
    {
      "index": 4,
      "lang": "en",
      "para_id": "14721.5412",
      "pub_code": "ABC-NT",
      "pub_name": "Andrews Bible Commentary - New Testament",
      "refcode_long": "Andrews Bible Commentary - New Testament, p. 1934.62",
      "refcode_short": "ABC-NT 1934.62",
      "pub_year": "",
      "snippet": "",
      "weight": 0.83,
      "group": "bible",
      "action_required": "purchased"
    },
    {
      "index": 5,
      "lang": "en",
      "para_id": "12668.19697",
      "pub_code": "SDAEnc",
      "pub_name": "SDA Encyclopedia",
      "refcode_long": "SDA Encyclopedia, p. .0 (General Conference of SDA)",
      "refcode_short": "SDAEnc .0",
      "pub_year": "1966",
      "snippet": "",
      "weight": 0.81,
      "group": "bible",
      "action_required": "purchased"
    },
    {
      "index": 6,
      "lang": "en",
      "para_id": "12517.821",
      "pub_code": "7SDABC",
      "pub_name": "SDA Bible Commentary, vol. 7",
      "refcode_long": "SDA Bible Commentary, vol. 7, p. 106.3 (Francis Nichol-GCSDA)",
      "refcode_short": "7SDABC 106.3",
      "pub_year": "1957",
      "snippet": "",
      "weight": 0.8,
      "group": "bible",
      "action_required": "purchased"
    },
    {
      "index": 7,
      "lang": "en",
      "para_id": "1683.132",
      "pub_code": "ARSH",
      "pub_name": "Advent Review, and Sabbath Herald, vol. 20",
      "refcode_long": "Advent Review, and Sabbath Herald, vol. 20 June 3,  1862, page 4 paragraph 14",
      "refcode_short": "ARSH June 3,  1862, page 4.14",
      "pub_year": "1862",
      "snippet": "… the <mark>seven churches</mark>. Colosse was only about twenty-five miles from <mark>Laodicea</mark>. Miletum, where Paul left his brother Trophimus sick, 2 Timothy 4:20, and to which …",
      "weight": 0.8,
      "group": "apl"
    },
    {
      "index": 8,
      "lang": "en",
      "para_id": "12861.1685",
      "pub_code": "DAR",
      "pub_name": "Daniel and The Revelation",
      "refcode_long": "Daniel and The Revelation, p. 327.3 (Uriah Smith)",
      "refcode_short": "DAR 327.3",
      "pub_year": "1897",
      "snippet": "… why <mark>seven</mark> of the <mark>churches</mark> of Asia Minor were selected as the ones to which the Revelation should be dedicated. Does what is said of the <mark>seven churches</mark> in chapter …",
      "weight": 0.78,
      "group": "apl"
    },
    {
      "index": 9,
      "lang": "en",
      "para_id": "1297.1571",
      "pub_code": "DAR1909",
      "pub_name": "Daniel and The Revelation",
      "refcode_long": "Daniel and The Revelation, p. 355.4 (Uriah Smith)",
      "refcode_short": "DAR1909 355.4",
      "pub_year": "1909",
      "snippet": "… why <mark>seven</mark> of the <mark>churches</mark> of Asia Minor were selected as the ones to which the Revelation should be dedicated. Does what is said of the <mark>seven churches</mark> in chapter …",
      "weight": 0.78,
      "group": "apl"
    },
    {
      "index": 10,
      "lang": "en",
      "para_id": "14068.8482040",
      "pub_code": "18LtMs",
      "pub_name": "Letters and Manuscripts — Volume 18 (1903)",
      "refcode_long": "Letters and Manuscripts — Volume 18 (1903), Ms 139, 1903, par. 33",
      "refcode_short": "18LtMs, Ms 139, 1903, par. 33",
      "pub_year": "1903",
      "snippet": "… the <mark>seven</mark> golden candlesticks. The <mark>seven</mark> stars are the angels of the <mark>seven churches</mark>; and the <mark>seven</mark> candlesticks are the <mark>seven churches</mark>.” [ Revelation 1:10-20 …",
      "weight": 0.75,
      "group": "egwwritings"
    },
    {
      "index": 11,
      "lang": "en",
      "para_id": "820.18483",
      "pub_code": "ST",
      "pub_name": "The Signs of the Times",
      "refcode_long": "The Signs of the Times February 4,  1903, paragraph 1",
      "refcode_short": "ST February 4,  1903, par. 1",
      "pub_year": "1874",
      "snippet": "… <mark>seven</mark> golden candlesticks. The <mark>seven</mark> stars are the angels of the <mark>seven churches</mark>; and the <mark>seven</mark> candlesticks which thou sawest are the <mark>seven churches</mark>.”",
      "weight": 0.75,
      "group": "egwwritings"
    },
    {
      "index": 12,
      "lang": "en",
      "para_id": "1583.1622",
      "pub_code": "PFF4",
      "pub_name": "The Prophetic Faith of Our Fathers, vol. 4",
      "refcode_long": "The Prophetic Faith of Our Fathers, vol. 4, p. 273.1 (LeRoy Edwin Froom)",
      "refcode_short": "PFF4 273.1",
      "pub_year": "1954",
      "snippet": "She does not explain further at this time. Noting God’s special message to the <mark>seven churches</mark> of the Apocalypse, Miss Livermore again refers to <mark>Laodicea</mark>:",
      "weight": 0.75,
      "group": "apl"
    },
    {
      "index": 13,
      "lang": "en",
      "para_id": "14721.4038",
      "pub_code": "ABC-NT",
      "pub_name": "Andrews Bible Commentary - New Testament",
      "refcode_long": "Andrews Bible Commentary - New Testament, p. 1753.44",
      "refcode_short": "ABC-NT 1753.44",
      "pub_year": "",
      "snippet": "",
      "weight": 0.75,
      "group": "bible",
      "action_required": "purchased"
    },
    {
      "index": 14,
      "lang": "en",
      "para_id": "14419.62655",
      "pub_code": "ICB",
      "pub_name": "International Children’s Bible",
      "refcode_long": "International Children’s Bible — Revelation 1:11",
      "refcode_short": "ICB — Revelation 1:11",
      "pub_year": "",
      "snippet": "",
      "weight": 0.74,
      "group": "bible",
      "action_required": "authenticated"
    },
    {
      "index": 15,
      "lang": "en",
      "para_id": "14333.62653",
      "pub_code": "ISV",
      "pub_name": "International Standard Version",
      "refcode_long": "International Standard Version — Revelation 1:11",
      "refcode_short": "ISV — Revelation 1:11",
      "pub_year": "",
      "snippet": "11 saying, “Write on a scroll what you see, and send it to the <mark>seven churches</mark>: Ephesus, Smyrna, Pergamum, Thyatira, Sardis, Philadelphia, and <mark>Laodicea</mark>.”",
      "weight": 0.74,
      "group": "bible"
    },
    {
      "index": 16,
      "lang": "en",
      "para_id": "14420.62655",
      "pub_code": "NCV",
      "pub_name": "New Century Version",
      "refcode_long": "New Century Version — Revelation 1:11",
      "refcode_short": "NCV — Revelation 1:11",
      "pub_year": "",
      "snippet": "",
      "weight": 0.74,
      "group": "bible",
      "action_required": "authenticated"
    },
    {
      "index": 17,
      "lang": "en",
      "para_id": "14736.62653",
      "pub_code": "NHEB",
      "pub_name": "New Heart English Bible",
      "refcode_long": "New Heart English Bible — Revelation 1:11",
      "refcode_short": "NHEB — Revelation 1:11",
      "pub_year": "",
      "snippet": "11 saying, \"What you see, write on a scroll and send to the <mark>seven churches</mark>: to Ephesus, Smyrna, Pergamum, Thyatira, Sardis, Philadelphia, and to <mark>Laodicea</mark>.\"",
      "weight": 0.74,
      "group": "bible"
    },
    {
      "index": 18,
      "lang": "en",
      "para_id": "14340.62653",
      "pub_code": "NIV",
      "pub_name": "New International Version",
      "refcode_long": "New International Version — Revelation 1:11",
      "refcode_short": "NIV — Revelation 1:11",
      "pub_year": "",
      "snippet": "",
      "weight": 0.74,
      "group": "bible",
      "action_required": "authenticated"
    },
    {
      "index": 19,
      "lang": "en",
      "para_id": "12517.676",
      "pub_code": "7SDABC",
      "pub_name": "SDA Bible Commentary, vol. 7",
      "refcode_long": "SDA Bible Commentary, vol. 7, p. 87.3 (Francis Nichol-GCSDA)",
      "refcode_short": "7SDABC 87.3",
      "pub_year": "1957",
      "snippet": "",
      "weight": 0.73,
      "group": "bible",
      "action_required": "purchased"
    },
    {
      "index": 20,
      "lang": "en",
      "para_id": "1381.1262",
      "pub_code": "TBI",
      "pub_name": "The Biblical Institute",
      "refcode_long": "The Biblical Institute, p. 243.2 (Uriah Smith)",
      "refcode_short": "TBI 243.2",
      "pub_year": "1878",
      "snippet": "… the <mark>seven churches</mark> were situated which are addressed, there were other important <mark>churches</mark> in the same territory. Colosse was but a short distance from <mark>Laodicea</mark> …",
      "weight": 0.72,
      "group": "apl"
    },
    {
      "index": 21,
      "lang": "en",
      "para_id": "1345.891",
      "pub_code": "SYNPT",
      "pub_name": "Synopsis of the Present Truth",
      "refcode_long": "Synopsis of the Present Truth, p. 190.2 (Uriah Smith)",
      "refcode_short": "SYNPT 190.2",
      "pub_year": "1884",
      "snippet": "… where <mark>seven churches</mark> were situated which are addressed, there were other important <mark>churches</mark> in the same territory. Collosse was but a short distance from …",
      "weight": 0.72,
      "group": "apl"
    },
    {
      "index": 22,
      "lang": "en",
      "para_id": "11139.62653",
      "pub_code": "ASV",
      "pub_name": "American Standard Version",
      "refcode_long": "American Standard Version — Revelation 1:11",
      "refcode_short": "ASV — Revelation 1:11",
      "pub_year": "1901",
      "snippet": "11 saying, What thou seest, write in a book and send [it] to the <mark>seven churches</mark>: unto Ephesus, and unto Smyrna, and unto Pergamum, and unto Thyatira, and unto Sardis, and unto Philadelphia, and unto <mark>Laodicea</mark>.",
      "weight": 0.72,
      "group": "bible"
    },
    {
      "index": 23,
      "lang": "en",
      "para_id": "14330.62653",
      "pub_code": "ERV",
      "pub_name": "English Revised Version",
      "refcode_long": "English Revised Version — Revelation 1:11",
      "refcode_short": "ERV — Revelation 1:11",
      "pub_year": "1885",
      "snippet": "11 saying, What thou seest, write in a book, and send it to the <mark>seven churches</mark>; unto Ephesus, and unto Smyrna, and unto Pergamum, and unto Thyatira, and unto Sardis, and unto Philadelphia, and unto <mark>Laodicea</mark>.",
      "weight": 0.72,
      "group": "bible"
    },
    {
      "index": 24,
      "lang": "en",
      "para_id": "14336.62653",
      "pub_code": "RV1885",
      "pub_name": "Revised Version 1885",
      "refcode_long": "Revised Version 1885 — Revelation 1:11",
      "refcode_short": "RV1885 — Revelation 1:11",
      "pub_year": "",
      "snippet": "11 saying, What thou seest, write in a book, and send it to the <mark>seven churches</mark>; unto Ephesus, and unto Smyrna, and unto Pergamum, and unto Thyatira, and unto Sardis, and unto Philadelphia, and unto <mark>Laodicea</mark>.",
      "weight": 0.72,
      "group": "bible"
    }
  ]
}
