{
  "next": "https://a.egwwritings.org/search?lang=en&period=all&facets=False&query=throne%20in%20heaven%20Lamb&offset=25&limit=25&order=rel&snippet=long&query_type=prefer_exact",
  "previous": null,
  "total": 718,
  "count": 718,
  "results": [
    {
      "index": 0,
      "lang": "en",
      "para_id": "12445.3914",
      "pub_code": "PTUK",
      "pub_name": "The Present Truth, vol. 14",
      "refcode_long": "The Present Truth, vol. 14 August 18,  1898, page 514 paragraph 6",
      "refcode_short": "PTUK August 18,  1898, page 514.6",
      "pub_year": "1898",
      "snippet": "… is <mark>in</mark> the <mark>throne</mark> of God <mark>in heaven</mark>; for “righteousness and judgment are the foundation of Thy <mark>throne</mark>.” Ps. lxxxix. 14. The ark of God <mark>in</mark> the most holy place of the tabernacle …",
      "weight": 1,
      "group": "apl"
    },
    {
      "index": 1,
      "lang": "en",
      "para_id": "12150.1002",
      "pub_code": "PTUK",
      "pub_name": "The Present Truth, vol. 12",
      "refcode_long": "The Present Truth, vol. 12 March 5,  1896, page 146 paragraph 3",
      "refcode_short": "PTUK March 5,  1896, page 146.3",
      "pub_year": "1896",
      "snippet": "… this <mark>throne in heaven</mark>. That it was the <mark>throne</mark> of grace, we may be sure from the fact that <mark>in</mark> the midst of it “stood a <mark>Lamb</mark> as it had been slain,” and also that at the very …",
      "weight": 0.9,
      "group": "apl"
    },
    {
      "index": 2,
      "lang": "en",
      "para_id": "81.295",
      "pub_code": "OHC",
      "pub_name": "Our High Calling",
      "refcode_long": "Our High Calling, p. 46.2 (Ellen Gould White)",
      "refcode_short": "OHC 46.2",
      "pub_year": "1961",
      "snippet": "… the <mark>Lamb in</mark> the midst of the <mark>throne in heaven</mark>, no welcome reception of the wandering who would return to the forsaken path of righteousness and truth, no hope …",
      "weight": 0.8,
      "group": "egwwritings"
    },
    {
      "index": 3,
      "lang": "en",
      "para_id": "14065.9524060",
      "pub_code": "15LtMs",
      "pub_name": "Letters and Manuscripts — Volume 15 (1900)",
      "refcode_long": "Letters and Manuscripts — Volume 15 (1900), Ms 58, 1900, par. 54",
      "refcode_short": "15LtMs, Ms 58, 1900, par. 54",
      "pub_year": "1900",
      "snippet": "… the <mark>Lamb in</mark> the midst of the <mark>throne in heaven</mark>, no welcome reception of the wandering who would return to the forsaken path of righteousness and truth, no hope …",
      "weight": 0.8,
      "group": "egwwritings"
    },
    {
      "index": 4,
      "lang": "en",
      "para_id": "1676.4083",
      "pub_code": "ARSH",
      "pub_name": "Advent Review, and Sabbath Herald, vol. 27",
      "refcode_long": "Advent Review, and Sabbath Herald, vol. 27 March 6,  1866, page 108 paragraph 18",
      "refcode_short": "ARSH March 6,  1866, page 108.18",
      "pub_year": "1866",
      "snippet": "… the <mark>throne</mark> of God and the <mark>Lamb. In</mark> chap 14, he saw a hundred and forty-four thousand with the <mark>Lamb</mark> on Mt. Zion. Mt. Zion is <mark>in Heaven</mark>. Joel 3:16; Hebrews 12:22. <mark>In</mark> chap 19 …",
      "weight": 0.75,
      "group": "apl"
    },
    {
      "index": 5,
      "lang": "en",
      "para_id": "12861.3339",
      "pub_code": "DAR",
      "pub_name": "Daniel and The Revelation",
      "refcode_long": "Daniel and The Revelation, p. 639.1 (Uriah Smith)",
      "refcode_short": "DAR 639.1",
      "pub_year": "1897",
      "snippet": "… the <mark>Lamb</mark>. The sea of glass, upon which these-victors stand, is the same as that brought to view <mark>in</mark> chapter 4:6, which was before the <mark>throne in heaven</mark>. And as we have …",
      "weight": 0.74,
      "group": "apl"
    },
    {
      "index": 6,
      "lang": "en",
      "para_id": "1297.3211",
      "pub_code": "DAR1909",
      "pub_name": "Daniel and The Revelation",
      "refcode_long": "Daniel and The Revelation, p. 682.1 (Uriah Smith)",
      "refcode_short": "DAR1909 682.1",
      "pub_year": "1909",
      "snippet": "… the <mark>Lamb</mark>. The sea of glass, upon which these victors stand, is the same as that brought to view <mark>in</mark> chapter 4:6, which was before the <mark>throne in heaven</mark>. And as we have …",
      "weight": 0.74,
      "group": "apl"
    },
    {
      "index": 7,
      "lang": "en",
      "para_id": "1676.4082",
      "pub_code": "ARSH",
      "pub_name": "Advent Review, and Sabbath Herald, vol. 27",
      "refcode_long": "Advent Review, and Sabbath Herald, vol. 27 March 6,  1866, page 108 paragraph 17",
      "refcode_short": "ARSH March 6,  1866, page 108.17",
      "pub_year": "1866",
      "snippet": "… opened <mark>in Heaven</mark>. He beheld Jehovah seated upon his glorious <mark>throne</mark>; and before the <mark>throne</mark> there was a sea of glass like unto crystal. <mark>In</mark> chapter 15:2, he tells …",
      "weight": 0.72,
      "group": "apl"
    },
    {
      "index": 8,
      "lang": "en",
      "para_id": "1678.1181",
      "pub_code": "ARSH",
      "pub_name": "Advent Review, and Sabbath Herald, vol. 25",
      "refcode_long": "Advent Review, and Sabbath Herald, vol. 25 December 20,  1864, page 29 paragraph 13",
      "refcode_short": "ARSH December 20,  1864, page 29.13",
      "pub_year": "1865",
      "snippet": "… <mark>throne</mark>, and from the wrath of the <mark>Lamb</mark>; for the great day of his wrath is come; and who shall be able to stand?” Revelation 6:12-17. “The powers of the <mark>heavens</mark> shall …",
      "weight": 0.72,
      "group": "apl"
    },
    {
      "index": 9,
      "lang": "en",
      "para_id": "1476.325",
      "pub_code": "RDAC",
      "pub_name": "Refutation of the Doctrine Called The Age to Come",
      "refcode_long": "Refutation of the Doctrine Called The Age to Come, p. 69.2 (Joseph Harvey Waggoner)",
      "refcode_short": "RDAC 69.2",
      "pub_year": "1872",
      "snippet": "… , from <mark>Heaven</mark>. Therefore, Mount Zion and Jerusalem are <mark>in Heaven</mark>. Again, said John, “I heard a great voice of much people <mark>in Heaven</mark>, saying, Alleluia.” Revelation 19 …",
      "weight": 0.72,
      "group": "apl"
    },
    {
      "index": 10,
      "lang": "en",
      "para_id": "1688.3045",
      "pub_code": "ARSH",
      "pub_name": "Advent Review, and Sabbath Herald, vol. 15",
      "refcode_long": "Advent Review, and Sabbath Herald, vol. 15 January 26,  1860, page 75 paragraph 10",
      "refcode_short": "ARSH January 26,  1860, page 75.10",
      "pub_year": "1859",
      "snippet": "… is <mark>in heaven</mark>. Again he said, “I heard a voice of much people <mark>in heaven</mark>, saying, Alleluia.” Revelation 19:1. This is after the Lord has judged Babylon, and “hath avenged …",
      "weight": 0.71,
      "group": "apl"
    },
    {
      "index": 11,
      "lang": "en",
      "para_id": "1675.4558",
      "pub_code": "ARSH",
      "pub_name": "Advent Review, and Sabbath Herald, vol. 8",
      "refcode_long": "Advent Review, and Sabbath Herald, vol. 8 August 14,  1856, page 117 paragraph 19",
      "refcode_short": "ARSH August 14,  1856, page 117.19",
      "pub_year": "1856",
      "snippet": "… is <mark>in heaven</mark>. Again says John, “I heard a great voice of much people <mark>in heaven</mark>, saying, Alleluia.” Revelation 19:1. <mark>In</mark> verse 2 it is shown that this is after the Lord …",
      "weight": 0.7,
      "group": "apl"
    },
    {
      "index": 12,
      "lang": "en",
      "para_id": "1675.5470",
      "pub_code": "ARSH",
      "pub_name": "Advent Review, and Sabbath Herald, vol. 8",
      "refcode_long": "Advent Review, and Sabbath Herald, vol. 8 September 4,  1856, page 139 paragraph 6",
      "refcode_short": "ARSH September 4,  1856, page 139.6",
      "pub_year": "1856",
      "snippet": "… opened <mark>in heaven</mark>, and was called to “come up hither.” “And immediately I was <mark>in</mark> the Spirit: and behold a <mark>throne</mark> was set <mark>in heaven</mark>, and one sat on the <mark>throne</mark>.” “And before …",
      "weight": 0.69,
      "group": "apl"
    },
    {
      "index": 13,
      "lang": "en",
      "para_id": "1207.364",
      "pub_code": "SITI",
      "pub_name": "The Signs of the Times, vol. 13",
      "refcode_long": "The Signs of the Times, vol. 13 April 7,  1887, page 215 paragraph 8",
      "refcode_short": "SITI April 7,  1887, page 215.8",
      "pub_year": "1887",
      "snippet": "… <mark>throne</mark>, and unto the <mark>Lamb</mark>.” And this <mark>throne</mark> was set <mark>in Heaven</mark>. Revelation 4:2. Therefore it is certain that the multitude of the righteous, who are raised <mark>in</mark> the …",
      "weight": 0.68,
      "group": "apl"
    },
    {
      "index": 14,
      "lang": "en",
      "para_id": "1407.261",
      "pub_code": "SAIN",
      "pub_name": "The Saints’ Inheritance",
      "refcode_long": "The Saints’ Inheritance, p. 62.2 (John Norton Loughborough)",
      "refcode_short": "SAIN 62.2",
      "pub_year": "1893",
      "snippet": "… opened <mark>in heaven</mark>.... And, behold, a <mark>throne</mark> was set <mark>in heaven</mark>, and one sat on the <mark>throne</mark>.... And before the <mark>throne</mark> there was a sea of glass like unto crystal.” Revelation …",
      "weight": 0.65,
      "group": "apl"
    },
    {
      "index": 15,
      "lang": "en",
      "para_id": "1531.383",
      "pub_code": "SCOC",
      "pub_name": "The Second Coming of Christ",
      "refcode_long": "The Second Coming of Christ, p. 76.4 (James Springer White)",
      "refcode_short": "SCOC 76.4",
      "pub_year": "1871",
      "snippet": "… the <mark>Lamb</mark> is Christ’s reception of the <mark>throne</mark> of David, or his own <mark>throne</mark>, which is the New Jerusalem above. That city is finally to come down upon the new earth …",
      "weight": 0.63,
      "group": "apl"
    },
    {
      "index": 16,
      "lang": "en",
      "para_id": "1644.1783",
      "pub_code": "ARSH",
      "pub_name": "The Advent Review, and Sabbath Herald, vol. 4",
      "refcode_long": "The Advent Review, and Sabbath Herald, vol. 4 August 28,  1853, page 60 paragraph 5",
      "refcode_short": "ARSH August 28,  1853, page 60.5",
      "pub_year": "1853",
      "snippet": "… tabernacle <mark>in heaven</mark> to be <mark>heaven</mark> itself; and the New Jerusalem, which contains the <mark>throne</mark> of God and the <mark>Lamb</mark>, and the river and tree of life, he explains to be …",
      "weight": 0.63,
      "group": "apl"
    },
    {
      "index": 17,
      "lang": "en",
      "para_id": "12861.2034",
      "pub_code": "DAR",
      "pub_name": "Daniel and The Revelation",
      "refcode_long": "Daniel and The Revelation, p. 397.1 (Uriah Smith)",
      "refcode_short": "DAR 397.1",
      "pub_year": "1897",
      "snippet": "… things <mark>in heaven</mark> as John describes. We reply that, though the Revelation deals largely <mark>in</mark> figures, it does not deal <mark>in</mark> fictions. There is reality <mark>in</mark> all the things …",
      "weight": 0.63,
      "group": "apl"
    },
    {
      "index": 18,
      "lang": "en",
      "para_id": "1297.1911",
      "pub_code": "DAR1909",
      "pub_name": "Daniel and The Revelation",
      "refcode_long": "Daniel and The Revelation, p. 426.1 (Uriah Smith)",
      "refcode_short": "DAR1909 426.1",
      "pub_year": "1909",
      "snippet": "… things <mark>in heaven</mark> as John describes. We reply that, though the Revelation deals largely <mark>in</mark> figures, it does not deal <mark>in</mark> fictions. There is reality <mark>in</mark> all the things …",
      "weight": 0.63,
      "group": "apl"
    },
    {
      "index": 19,
      "lang": "en",
      "para_id": "1689.6308",
      "pub_code": "ARSH",
      "pub_name": "Advent Review, and Sabbath Herald, vol. 14",
      "refcode_long": "Advent Review, and Sabbath Herald, vol. 14 October 13,  1859, page 167 paragraph 5",
      "refcode_short": "ARSH October 13,  1859, page 167.5",
      "pub_year": "1859",
      "snippet": "… the <mark>throne</mark> and the <mark>Lamb</mark> for ever.” How great a matter it will be, to be found at length <mark>in heaven</mark>. How amazing! “Then to grace how great a debtor!”",
      "weight": 0.62,
      "group": "apl"
    },
    {
      "index": 20,
      "lang": "en",
      "para_id": "1531.388",
      "pub_code": "SCOC",
      "pub_name": "The Second Coming of Christ",
      "refcode_long": "The Second Coming of Christ, p. 77.2 (James Springer White)",
      "refcode_short": "SCOC 77.2",
      "pub_year": "1871",
      "snippet": "… place <mark>in Heaven in</mark> connection with the reception of the <mark>throne</mark> of the immortal kingdom by the rightful heir, Jesus Christ. The marriage of the <mark>Lamb</mark> takes place …",
      "weight": 0.6,
      "group": "apl"
    },
    {
      "index": 21,
      "lang": "en",
      "para_id": "433.453",
      "pub_code": "LLM",
      "pub_name": "Loma Linda Messages",
      "refcode_long": "Loma Linda Messages, p. 53.4 (Ellen Gould White)",
      "refcode_short": "LLM 53.4",
      "pub_year": "1981",
      "snippet": "… found <mark>in</mark> loving service. Some among the redeemed will have laid hold of Christ <mark>in</mark> the last hours of life, and <mark>in heaven</mark> instruction will be given to these ones …",
      "weight": 0.6,
      "group": "egwwritings"
    },
    {
      "index": 22,
      "lang": "en",
      "para_id": "1317.532",
      "pub_code": "LUJ",
      "pub_name": "Looking Unto Jesus",
      "refcode_long": "Looking Unto Jesus, p. 134.2 (Uriah Smith)",
      "refcode_short": "LUJ 134.2",
      "pub_year": "1898",
      "snippet": "… opened <mark>in heaven</mark>.” He thus introduces us, not merely into <mark>heaven</mark>, but into some apartment <mark>in heaven</mark>. Therein he saw the <mark>throne</mark> of God, <mark>in</mark> all its majesty and glory …",
      "weight": 0.59,
      "group": "apl"
    },
    {
      "index": 23,
      "lang": "en",
      "para_id": "1408.962",
      "pub_code": "STTHD",
      "pub_name": "The Sanctuary and the Twenty-three Hundred Days of Daniel 8:14",
      "refcode_long": "The Sanctuary and the Twenty-three Hundred Days of Daniel 8:14, p. 233.3 (Uriah Smith)",
      "refcode_short": "STTHD 233.3",
      "pub_year": "1877",
      "snippet": "… opened <mark>in Heaven</mark>.” He thus introduces us, not merely into <mark>Heaven</mark>, but into some apartment <mark>in Heaven</mark>. Therein he saw the <mark>throne</mark> of God, <mark>in</mark> all its majesty and glory …",
      "weight": 0.59,
      "group": "apl"
    },
    {
      "index": 24,
      "lang": "en",
      "para_id": "1689.679",
      "pub_code": "ARSH",
      "pub_name": "Advent Review, and Sabbath Herald, vol. 14",
      "refcode_long": "Advent Review, and Sabbath Herald, vol. 14 June 9,  1859, page 19 paragraph 4",
      "refcode_short": "ARSH June 9,  1859, page 19.4",
      "pub_year": "1859",
      "snippet": "… the <mark>throne</mark> of God <mark>in heaven</mark>. Here then is direct evidence that the saints will go to <mark>heaven</mark>, for they are to sing the song of their deliverance on the sea of glass …",
      "weight": 0.59,
      "group": "apl"
    }
  ]
}
