{
  "next": "https://a.egwwritings.org/search?lang=en&period=all&facets=False&query=144000%20sealed&offset=20&limit=20&order=rel&snippet=long&query_type=prefer_exact",
  "previous": null,
  "total": 253,
  "count": 253,
  "results": [
    {
      "index": 0,
      "lang": "en",
      "para_id": "650.397",
      "pub_code": "EGWMR",
      "pub_name": "Ellen G. White — Messenger to the Remnant",
      "refcode_long": "Ellen G. White — Messenger to the Remnant, p. 28.13 (Arthur Lacey White)",
      "refcode_short": "EGWMR 28.13",
      "pub_year": "1969",
      "snippet": "… : The “<mark>144,000” “sealed</mark>;” “wicked were enraged;” “small black cloud” “appeared.” Jesus appears with “ten thousand angels;” resurrection of the righteous dead; living saints …",
      "weight": 1,
      "group": "reference"
    },
    {
      "index": 1,
      "lang": "en",
      "para_id": "1582.3511",
      "pub_code": "PFF3",
      "pub_name": "The Prophetic Faith of Our Fathers, vol. 3",
      "refcode_long": "The Prophetic Faith of Our Fathers, vol. 3, p. 508.2 (LeRoy Edwin Froom)",
      "refcode_short": "PFF3 508.2",
      "pub_year": "1946",
      "snippet": "“At the conclusion of the forty two months, when the judgment on this apostasy begins, a true visible church is brought forth, consisting of the <mark>144,000 sealed</mark> ones, vii.4, who stand on mount Zion, and follow the Lamb whithersoever he goeth.” Ibid.",
      "weight": 1,
      "group": "apl"
    },
    {
      "index": 2,
      "lang": "en",
      "para_id": "12667.260",
      "pub_code": "1EGWLM",
      "pub_name": "The Ellen G. White Letters and Manuscripts: Volume 1",
      "refcode_long": "The Ellen G. White Letters and Manuscripts: Volume 1, p. 46.1 (Ellen Gould White)",
      "refcode_short": "1EGWLM 46.1",
      "pub_year": "2014",
      "snippet": "… the <mark>144,000</mark> now to be <mark>sealed</mark>. Joseph Bates, A <mark>Seal</mark> of the Living God, pp. 39, 65.",
      "weight": 0.95,
      "group": "egwwritings"
    },
    {
      "index": 3,
      "lang": "en",
      "para_id": "13959.954",
      "pub_code": "UEGW",
      "pub_name": "Understanding Ellen White",
      "refcode_long": "Understanding Ellen White, p. 172.4 (Dr. Merlin Burt)",
      "refcode_short": "UEGW 172.4",
      "pub_year": "2015",
      "snippet": "… the <mark>sealing</mark> of the <mark>144,000</mark> in Revelation 7, Bates described two classes of people who comprised the “living saints.” They were those who already knew and kept …",
      "weight": 0.93,
      "group": "reference"
    },
    {
      "index": 4,
      "lang": "en",
      "para_id": "14341.62873",
      "pub_code": "NET",
      "pub_name": "New English Translation",
      "refcode_long": "New English Translation — Revelation 7:4",
      "refcode_short": "NET — Revelation 7:4",
      "pub_year": "",
      "snippet": "",
      "weight": 0.93,
      "group": "bible",
      "action_required": "authenticated"
    },
    {
      "index": 5,
      "lang": "en",
      "para_id": "12668.6313",
      "pub_code": "SDAEnc",
      "pub_name": "SDA Encyclopedia",
      "refcode_long": "SDA Encyclopedia, p. .0 (General Conference of SDA)",
      "refcode_short": "SDAEnc .0",
      "pub_year": "1966",
      "snippet": "",
      "weight": 0.92,
      "group": "bible",
      "action_required": "purchased"
    },
    {
      "index": 6,
      "lang": "en",
      "para_id": "12362.10182",
      "pub_code": "EGWEnc",
      "pub_name": "The Ellen G. White Encyclopedia",
      "refcode_long": "The Ellen G. White Encyclopedia, p. 1139.5 (Denis Fortin, Jerry Moon)",
      "refcode_short": "EGWEnc 1139.5",
      "pub_year": "2013",
      "snippet": "",
      "weight": 0.91,
      "group": "reference",
      "action_required": "purchased"
    },
    {
      "index": 7,
      "lang": "en",
      "para_id": "756.1404",
      "pub_code": "EGWC",
      "pub_name": "Ellen G. White and Her Critics",
      "refcode_long": "Ellen G. White and Her Critics, p. 190.3 (Francis D. Nichol)",
      "refcode_short": "EGWC 190.3",
      "pub_year": "1994",
      "snippet": "… of <mark>144,000 “sealed</mark>” in evident readiness for Christ’s Second Advent. As we have noted, the number of Advent believers at the height of William Miller’s preaching …",
      "weight": 0.83,
      "group": "reference"
    },
    {
      "index": 8,
      "lang": "en",
      "para_id": "957.248",
      "pub_code": "SLG",
      "pub_name": "A Seal of the Living God",
      "refcode_long": "A Seal of the Living God, p. 38.3 (Joseph Bates)",
      "refcode_short": "SLG 38.3",
      "pub_year": "1849",
      "snippet": "… <mark> sealed</mark> saints to stand on the Mount Zion in their immortal state, as is shown in 14:1. It is the same <mark>144,000</mark> they have advanced beyond the <mark>sealing</mark> here, because …",
      "weight": 0.77,
      "group": "apl"
    },
    {
      "index": 9,
      "lang": "en",
      "para_id": "1675.5078",
      "pub_code": "ARSH",
      "pub_name": "Advent Review, and Sabbath Herald, vol. 8",
      "refcode_long": "Advent Review, and Sabbath Herald, vol. 8 August 28,  1856, page 130 paragraph 7",
      "refcode_short": "ARSH August 28,  1856, page 130.7",
      "pub_year": "1856",
      "snippet": "… , the <mark>144000 sealed</mark> with the <mark>seal</mark> of the living God, the Third Angel’s Message closed, probation ended, his Priestly and Mediatorial office forever closed …",
      "weight": 0.69,
      "group": "apl"
    },
    {
      "index": 10,
      "lang": "en",
      "para_id": "14721.5567",
      "pub_code": "ABC-NT",
      "pub_name": "Andrews Bible Commentary - New Testament",
      "refcode_long": "Andrews Bible Commentary - New Testament, p. 1958.6",
      "refcode_short": "ABC-NT 1958.6",
      "pub_year": "",
      "snippet": "",
      "weight": 0.25,
      "group": "bible",
      "action_required": "purchased"
    },
    {
      "index": 11,
      "lang": "en",
      "para_id": "1675.2875",
      "pub_code": "ARSH",
      "pub_name": "Advent Review, and Sabbath Herald, vol. 8",
      "refcode_long": "Advent Review, and Sabbath Herald, vol. 8 July 3,  1856, page 77 paragraph 8",
      "refcode_short": "ARSH July 3,  1856, page 77.8",
      "pub_year": "1856",
      "snippet": "… <mark>144,000</mark> to be <mark>sealed</mark>. To sustain such a view it should read like this: “And I heard the number of them which were <mark>sealed</mark>, and there were <mark>sealed</mark>” - not <mark>144,000</mark> merely …",
      "weight": 0.25,
      "group": "apl"
    },
    {
      "index": 12,
      "lang": "en",
      "para_id": "1282.20",
      "pub_code": "S144",
      "pub_name": "A Study of the 144,000",
      "refcode_long": "A Study of the 144,000, p. 6.1 (Uriah Smith)",
      "refcode_short": "S144 6.1",
      "pub_year": "0",
      "snippet": "… fitting <mark>144,000</mark> for the coming of the Lord. This is called, in Revelation 7, <mark>sealing</mark> them with the <mark>seal</mark> of the living God in their foreheads. The <mark>seal</mark> of God being …",
      "weight": 0.25,
      "group": "apl"
    },
    {
      "index": 13,
      "lang": "en",
      "para_id": "957.230",
      "pub_code": "SLG",
      "pub_name": "A Seal of the Living God",
      "refcode_long": "A Seal of the Living God, p. 36.1 (Joseph Bates)",
      "refcode_short": "SLG 36.1",
      "pub_year": "1849",
      "snippet": "… of <mark>144,000</mark> in his vision, and they were first to be <mark>sealed</mark> immediately preceding the letting go the four winds, or in plain language, on the four principal powers …",
      "weight": 0.23,
      "group": "apl"
    },
    {
      "index": 14,
      "lang": "en",
      "para_id": "12517.19197",
      "pub_code": "7SDABC",
      "pub_name": "SDA Bible Commentary, vol. 7",
      "refcode_long": "SDA Bible Commentary, vol. 7, p. 825.5 (Francis Nichol-GCSDA)",
      "refcode_short": "7SDABC 825.5",
      "pub_year": "1957",
      "snippet": "",
      "weight": 0.21,
      "group": "bible",
      "action_required": "purchased"
    },
    {
      "index": 15,
      "lang": "en",
      "para_id": "14702.48651",
      "pub_code": "ISBE",
      "pub_name": "International Standard Bible Encyclopedia",
      "refcode_long": "International Standard Bible Encyclopedia, p. Revelation of John.104",
      "refcode_short": "ISBE Revelation of John.104",
      "pub_year": "",
      "snippet": "… . the <mark>144,000 sealed</mark> on earth--a spiritual Israel--in Revelation 7:1 - 8, and the triumphant multitude in heaven, Revelation 7:9 - 17 ); successions of events may be foreshortened …",
      "weight": 0.21,
      "group": "bible"
    },
    {
      "index": 16,
      "lang": "en",
      "para_id": "12668.22649",
      "pub_code": "SDAEnc",
      "pub_name": "SDA Encyclopedia",
      "refcode_long": "SDA Encyclopedia, p. .0 (General Conference of SDA)",
      "refcode_short": "SDAEnc .0",
      "pub_year": "1966",
      "snippet": "",
      "weight": 0.21,
      "group": "bible",
      "action_required": "purchased"
    },
    {
      "index": 17,
      "lang": "en",
      "para_id": "1690.3249",
      "pub_code": "ARSH",
      "pub_name": "Advent Review, and Sabbath Herald, vol. 13",
      "refcode_long": "Advent Review, and Sabbath Herald, vol. 13 February 10,  1859, page 91 paragraph 10",
      "refcode_short": "ARSH February 10,  1859, page 91.10",
      "pub_year": "1858",
      "snippet": "… are <mark>sealed</mark> in their foreheads for the marriage supper of the Lamb. “Arise up and stand, behold the number of those that be <mark>sealed</mark> for the feast of the Lord .” Apoc …",
      "weight": 0.21,
      "group": "apl"
    },
    {
      "index": 18,
      "lang": "en",
      "para_id": "1321.698",
      "pub_code": "MWV2",
      "pub_name": "Miller’s Works, vol. 2. Evidence from Scripture and History of the Second Coming of Christ about the Year",
      "refcode_long": "Miller’s Works, vol. 2. Evidence from Scripture and History of the Second Coming of Christ about the Year, p. 187.1 (William Miller)",
      "refcode_short": "MWV2 187.1",
      "pub_year": "1843",
      "snippet": "… this <mark>sealing</mark>, by which <mark>144,000</mark> had been <mark>sealed</mark> among the Jews, he beheld, “and lo, a great multitude, which no man could number, of all nations, and kindred, and people …",
      "weight": 0.21,
      "group": "apl"
    },
    {
      "index": 19,
      "lang": "en",
      "para_id": "1282.22",
      "pub_code": "S144",
      "pub_name": "A Study of the 144,000",
      "refcode_long": "A Study of the 144,000, p. 7.1 (Uriah Smith)",
      "refcode_short": "S144 7.1",
      "pub_year": "0",
      "snippet": "… <mark>sealed</mark>; and the ones referred to are dead; and how can dead men be <mark>sealed</mark>? Let such ask themselves the question, How can dead men be saved? They can be <mark>sealed</mark> in …",
      "weight": 0.2,
      "group": "apl"
    }
  ]
}
