{
  "next": "https://a.egwwritings.org/search?lang=en&period=all&facets=False&query=Lisbon%20earthquake%201755&offset=15&limit=15&order=rel&snippet=long&query_type=prefer_exact",
  "previous": null,
  "total": 77,
  "count": 77,
  "results": [
    {
      "index": 0,
      "lang": "en",
      "para_id": "1579.4323",
      "pub_code": "PFF2",
      "pub_name": "The Prophetic Faith of Our Fathers, vol. 2",
      "refcode_long": "The Prophetic Faith of Our Fathers, vol. 2, p. 674 (LeRoy Edwin Froom)",
      "refcode_short": "PFF2 674",
      "pub_year": "1948",
      "snippet": "Picture 1: <mark>LISBON EARTHQUAKE (1755</mark>) RECOGNIZED AS HARBINGER On Both Sides of the Atlantic, the <mark>Lisbon</mark>, Portugal, <mark>Earthquake</mark> of February 6, <mark>1755</mark>, Was Declared a Herald of the Approaching End of All Things Page 674",
      "weight": 1,
      "group": "apl"
    },
    {
      "index": 1,
      "lang": "en",
      "para_id": "1583.6632",
      "pub_code": "PFF4",
      "pub_name": "The Prophetic Faith of Our Fathers, vol. 4",
      "refcode_long": "The Prophetic Faith of Our Fathers, vol. 4, p. 1144.4 (LeRoy Edwin Froom)",
      "refcode_short": "PFF4 1144.4",
      "pub_year": "1954",
      "snippet": "… , the <mark>Lisbon earthquake (1755</mark>), the Dark Day (1780), and the falling stars (1833) are mentioned as taking place under the sixth seal in the latter days preceding the …",
      "weight": 0.95,
      "group": "apl"
    },
    {
      "index": 2,
      "lang": "en",
      "para_id": "1579.19",
      "pub_code": "PFF2",
      "pub_name": "The Prophetic Faith of Our Fathers, vol. 2",
      "refcode_long": "The Prophetic Faith of Our Fathers, vol. 2, p. 8 (LeRoy Edwin Froom)",
      "refcode_short": "PFF2 8",
      "pub_year": "1948",
      "snippet": "… 664 <mark>LISBON EARTHQUAKE (1755</mark>) RECOGNIZED AS HARBINGER 674 WESLEY AMONG THE PROPHETIC EXPOUNDERS OF His DAY 690 PETRI AND WOOD BEGIN 2300 YEARS WITH 70 WEEKS …",
      "weight": 0.76,
      "group": "apl"
    },
    {
      "index": 3,
      "lang": "en",
      "para_id": "12269.2373",
      "pub_code": "LF",
      "pub_name": "Love Under Fire",
      "refcode_long": "Love Under Fire, p. 279.3 (Ellen Gould White)",
      "refcode_short": "LF 279.3",
      "pub_year": "2011",
      "snippet": "… of <mark>earthquakes</mark> was not yet in existence in <mark>1755</mark>.) Still, the <mark>Lisbon earthquake</mark> ranks as one of the most important in modern history, not merely for its physical …",
      "weight": 0.7,
      "group": "egwwritings"
    },
    {
      "index": 4,
      "lang": "en",
      "para_id": "14753.2534",
      "pub_code": "5TC",
      "pub_name": "The Victory",
      "refcode_long": "The Victory, p. 398.2 (Ellen Gould White)",
      "refcode_short": "5TC 398.2",
      "pub_year": "2024",
      "snippet": "… of <mark>earthquakes</mark> was not yet in existence in <mark>1755</mark>.) Still, the <mark>Lisbon earthquake</mark> ranks as one of the most important in modern history, not merely for its physical …",
      "weight": 0.7,
      "group": "egwwritings"
    },
    {
      "index": 5,
      "lang": "en",
      "para_id": "12666.9831",
      "pub_code": "HSDAT",
      "pub_name": "Handbook of SDA Theology",
      "refcode_long": "Handbook of SDA Theology, p. 906.1 (Raoul Dederen-GCSDA)",
      "refcode_short": "HSDAT 906.1",
      "pub_year": "2000",
      "snippet": "",
      "weight": 0.7,
      "group": "bible",
      "action_required": "purchased"
    },
    {
      "index": 6,
      "lang": "en",
      "para_id": "933.1283",
      "pub_code": "SBBS",
      "pub_name": "Source Book for Bible Students",
      "refcode_long": "Source Book for Bible Students, p. 145.7 (General Conference of SDA)",
      "refcode_short": "SBBS 145.7",
      "pub_year": "1919",
      "snippet": "-“ Poem on the <mark>Lisbon Earthquake</mark> ,” John Biddolf. London, <mark>1755</mark>.",
      "weight": 0.58,
      "group": "apl"
    },
    {
      "index": 7,
      "lang": "en",
      "para_id": "14375.23",
      "pub_code": "JTL6",
      "pub_name": "My Journey to Life, Step 6—The Second Coming of Jesus Christ",
      "refcode_long": "My Journey to Life, Step 6—The Second Coming of Jesus Christ, p. 2.8 (Ellen G. White Estate)",
      "refcode_short": "JTL6 2.8",
      "pub_year": "",
      "snippet": "• A great <mark>earthquake</mark> –The <mark>Lisbon earthquake</mark> of <mark>1755</mark> covered an area of about four million square miles and inspired a surge in the study of end-time prophecy. ( Revelation 6:12 )",
      "weight": 0.57,
      "group": "reference"
    },
    {
      "index": 8,
      "lang": "en",
      "para_id": "1582.1796",
      "pub_code": "PFF3",
      "pub_name": "The Prophetic Faith of Our Fathers, vol. 3",
      "refcode_long": "The Prophetic Faith of Our Fathers, vol. 3, p. 258.8 (LeRoy Edwin Froom)",
      "refcode_short": "PFF3 258.8",
      "pub_year": "1946",
      "snippet": "13. The <mark>Lisbon earthquake</mark> of <mark>1755</mark> was similarly recognized in the New World as well as the Old as one of the series of prophesied signs of the approaching end, with others awaited.",
      "weight": 0.56,
      "group": "apl"
    },
    {
      "index": 9,
      "lang": "en",
      "para_id": "12517.17994",
      "pub_code": "7SDABC",
      "pub_name": "SDA Bible Commentary, vol. 7",
      "refcode_long": "SDA Bible Commentary, vol. 7, p. 779.6 (Francis Nichol-GCSDA)",
      "refcode_short": "7SDABC 779.6",
      "pub_year": "1957",
      "snippet": "",
      "weight": 0.55,
      "group": "bible",
      "action_required": "purchased"
    },
    {
      "index": 10,
      "lang": "en",
      "para_id": "1583.262",
      "pub_code": "PFF4",
      "pub_name": "The Prophetic Faith of Our Fathers, vol. 4",
      "refcode_long": "The Prophetic Faith of Our Fathers, vol. 4, p. 53.2 (LeRoy Edwin Froom)",
      "refcode_short": "PFF4 53.2",
      "pub_year": "1954",
      "snippet": "But apart from these larger prophetic themes on the approaching end and second advent were the specific warning signs of the times. The catastrophic <mark>Lisbon earthquake</mark> of November 1, <mark>1755</mark>, is listed as the basis for these lines:",
      "weight": 0.54,
      "group": "apl"
    },
    {
      "index": 11,
      "lang": "en",
      "para_id": "933.1277",
      "pub_code": "SBBS",
      "pub_name": "Source Book for Bible Students",
      "refcode_long": "Source Book for Bible Students, p. 145.1 (General Conference of SDA)",
      "refcode_short": "SBBS 145.1",
      "pub_year": "1919",
      "snippet": "<mark>Earthquakes</mark>, The <mark>Lisbon Earthquake</mark>, of <mark>1755</mark>.—Among the earth movements which in historic times have affected the kingdom of Portugal, that of Nov. 1, <mark>1755</mark>, takes …",
      "weight": 0.53,
      "group": "apl"
    },
    {
      "index": 12,
      "lang": "en",
      "para_id": "12517.865",
      "pub_code": "7SDABC",
      "pub_name": "SDA Bible Commentary, vol. 7",
      "refcode_long": "SDA Bible Commentary, vol. 7, p. 110.5 (Francis Nichol-GCSDA)",
      "refcode_short": "7SDABC 110.5",
      "pub_year": "1957",
      "snippet": "",
      "weight": 0.52,
      "group": "bible",
      "action_required": "purchased"
    },
    {
      "index": 13,
      "lang": "en",
      "para_id": "1667.2574",
      "pub_code": "GCB",
      "pub_name": "General Conference Bulletin, vol. 7",
      "refcode_long": "General Conference Bulletin, vol. 7 May 22,  1913, page 99 paragraph 12",
      "refcode_short": "GCB May 22,  1913, page 99.12",
      "pub_year": "1913",
      "snippet": "… great <mark>Lisbon earthquake</mark> took place, in <mark>1755</mark>. Portugal has a population of about six millions, counting three large groups of islands. We have four workers …",
      "weight": 0.52,
      "group": "apl"
    },
    {
      "index": 14,
      "lang": "en",
      "para_id": "12269.1061",
      "pub_code": "LF",
      "pub_name": "Love Under Fire",
      "refcode_long": "Love Under Fire, p. 128.6 (Ellen Gould White)",
      "refcode_short": "LF 128.6",
      "pub_year": "2011",
      "snippet": "… in <mark>1755</mark> in the most terrible <mark>earthquake</mark> ever recorded. (See Appendix.) Known as the <mark>Lisbon earthquake</mark>, it reached to Europe, Africa, and America. People felt it …",
      "weight": 0.51,
      "group": "egwwritings"
    }
  ]
}
