{
  "next": "https://a.egwwritings.org/search?lang=en&period=all&facets=False&query=Litch%201840%20prophecy&offset=15&limit=15&order=rel&snippet=long&query_type=prefer_exact",
  "previous": null,
  "total": 54,
  "count": 54,
  "results": [
    {
      "index": 0,
      "lang": "en",
      "para_id": "12269.1173",
      "pub_code": "LF",
      "pub_name": "Love Under Fire",
      "refcode_long": "Love Under Fire, p. 141.3 (Ellen Gould White)",
      "refcode_short": "LF 141.3",
      "pub_year": "2011",
      "snippet": "In <mark>1840</mark>, another remarkable fulfillment of <mark>prophecy</mark> drew widespread interest. Two years before, Josiah <mark>Litch</mark> published an explanation of Revelation 9 …",
      "weight": 1,
      "group": "egwwritings"
    },
    {
      "index": 1,
      "lang": "en",
      "para_id": "14753.1244",
      "pub_code": "5TC",
      "pub_name": "The Victory",
      "refcode_long": "The Victory, p. 197.4 (Ellen Gould White)",
      "refcode_short": "5TC 197.4",
      "pub_year": "2024",
      "snippet": "In <mark>1840</mark>, another remarkable fulfillment of <mark>prophecy</mark> drew widespread interest. Two years before, Josiah <mark>Litch</mark> published an explanation of Revelation 9 …",
      "weight": 1,
      "group": "egwwritings"
    },
    {
      "index": 2,
      "lang": "en",
      "para_id": "2774.1308",
      "pub_code": "HF",
      "pub_name": "From Here to Forever",
      "refcode_long": "From Here to Forever, p. 209.3 (Ellen Gould White)",
      "refcode_short": "HF 209.3",
      "pub_year": "1982",
      "snippet": "In <mark>1840</mark> another remarkable fulfillment of <mark>prophecy</mark> excited widespread interest. Two years before, Josiah <mark>Litch</mark> published an exposition of Revelation …",
      "weight": 0.98,
      "group": "egwwritings"
    },
    {
      "index": 3,
      "lang": "en",
      "para_id": "132.1525",
      "pub_code": "GC",
      "pub_name": "The Great Controversy",
      "refcode_long": "The Great Controversy, p. 334.4 (Ellen Gould White)",
      "refcode_short": "GC 334.4",
      "pub_year": "1911",
      "snippet": "… year <mark>1840</mark> another remarkable fulfillment of <mark>prophecy</mark> excited widespread interest. Two years before, Josiah <mark>Litch</mark>, one of the leading ministers preaching …",
      "weight": 0.96,
      "group": "egwwritings"
    },
    {
      "index": 4,
      "lang": "en",
      "para_id": "74.1088",
      "pub_code": "Mar",
      "pub_name": "Maranatha",
      "refcode_long": "Maranatha, p. 152.4 (Ellen Gould White)",
      "refcode_short": "Mar 152.4",
      "pub_year": "1976",
      "snippet": "… year <mark>1840</mark>, another remarkable fulfilment of <mark>prophecy</mark> excited widespread interest. Two years before, Josiah <mark>Litch</mark>, one of the leading ministers preaching …",
      "weight": 0.96,
      "group": "egwwritings"
    },
    {
      "index": 5,
      "lang": "en",
      "para_id": "132.3161",
      "pub_code": "GC",
      "pub_name": "The Great Controversy",
      "refcode_long": "The Great Controversy, p. 690.4 (Ellen Gould White)",
      "refcode_short": "GC 690.4",
      "pub_year": "1911",
      "snippet": "… , Josiah <mark>Litch</mark> worked out an application of the time <mark>prophecy</mark>, terminating Turkish independence in August, <mark>1840. Litch’s</mark> view can be found in full in his The …",
      "weight": 0.91,
      "group": "egwwritings"
    },
    {
      "index": 6,
      "lang": "en",
      "para_id": "1316.646",
      "pub_code": "LDT",
      "pub_name": "Last Day Tokens",
      "refcode_long": "Last Day Tokens, p. 151.2 (John Norton Loughborough)",
      "refcode_short": "LDT 151.2",
      "pub_year": "1904",
      "snippet": "… the <mark>prophecy</mark> at that exact date demonstrated to the satisfaction of thousands that a day in symbolic <mark>prophecy</mark> was a symbol of a year. Brother <mark>Litch</mark> said that …",
      "weight": 0.91,
      "group": "apl"
    },
    {
      "index": 7,
      "lang": "en",
      "para_id": "1237.295",
      "pub_code": "SSP",
      "pub_name": "The Story of the Seer of Patmos",
      "refcode_long": "The Story of the Seer of Patmos, p. 78.2 (Stephen Nelson Haskell)",
      "refcode_short": "SSP 78.2",
      "pub_year": "1905",
      "snippet": "… in <mark>1840</mark>. The exact fulfillment of this <mark>prophecy</mark> on August 11, <mark>1840</mark>, when the Turkish government surrendered its independence, and has since been known as “the …",
      "weight": 0.85,
      "group": "apl"
    },
    {
      "index": 8,
      "lang": "en",
      "para_id": "2774.2626",
      "pub_code": "HF",
      "pub_name": "From Here to Forever",
      "refcode_long": "From Here to Forever, p. 419.4 (Ellen Gould White)",
      "refcode_short": "HF 419.4",
      "pub_year": "1982",
      "snippet": "For the “hour, day, month, year” <mark>prophecy</mark>, as part of the sixth trumpet, Josiah <mark>Litch</mark> worked out an application of the time <mark>prophecy</mark>, ending Turkish independence in August <mark>1840</mark>.",
      "weight": 0.84,
      "group": "egwwritings"
    },
    {
      "index": 9,
      "lang": "en",
      "para_id": "12269.2379",
      "pub_code": "LF",
      "pub_name": "Love Under Fire",
      "refcode_long": "Love Under Fire, p. 280.1 (Ellen Gould White)",
      "refcode_short": "LF 280.1",
      "pub_year": "2011",
      "snippet": "For the “hour, day, month, year” <mark>prophecy</mark>, as part of the sixth trumpet, Josiah <mark>Litch</mark> worked out an application of the time <mark>prophecy</mark>, ending Turkish independence in August <mark>1840</mark>.",
      "weight": 0.84,
      "group": "egwwritings"
    },
    {
      "index": 10,
      "lang": "en",
      "para_id": "14753.2540",
      "pub_code": "5TC",
      "pub_name": "The Victory",
      "refcode_long": "The Victory, p. 399.3 (Ellen Gould White)",
      "refcode_short": "5TC 399.3",
      "pub_year": "2024",
      "snippet": "For the “hour, day, month, year” <mark>prophecy</mark>, as part of the sixth trumpet, Josiah <mark>Litch</mark> worked out an application of the time <mark>prophecy</mark>, ending Turkish independence in August <mark>1840</mark>.",
      "weight": 0.84,
      "group": "egwwritings"
    },
    {
      "index": 11,
      "lang": "en",
      "para_id": "1140.806",
      "pub_code": "GSAM",
      "pub_name": "The Great Second Advent Movement: Its Rise and Progress",
      "refcode_long": "The Great Second Advent Movement: Its Rise and Progress, p. 132.2 (John Norton Loughborough)",
      "refcode_short": "GSAM 132.2",
      "pub_year": "1905",
      "snippet": "… fulfilling <mark>prophecy</mark>. Dr. <mark>Litch</mark> said that within a few months after August 11, <mark>1840</mark>, he had received letters from more than one thousand prominent infidels …",
      "weight": 0.81,
      "group": "apl"
    },
    {
      "index": 12,
      "lang": "en",
      "para_id": "949.154",
      "pub_code": "FSDA",
      "pub_name": "Foundations of the Seventh-day Adventist Message and Mission",
      "refcode_long": "Foundations of the Seventh-day Adventist Message and Mission, p. 27.1 (Pieter Gerard Damsteegt)",
      "refcode_short": "FSDA 27.1",
      "pub_year": "1977",
      "snippet": "… . 182). <mark>Litch</mark>, “Nations,” p. 162. Cf. E. G. White, The Great Controversy, 335. She called <mark>Litch’s</mark> prediction a “remarkable fulfillment of <mark>prophecy</mark>” ( ibid ., p. 334).",
      "weight": 0.81,
      "group": "apl"
    },
    {
      "index": 13,
      "lang": "en",
      "para_id": "12362.3618",
      "pub_code": "EGWEnc",
      "pub_name": "The Ellen G. White Encyclopedia",
      "refcode_long": "The Ellen G. White Encyclopedia, p. 454.2 (Denis Fortin, Jerry Moon)",
      "refcode_short": "EGWEnc 454.2",
      "pub_year": "2013",
      "snippet": "",
      "weight": 0.8,
      "group": "reference",
      "action_required": "purchased"
    },
    {
      "index": 14,
      "lang": "en",
      "para_id": "688.397",
      "pub_code": "WWPGC",
      "pub_name": "W. W. Prescott and the 1911 Edition of The Great Controversy",
      "refcode_long": "W. W. Prescott and the 1911 Edition of The Great Controversy, p. 28.3 (Arthur Lacey White)",
      "refcode_short": "WWPGC 28.3",
      "pub_year": "1981",
      "snippet": "… the <mark>prophecy</mark> of Revelation 9, specified “not only the year but the very day on which” the Ottoman empire would fall. It appears from one of <mark>Litch’s</mark> pamphlets …",
      "weight": 0.79,
      "group": "reference"
    }
  ]
}
