{
  "next": "https://a.egwwritings.org/search?lang=en&period=all&facets=False&query=two%20witnesses%20sackcloth&offset=20&limit=20&order=rel&snippet=long&query_type=prefer_exact",
  "previous": null,
  "total": 169,
  "count": 169,
  "results": [
    {
      "index": 0,
      "lang": "en",
      "para_id": "14721.5644",
      "pub_code": "ABC-NT",
      "pub_name": "Andrews Bible Commentary - New Testament",
      "refcode_long": "Andrews Bible Commentary - New Testament, p. 1965.29",
      "refcode_short": "ABC-NT 1965.29",
      "pub_year": "",
      "snippet": "",
      "weight": 1,
      "group": "bible",
      "action_required": "purchased"
    },
    {
      "index": 1,
      "lang": "en",
      "para_id": "1684.1813",
      "pub_code": "ARSH",
      "pub_name": "Advent Review, and Sabbath Herald, vol. 19",
      "refcode_long": "Advent Review, and Sabbath Herald, vol. 19 January 14,  1862, page 53 paragraph 8",
      "refcode_short": "ARSH January 14,  1862, page 53.8",
      "pub_year": "1861",
      "snippet": "… <mark>two witnesses</mark>, and they shall prophesy a thousand <mark>two</mark> hundred and three-score days, clothed in <mark>sackcloth</mark>.” The forty and <mark>two</mark> months, and thousand <mark>two</mark> hundred …",
      "weight": 0.94,
      "group": "apl"
    },
    {
      "index": 2,
      "lang": "en",
      "para_id": "1582.1444",
      "pub_code": "PFF3",
      "pub_name": "The Prophetic Faith of Our Fathers, vol. 3",
      "refcode_long": "The Prophetic Faith of Our Fathers, vol. 3, p. 214.1 (LeRoy Edwin Froom)",
      "refcode_short": "PFF3 214.1",
      "pub_year": "1946",
      "snippet": "… the <mark>Two Witnesses</mark> of Revelation 11 prophesy in <mark>sackcloth</mark>, when the holy city is trodden underfoot the forty-<mark>two</mark> months, at the close of which the beast from …",
      "weight": 0.91,
      "group": "apl"
    },
    {
      "index": 3,
      "lang": "en",
      "para_id": "1653.1169",
      "pub_code": "HST",
      "pub_name": "Signs of the Times [Himes], vol. 1",
      "refcode_long": "Signs of the Times [Himes], vol. 1 June 1,  1840, page 40 paragraph 27",
      "refcode_short": "HST June 1,  1840, page 40.27",
      "pub_year": "1840",
      "snippet": "… —The <mark>two witnesses</mark> prophesy in <mark>sackcloth</mark>, 84.",
      "weight": 0.89,
      "group": "apl"
    },
    {
      "index": 4,
      "lang": "en",
      "para_id": "1657.966",
      "pub_code": "HST",
      "pub_name": "Signs of the Times and Expositor of Prophecy [Himes], vol. 3",
      "refcode_long": "Signs of the Times and Expositor of Prophecy [Himes], vol. 3 May 4,  1842, page 39 paragraph 17",
      "refcode_short": "HST May 4,  1842, page 39.17",
      "pub_year": "1842",
      "snippet": "… ; The <mark>Two Witnesses</mark> Prophecy in <mark>Sackcloth</mark>, pp. 132. Price —25 cts.",
      "weight": 0.89,
      "group": "apl"
    },
    {
      "index": 5,
      "lang": "en",
      "para_id": "1657.1748",
      "pub_code": "HST",
      "pub_name": "Signs of the Times and Expositor of Prophecy [Himes], vol. 3",
      "refcode_long": "Signs of the Times and Expositor of Prophecy [Himes], vol. 3 May 25,  1842, page 63 paragraph 17",
      "refcode_short": "HST May 25,  1842, page 63.17",
      "pub_year": "1842",
      "snippet": "… ; The <mark>Two Witnesses</mark> Prophecy in <mark>Sackcloth</mark>, pp. 132. Price —25 cts.",
      "weight": 0.89,
      "group": "apl"
    },
    {
      "index": 6,
      "lang": "en",
      "para_id": "956.2128",
      "pub_code": "PFF1",
      "pub_name": "The Prophetic Faith of Our Fathers, vol. 1",
      "refcode_long": "The Prophetic Faith of Our Fathers, vol. 1, p. 341.4 (LeRoy Edwin Froom)",
      "refcode_short": "PFF1 341.4",
      "pub_year": "1950",
      "snippet": "… the <mark>two witnesses</mark> in <mark>sackcloth</mark>, in chapter 11, Victorinus makes literal time, for the year-day principle of symbolic time had not yet been perceived. So, he contends …",
      "weight": 0.89,
      "group": "apl"
    },
    {
      "index": 7,
      "lang": "en",
      "para_id": "1583.1115",
      "pub_code": "PFF4",
      "pub_name": "The Prophetic Faith of Our Fathers, vol. 4",
      "refcode_long": "The Prophetic Faith of Our Fathers, vol. 4, p. 196.3 (LeRoy Edwin Froom)",
      "refcode_short": "PFF4 196.3",
      "pub_year": "1954",
      "snippet": "… ”—the <mark>Two Witnesses</mark> against the apostate church-clothed in <mark>sackcloth</mark>. Then the <mark>Two Witnesses</mark> were killed, and were raised after 31/L days, or years, in the French …",
      "weight": 0.87,
      "group": "apl"
    },
    {
      "index": 8,
      "lang": "en",
      "para_id": "1194.648",
      "pub_code": "PSC",
      "pub_name": "The Probability of the Second Coming of Christ About A.D. 1843",
      "refcode_long": "The Probability of the Second Coming of Christ About A.D. 1843, p. 163.2 (Josiah Litch)",
      "refcode_short": "PSC 163.2",
      "pub_year": "1843",
      "snippet": "… the <mark>two witnesses</mark> were clothed in <mark>sackcloth</mark>. The judgments sent on the Roman earth during the reign of popery, are represented as being by the authority of …",
      "weight": 0.86,
      "group": "apl"
    },
    {
      "index": 9,
      "lang": "en",
      "para_id": "1673.4678",
      "pub_code": "GCB",
      "pub_name": "General Conference Bulletin, vol. 1",
      "refcode_long": "General Conference Bulletin, vol. 1 February 24,  1895, page 317 paragraph 18",
      "refcode_short": "GCB February 24,  1895, page 317.18",
      "pub_year": "1895",
      "snippet": "… .” The <mark>two witnesses</mark> were crucified there; our Lord also was crucified there. The time when these <mark>two witnesses</mark> were prophesying in <mark>sackcloth</mark> closed in 1798 …",
      "weight": 0.86,
      "group": "apl"
    },
    {
      "index": 10,
      "lang": "en",
      "para_id": "1194.638",
      "pub_code": "PSC",
      "pub_name": "The Probability of the Second Coming of Christ About A.D. 1843",
      "refcode_long": "The Probability of the Second Coming of Christ About A.D. 1843, p. 160.2 (Josiah Litch)",
      "refcode_short": "PSC 160.2",
      "pub_year": "1843",
      "snippet": "… <mark>two witnesses</mark>, and they shall prophecy a thousand <mark>two</mark> hundred and threescore days, clothed in <mark>sackcloth</mark>.” The <mark>witnesses</mark> were to prophecy in <mark>sackcloth</mark>, the …",
      "weight": 0.84,
      "group": "apl"
    },
    {
      "index": 11,
      "lang": "en",
      "para_id": "1319.181",
      "pub_code": "MRSH",
      "pub_name": "Miller’s Reply to Stuart’s “Hints on the Interpretation of Prophecy”",
      "refcode_long": "Miller’s Reply to Stuart’s “Hints on the Interpretation of Prophecy”, p. 55.1 (William Miller)",
      "refcode_short": "MRSH 55.1",
      "pub_year": "1842",
      "snippet": "… the <mark>two witnesses</mark> prophesying, clothed in <mark>sackcloth</mark>, is at the same time. He intimates that these <mark>two witnesses</mark> are <mark>two</mark> Christians, who could not obey their …",
      "weight": 0.84,
      "group": "apl"
    },
    {
      "index": 12,
      "lang": "en",
      "para_id": "1656.2340",
      "pub_code": "HST",
      "pub_name": "Signs of the Times and Expositor of Prophecy [Himes], vol. 4",
      "refcode_long": "Signs of the Times and Expositor of Prophecy [Himes], vol. 4 December 7,  1842, page 95 paragraph 1",
      "refcode_short": "HST December 7,  1842, page 95.1",
      "pub_year": "1842",
      "snippet": "… the <mark>two witnesses</mark> prophesying, clothed in <mark>sackcloth</mark>, is at the same time. He intimates that these <mark>two witnesses</mark> are <mark>two</mark> Christians, who could not obey their …",
      "weight": 0.84,
      "group": "apl"
    },
    {
      "index": 13,
      "lang": "en",
      "para_id": "1296.222",
      "pub_code": "ESH",
      "pub_name": "Evidences from Scripture and History of the Second Coming of Christ About the Year A. D. 1843, and of His Personal Reign of 1000 Years",
      "refcode_long": "Evidences from Scripture and History of the Second Coming of Christ About the Year A. D. 1843, and of His Personal Reign of 1000 Years, p. 45.1 (William Miller)",
      "refcode_short": "ESH 45.1",
      "pub_year": "1833",
      "snippet": "… the <mark>two witnesses</mark> prophecied clothed in <mark>sackcloth</mark>, that is 42 months or three years and a half; only one is common and the other is prophetic. The scriptures …",
      "weight": 0.82,
      "group": "apl"
    },
    {
      "index": 14,
      "lang": "en",
      "para_id": "956.3637",
      "pub_code": "PFF1",
      "pub_name": "The Prophetic Faith of Our Fathers, vol. 1",
      "refcode_long": "The Prophetic Faith of Our Fathers, vol. 1, p. 561.2 (LeRoy Edwin Froom)",
      "refcode_short": "PFF1 561.2",
      "pub_year": "1950",
      "snippet": "… the <mark>Two Witnesses</mark> of Revelation 2, Bruno has his own explanation. He says, of course, that literally they are to be taken as Enoch and Elias, but in a spiritual …",
      "weight": 0.8,
      "group": "apl"
    },
    {
      "index": 15,
      "lang": "en",
      "para_id": "1320.976",
      "pub_code": "MWV1",
      "pub_name": "Miller’s Works, vol. 1. Views of the Prophecies and Prophetic Chronology",
      "refcode_long": "Miller’s Works, vol. 1. Views of the Prophecies and Prophetic Chronology, p. 198.3 (William Miller)",
      "refcode_short": "MWV1 198.3",
      "pub_year": "1842",
      "snippet": "… <mark>two witnesses</mark>, and they shall prophesy a thousand <mark>two</mark> hundred and threescore days, clothed in <mark>sackcloth</mark>. These are the <mark>two</mark> olive-trees, and the <mark>two</mark> candlesticks …",
      "weight": 0.8,
      "group": "apl"
    },
    {
      "index": 16,
      "lang": "en",
      "para_id": "1295.180",
      "pub_code": "DTIS",
      "pub_name": "Dissertations on the True Inheritance of the Saints",
      "refcode_long": "Dissertations on the True Inheritance of the Saints, p. 49.2 (William Miller)",
      "refcode_short": "DTIS 49.2",
      "pub_year": "1842",
      "snippet": "… name, <mark>two</mark> testaments, signifies “<mark>two witnesses</mark>.” If, then, the Scriptures are the <mark>two witnesses</mark>, where and when were they clothed in <mark>sackcloth</mark>? I will answer. During …",
      "weight": 0.76,
      "group": "apl"
    },
    {
      "index": 17,
      "lang": "en",
      "para_id": "1321.732",
      "pub_code": "MWV2",
      "pub_name": "Miller’s Works, vol. 2. Evidence from Scripture and History of the Second Coming of Christ about the Year",
      "refcode_long": "Miller’s Works, vol. 2. Evidence from Scripture and History of the Second Coming of Christ about the Year, p. 195.2 (William Miller)",
      "refcode_short": "MWV2 195.2",
      "pub_year": "1843",
      "snippet": "… the <mark>witnesses</mark> prophesy clothed in <mark>sackcloth</mark>, 1260 days, forty-<mark>two</mark> months, thirty days to a month; that being common time, and this prophetic. The Scriptures …",
      "weight": 0.76,
      "group": "apl"
    },
    {
      "index": 18,
      "lang": "en",
      "para_id": "1658.2479",
      "pub_code": "HST",
      "pub_name": "Signs of the Times and Expositor of Prophecy [Himes], vol. 2",
      "refcode_long": "Signs of the Times and Expositor of Prophecy [Himes], vol. 2 September 1,  1841, page 81 paragraph 12",
      "refcode_short": "HST September 1,  1841, page 81.12",
      "pub_year": "1841",
      "snippet": "… my <mark>two witnesses</mark>, and they shall prophecy a thousand <mark>two</mark> hundred and three score days, clothed in <mark>sackcloth</mark>.” The <mark>two witnesses</mark> are the Scriptures, for Christ …",
      "weight": 0.75,
      "group": "apl"
    },
    {
      "index": 19,
      "lang": "en",
      "para_id": "1658.2482",
      "pub_code": "HST",
      "pub_name": "Signs of the Times and Expositor of Prophecy [Himes], vol. 2",
      "refcode_long": "Signs of the Times and Expositor of Prophecy [Himes], vol. 2 September 1,  1841, page 81 paragraph 15",
      "refcode_short": "HST September 1,  1841, page 81.15",
      "pub_year": "1841",
      "snippet": "… the <mark>two witnesses</mark> prophecied clothed in <mark>sackcloth</mark>, that is 42 months or three years and a half; only one is common and the other is prophetic. The Scriptures …",
      "weight": 0.74,
      "group": "apl"
    }
  ]
}
