{
  "next": "https://a.egwwritings.org/search?lang=en&period=all&facets=False&query=Great%20Disappointment%201844&offset=25&limit=25&order=rel&snippet=long&query_type=prefer_exact",
  "previous": null,
  "total": 317,
  "count": 317,
  "results": [
    {
      "index": 0,
      "lang": "en",
      "para_id": "947.489",
      "pub_code": "FOME",
      "pub_name": "Founders of the Message",
      "refcode_long": "Founders of the Message, p. 130.2 (Everett Newfon Dick)",
      "refcode_short": "FOME 130.2",
      "pub_year": "1938",
      "snippet": "… <mark>great disappointment</mark>, individuals had brought up the matter of observing the seventh day as the Sabbath. In September, <mark>1844</mark>, just previous to the <mark>great disappointment</mark> …",
      "weight": 1,
      "group": "apl"
    },
    {
      "index": 1,
      "lang": "en",
      "para_id": "14266.780",
      "pub_code": "GP",
      "pub_name": "The Gift of Prophecy (The Role of Ellen White in God’s Remnant Church)",
      "refcode_long": "The Gift of Prophecy (The Role of Ellen White in God’s Remnant Church), p. 117.1 (Gerhard Pfandl)",
      "refcode_short": "GP 117.1",
      "pub_year": "2008",
      "snippet": "… the <mark>Great Disappointment</mark> in <mark>1844</mark>, God selected another man as His spokesperson—a young Advent believer by the name of Hazen Foss, whose older brother had …",
      "weight": 0.91,
      "group": "reference"
    },
    {
      "index": 2,
      "lang": "en",
      "para_id": "1676.3772",
      "pub_code": "ARSH",
      "pub_name": "Advent Review, and Sabbath Herald, vol. 27",
      "refcode_long": "Advent Review, and Sabbath Herald, vol. 27 February 27,  1866, page 100 paragraph 13",
      "refcode_short": "ARSH February 27,  1866, page 100.13",
      "pub_year": "1866",
      "snippet": "… . The <mark>great disappointment</mark> of <mark>1844</mark>, was a year and a half subsequent to this. But that <mark>disappointment</mark> in no wise effects the case. The <mark>great</mark> truths there developed …",
      "weight": 0.91,
      "group": "apl"
    },
    {
      "index": 3,
      "lang": "en",
      "para_id": "711.7",
      "pub_code": "SDD",
      "pub_name": "The “Shut Door” Documents",
      "refcode_long": "The “Shut Door” Documents",
      "refcode_short": "SDD",
      "pub_year": "1982",
      "snippet": "After the <mark>Great Disappointment</mark> the Belief was Widespread That Probation had Closed on October 22, <mark>1844</mark>.",
      "weight": 0.89,
      "group": "reference"
    },
    {
      "index": 4,
      "lang": "en",
      "para_id": "668.371",
      "pub_code": "1BIO",
      "pub_name": "Ellen G. White: The Early Years: 1827-1862 (vol. 1)",
      "refcode_long": "Ellen G. White: The Early Years: 1827-1862 (vol. 1), p. 53 (Arthur Lacey White)",
      "refcode_short": "1BIO 53",
      "pub_year": "1985",
      "snippet": "The <mark>Great Disappointment</mark> of October 22, <mark>1844</mark>",
      "weight": 0.87,
      "group": "egwwritings"
    },
    {
      "index": 5,
      "lang": "en",
      "para_id": "665.115",
      "pub_code": "WV",
      "pub_name": "Ellen White: Woman of Vision",
      "refcode_long": "Ellen White: Woman of Vision, p. 22 (Arthur Lacey White)",
      "refcode_short": "WV 22",
      "pub_year": "2000",
      "snippet": "The <mark>Great Disappointment</mark> Of October 22, <mark>1844</mark>",
      "weight": 0.87,
      "group": "egwwritings"
    },
    {
      "index": 6,
      "lang": "en",
      "para_id": "756.4510",
      "pub_code": "EGWC",
      "pub_name": "Ellen G. White and Her Critics",
      "refcode_long": "Ellen G. White and Her Critics, p. 612.2 (Francis D. Nichol)",
      "refcode_short": "EGWC 612.2",
      "pub_year": "1994",
      "snippet": "“From the time of the <mark>great disappointment</mark> in <mark>1844</mark>, to 1846, a number of the advent brethren in different States embraced the Sabbath.”— The Review and Herald, May 6, 1852, p. 5.",
      "weight": 0.87,
      "group": "reference"
    },
    {
      "index": 7,
      "lang": "en",
      "para_id": "13965.1523",
      "pub_code": "GOP",
      "pub_name": "The Gift of Prophecy",
      "refcode_long": "The Gift of Prophecy, p. 250.1 (Dr. Alberto Timm & Dwain Esmond)",
      "refcode_short": "GOP 250.1",
      "pub_year": "2015",
      "snippet": "… December <mark>1844</mark>, a few weeks after the <mark>Great Disappointment</mark> on October 22, <mark>1844</mark>. Although many Millerites (particularly Millerite leaders) were skeptical …",
      "weight": 0.87,
      "group": "reference"
    },
    {
      "index": 8,
      "lang": "en",
      "para_id": "1201.28",
      "pub_code": "SOTB",
      "pub_name": "The Sanctuary of the Bible",
      "refcode_long": "The Sanctuary of the Bible, p. 6.2 (John Nevins Andrews)",
      "refcode_short": "SOTB 6.2",
      "pub_year": "1865",
      "snippet": "… in <mark>1844</mark>, the Advent people were doomed to a <mark>great disappointment</mark>. The ending of the 2300 days was not the time appointed of God for the coming of Christ, nor for …",
      "weight": 0.86,
      "group": "apl"
    },
    {
      "index": 9,
      "lang": "en",
      "para_id": "299.99",
      "pub_code": "SpTB17a",
      "pub_name": "The Unwise Use of Money and the Spirit of Speculation",
      "refcode_long": "The Unwise Use of Money and the Spirit of Speculation, p. 16.4 (Ellen Gould White)",
      "refcode_short": "SpTB17a 16.4",
      "pub_year": "1911",
      "snippet": "After the <mark>great disappointment</mark> of the Adventist people in <mark>1844</mark>, we had all these things to contend with over and over again. Then I was raised up from a bed of sickness, and sent to give a message of reproof for such fanaticism.",
      "weight": 0.85,
      "group": "egwwritings"
    },
    {
      "index": 10,
      "lang": "en",
      "para_id": "652.113",
      "pub_code": "AGOL",
      "pub_name": "A Gift of Light",
      "refcode_long": "A Gift of Light, p. 25.3 (Roger W. Coon)",
      "refcode_short": "AGOL 25.3",
      "pub_year": "1998",
      "snippet": "… the <mark>Great Disappointment</mark> following October 22, <mark>1844</mark>, when Jesus did not return according to the expectations of Miller and his followers. With her fellow …",
      "weight": 0.85,
      "group": "reference"
    },
    {
      "index": 11,
      "lang": "en",
      "para_id": "1437.130",
      "pub_code": "BEARF",
      "pub_name": "A Brief Exposition of the Angels of Revelation XIV",
      "refcode_long": "A Brief Exposition of the Angels of Revelation XIV, p. 24.1 (James Springer White)",
      "refcode_short": "BEARF 24.1",
      "pub_year": "0",
      "snippet": "… <mark> disappointment</mark>. The period since that <mark>disappointment</mark> may properly be called the time of the patience of the saints. Relative to our <mark>disappointment</mark>, and …",
      "weight": 0.84,
      "group": "apl"
    },
    {
      "index": 12,
      "lang": "en",
      "para_id": "756.1276",
      "pub_code": "EGWC",
      "pub_name": "Ellen G. White and Her Critics",
      "refcode_long": "Ellen G. White and Her Critics, p. 171.1 (Francis D. Nichol)",
      "refcode_short": "EGWC 171.1",
      "pub_year": "1994",
      "snippet": "… the <mark>great disappointment</mark> of October 22, <mark>1844</mark>, there began slowly to take shape in the minds of a few of the <mark>disappointed</mark> ones certain understandings of prophecy …",
      "weight": 0.84,
      "group": "reference"
    },
    {
      "index": 13,
      "lang": "en",
      "para_id": "756.1432",
      "pub_code": "EGWC",
      "pub_name": "Ellen G. White and Her Critics",
      "refcode_long": "Ellen G. White and Her Critics, p. 194.3 (Francis D. Nichol)",
      "refcode_short": "EGWC 194.3",
      "pub_year": "1994",
      "snippet": "… the <mark>great disappointment</mark>. At best the Millerite movement had been a loosely knit company of believers. While the movement was strong and active it could …",
      "weight": 0.84,
      "group": "reference"
    },
    {
      "index": 14,
      "lang": "en",
      "para_id": "659.724",
      "pub_code": "GVEGW",
      "pub_name": "The Great Visions of Ellen G. White",
      "refcode_long": "The Great Visions of Ellen G. White, p. 90.5 (Roger W. Coon)",
      "refcode_short": "GVEGW 90.5",
      "pub_year": "1992",
      "snippet": "… 23, <mark>1844</mark>, the first day of the <mark>Great Disappointment</mark> of the Millerites, they had neither message nor audience. It would take no little time of intensive Bible …",
      "weight": 0.84,
      "group": "reference"
    },
    {
      "index": 15,
      "lang": "en",
      "para_id": "12668.15062",
      "pub_code": "SDAEnc",
      "pub_name": "SDA Encyclopedia",
      "refcode_long": "SDA Encyclopedia, p. .0 (General Conference of SDA)",
      "refcode_short": "SDAEnc .0",
      "pub_year": "1966",
      "snippet": "",
      "weight": 0.84,
      "group": "bible",
      "action_required": "purchased"
    },
    {
      "index": 16,
      "lang": "en",
      "para_id": "1034.993",
      "pub_code": "RCASDA",
      "pub_name": "Replies to Elder Canright’s Attacks on Seventh-day Adventists",
      "refcode_long": "Replies to Elder Canright’s Attacks on Seventh-day Adventists, p. 169.5 (Uriah Smith)",
      "refcode_short": "RCASDA 169.5",
      "pub_year": "1895",
      "snippet": "… the <mark>great disappointment</mark> of the Advent believers in <mark>1844</mark>. We regard that movement as a fulfillment of prophecy, and believe that it was in the order of God …",
      "weight": 0.82,
      "group": "apl"
    },
    {
      "index": 17,
      "lang": "en",
      "para_id": "668.2030",
      "pub_code": "1BIO",
      "pub_name": "Ellen G. White: The Early Years: 1827-1862 (vol. 1)",
      "refcode_long": "Ellen G. White: The Early Years: 1827-1862 (vol. 1), p. 267.1 (Arthur Lacey White)",
      "refcode_short": "1BIO 267.1",
      "pub_year": "1985",
      "snippet": "… the <mark>great Disappointment</mark> there had come onto the stage of action an increasing number of those who in <mark>1844</mark> were children and had not yet reached the age of …",
      "weight": 0.82,
      "group": "egwwritings"
    },
    {
      "index": 18,
      "lang": "en",
      "para_id": "14019.424",
      "pub_code": "CS-SG",
      "pub_name": "Counsels on Stewardship -- Study Guide",
      "refcode_long": "Counsels on Stewardship -- Study Guide, p. 39.10 (Ellen G. White Estate)",
      "refcode_short": "CS-SG 39.10",
      "pub_year": "1979",
      "snippet": "… the <mark>great disappointment</mark> of <mark>1844</mark> he was truly <mark>disappointed</mark> and discouraged. For three years he lived in the Adirondack Mountains of New York. Finally, his …",
      "weight": 0.81,
      "group": "reference"
    },
    {
      "index": 19,
      "lang": "en",
      "para_id": "947.117",
      "pub_code": "FOME",
      "pub_name": "Founders of the Message",
      "refcode_long": "Founders of the Message, p. 35.2 (Everett Newfon Dick)",
      "refcode_short": "FOME 35.2",
      "pub_year": "1938",
      "snippet": "… . (The <mark>great disappointment</mark> was the terrible <mark>disappointment</mark> which the advent believers suffered on October 22 <mark>1844</mark> when the Savior did not come in the clouds …",
      "weight": 0.81,
      "group": "apl"
    },
    {
      "index": 20,
      "lang": "en",
      "para_id": "99.1992",
      "pub_code": "2SM",
      "pub_name": "Selected Messages Book 2",
      "refcode_long": "Selected Messages Book 2, p. 327.4 (Ellen Gould White)",
      "refcode_short": "2SM 327.4",
      "pub_year": "1958",
      "snippet": "… the <mark>great disappointment</mark> of the Adventist people in <mark>1844</mark>, we had all these things to contend with over and over again. Then I was raised up from a bed of sickness …",
      "weight": 0.81,
      "group": "egwwritings"
    },
    {
      "index": 21,
      "lang": "en",
      "para_id": "74.397",
      "pub_code": "Mar",
      "pub_name": "Maranatha",
      "refcode_long": "Maranatha, p. 61.4 (Ellen Gould White)",
      "refcode_short": "Mar 61.4",
      "pub_year": "1976",
      "snippet": "… the <mark>great disappointment</mark> in <mark>1844</mark>, held fast their faith, and followed on unitedly in the opening providence of God, receiving the message of the third angel …",
      "weight": 0.81,
      "group": "egwwritings"
    },
    {
      "index": 22,
      "lang": "en",
      "para_id": "14075.11035025",
      "pub_code": "25LtMs",
      "pub_name": "Letters and Manuscripts — Volume 25 (1910 - 1915)",
      "refcode_long": "Letters and Manuscripts — Volume 25 (1910 - 1915), Ms 3, 1911, par. 16",
      "refcode_short": "25LtMs, Ms 3, 1911, par. 16",
      "pub_year": "1910",
      "snippet": "[E. G. White:] After the <mark>great disappointment</mark> of the Adventist people in <mark>1844</mark>, we had all these things to contend with over and over again. Then I was raised up from a bed of sickness and sent to give a message of reproof for such fanaticism.",
      "weight": 0.81,
      "group": "egwwritings"
    },
    {
      "index": 23,
      "lang": "en",
      "para_id": "665.147",
      "pub_code": "WV",
      "pub_name": "Ellen White: Woman of Vision",
      "refcode_long": "Ellen White: Woman of Vision, p. 26.1 (Arthur Lacey White)",
      "refcode_short": "WV 26.1",
      "pub_year": "2000",
      "snippet": "… the <mark>great disappointment</mark> of October 22, <mark>1844</mark>. Some clung to the hope that the mistake involved a miscalculation of only a few days, and lived in constant expectancy …",
      "weight": 0.81,
      "group": "egwwritings"
    },
    {
      "index": 24,
      "lang": "en",
      "para_id": "14820.2375",
      "pub_code": "JTLD",
      "pub_name": "My Journey to Life - Daily Study Guide",
      "refcode_long": "My Journey to Life - Daily Study Guide, p. 399.6 (Ellen G. White Estate)",
      "refcode_short": "JTLD 399.6",
      "pub_year": "2025",
      "snippet": "… The <mark>Great Disappointment</mark> of <mark>1844</mark>. She not only brought encouragement to the fledgling group of believers in North America, but also to those carrying the …",
      "weight": 0.81,
      "group": "reference"
    }
  ]
}
