{
  "next": "https://a.egwwritings.org/search?lang=en&period=all&facets=False&query=woman%20wilderness%201260&offset=20&limit=20&order=rel&snippet=long&query_type=prefer_exact",
  "previous": null,
  "total": 112,
  "count": 112,
  "results": [
    {
      "index": 0,
      "lang": "en",
      "para_id": "1320.361",
      "pub_code": "MWV1",
      "pub_name": "Miller’s Works, vol. 1. Views of the Prophecies and Prophetic Chronology",
      "refcode_long": "Miller’s Works, vol. 1. Views of the Prophecies and Prophetic Chronology, p. 47.1 (William Miller)",
      "refcode_short": "MWV1 47.1",
      "pub_year": "1842",
      "snippet": "… , meaning <mark>1260</mark> days. See Revelation 12:6 and 14 : The <mark>woman</mark> in the <mark>wilderness, 1260</mark> days, which is the same thing as three and a half times. Daniel, in the seventh chapter …",
      "weight": 1,
      "group": "apl"
    },
    {
      "index": 1,
      "lang": "en",
      "para_id": "1447.523",
      "pub_code": "BIAD",
      "pub_name": "Bible Adventism",
      "refcode_long": "Bible Adventism, p. 113.3 (James Springer White)",
      "refcode_short": "BIAD 113.3",
      "pub_year": "0",
      "snippet": "… the <mark>woman</mark>, the church, fled into the <mark>wilderness 1260</mark> days; and in the 14th verse, that it was for “a time, and times, and half a time.” here, then, we have the period of the …",
      "weight": 1,
      "group": "apl"
    },
    {
      "index": 2,
      "lang": "en",
      "para_id": "1488.159",
      "pub_code": "FUMP",
      "pub_name": "The Four Universal Monarchies of the Prophecy of Daniel, and God’s Everlasting Kingdom",
      "refcode_long": "The Four Universal Monarchies of the Prophecy of Daniel, and God’s Everlasting Kingdom, p. 33.2 (James Springer White)",
      "refcode_short": "FUMP 33.2",
      "pub_year": "1855",
      "snippet": "… , the <mark>woman</mark>, the church, fled into the <mark>wilderness 1260</mark> days; and at the 14th verse, that it was for “a time, and times, and half a time.” Here then we have the period of the …",
      "weight": 1,
      "group": "apl"
    },
    {
      "index": 3,
      "lang": "en",
      "para_id": "1469.509",
      "pub_code": "OFH1",
      "pub_name": "Our Faith and Hope, No. 1",
      "refcode_long": "Our Faith and Hope, No. 1, p. 103.3 (James Springer White)",
      "refcode_short": "OFH1 103.3",
      "pub_year": "1870",
      "snippet": "… the <mark>woman</mark>, the church, fled into the <mark>wilderness 1260</mark> days; and in the 14th verse, that it was for “a time, and times, and half a time.” Here, then, we have the period of the …",
      "weight": 1,
      "group": "apl"
    },
    {
      "index": 4,
      "lang": "en",
      "para_id": "1657.1967",
      "pub_code": "HST",
      "pub_name": "Signs of the Times and Expositor of Prophecy [Himes], vol. 3",
      "refcode_long": "Signs of the Times and Expositor of Prophecy [Himes], vol. 3 June 1,  1842, page 70 paragraph 10",
      "refcode_short": "HST June 1,  1842, page 70.10",
      "pub_year": "1842",
      "snippet": "… testify <mark>1260</mark> days, clothed in sackcloth. The <mark>woman</mark> in Revelation 12. [6 had a place prepared for her in the <mark>wilderness 1260</mark> days, and in the 14th. verse, she is said …",
      "weight": 0.92,
      "group": "apl"
    },
    {
      "index": 5,
      "lang": "en",
      "para_id": "1657.4582",
      "pub_code": "HST",
      "pub_name": "Signs of the Times and Expositor of Prophecy [Himes], vol. 3",
      "refcode_long": "Signs of the Times and Expositor of Prophecy [Himes], vol. 3 August 31,  1842, page 172 paragraph 6",
      "refcode_short": "HST August 31,  1842, page 172.6",
      "pub_year": "1842",
      "snippet": "… , meaning <mark>1260</mark> days. See Revelation 12:6 and 14. The <mark>woman</mark> in the <mark>wilderness, 1260</mark> days, which is the same thing as three and a half times. Daniel, in the 7th chapter …",
      "weight": 0.92,
      "group": "apl"
    },
    {
      "index": 6,
      "lang": "en",
      "para_id": "1645.5600",
      "pub_code": "ARSH",
      "pub_name": "The Advent Review, and Sabbath Herald, vol. 3",
      "refcode_long": "The Advent Review, and Sabbath Herald, vol. 3 February 17,  1853, page 153 paragraph 20",
      "refcode_short": "ARSH February 17,  1853, page 153.20",
      "pub_year": "1852",
      "snippet": "… , the <mark>woman</mark>, the church, fled into the <mark>wilderness 1260</mark> days; and at the 14th verse, that it was for “a time, and times, and half a time.” Here then we have the period of the …",
      "weight": 0.92,
      "group": "apl"
    },
    {
      "index": 7,
      "lang": "en",
      "para_id": "1642.4385",
      "pub_code": "ARSH",
      "pub_name": "The Advent Review, and Sabbath Herald, vol. 6",
      "refcode_long": "The Advent Review, and Sabbath Herald, vol. 6 November 14,  1854, page 109 paragraph 22",
      "refcode_short": "ARSH November 14,  1854, page 109.22",
      "pub_year": "1854",
      "snippet": "… , the <mark>woman</mark>, the church, fled into the <mark>wilderness 1260</mark> days; and at the 14th verse, that it was for “a time, and times, and half a time.” Here then we have the period of the …",
      "weight": 0.92,
      "group": "apl"
    },
    {
      "index": 8,
      "lang": "en",
      "para_id": "942.582",
      "pub_code": "FRGC",
      "pub_name": "The First Report of the General Conference of Christians Expecting the Advent of the Lord Jesus Christ",
      "refcode_long": "The First Report of the General Conference of Christians Expecting the Advent of the Lord Jesus Christ, p. 88.2 (Joshua V. Himes)",
      "refcode_short": "FRGC 88.2",
      "pub_year": "1841",
      "snippet": "… , meaning <mark>1260</mark> days. See Revelation 12:6 and 14. The <mark>woman</mark> in the <mark>wilderness, 1260</mark> days, which is the same thing as three and a half times. Daniel, in the 7th chapter …",
      "weight": 0.92,
      "group": "apl"
    },
    {
      "index": 9,
      "lang": "en",
      "para_id": "1583.4240",
      "pub_code": "PFF4",
      "pub_name": "The Prophetic Faith of Our Fathers, vol. 4",
      "refcode_long": "The Prophetic Faith of Our Fathers, vol. 4, p. 733.1 (LeRoy Edwin Froom)",
      "refcode_short": "PFF4 733.1",
      "pub_year": "1954",
      "snippet": "… ; the <mark>woman</mark> in the <mark>wilderness 1260</mark> years, ending in 1798, with salvation soon to come; the great blasphemy of the Papacy is from 538-1798, or from Justinian to the …",
      "weight": 0.92,
      "group": "apl"
    },
    {
      "index": 10,
      "lang": "en",
      "para_id": "1674.7551",
      "pub_code": "ARSH",
      "pub_name": "Advent Review, and Sabbath Herald, vol. 9",
      "refcode_long": "Advent Review, and Sabbath Herald, vol. 9 April 23,  1857, page 195 paragraph 21",
      "refcode_short": "ARSH April 23,  1857, page 195.21",
      "pub_year": "1856",
      "snippet": "… , the <mark>woman</mark>, the church, fled into the <mark>wilderness 1260</mark> days; and at the 14th verse, that it was for “a time, and times, and half a time. Here, then, we have the period of the …",
      "weight": 0.88,
      "group": "apl"
    },
    {
      "index": 11,
      "lang": "en",
      "para_id": "1656.3935",
      "pub_code": "HST",
      "pub_name": "Signs of the Times and Expositor of Prophecy [Himes], vol. 4",
      "refcode_long": "Signs of the Times and Expositor of Prophecy [Himes], vol. 4 January 25,  1843, page 149 paragraph 8",
      "refcode_short": "HST January 25,  1843, page 149.8",
      "pub_year": "1842",
      "snippet": "… the <mark>woman</mark> fled into the <mark>wilderness</mark>, where she hath a place prepared of God, that they should feed her there a thousand two hundred and threescore days. And to …",
      "weight": 0.68,
      "group": "apl"
    },
    {
      "index": 12,
      "lang": "en",
      "para_id": "1583.2335",
      "pub_code": "PFF4",
      "pub_name": "The Prophetic Faith of Our Fathers, vol. 4",
      "refcode_long": "The Prophetic Faith of Our Fathers, vol. 4, p. 388.2 (LeRoy Edwin Froom)",
      "refcode_short": "PFF4 388.2",
      "pub_year": "1954",
      "snippet": "… sackcloth <mark>1260</mark> days 5. Revelation 12:6 <mark>Woman</mark> fed in prepared <mark>wilderness</mark> place <mark>1260</mark> days 6. Revelation 12:14 <mark>Woman</mark> flees from serpent to <mark>wilderness</mark> place 3 …",
      "weight": 0.32,
      "group": "apl"
    },
    {
      "index": 13,
      "lang": "en",
      "para_id": "1678.436",
      "pub_code": "ARSH",
      "pub_name": "Advent Review, and Sabbath Herald, vol. 25",
      "refcode_long": "Advent Review, and Sabbath Herald, vol. 25 December 6,  1864, page 12 paragraph 12",
      "refcode_short": "ARSH December 6,  1864, page 12.12",
      "pub_year": "1865",
      "snippet": "… . The <mark>woman</mark>, or the church, was to go into the <mark>wilderness</mark>, and be nourished there for <mark>1260</mark> years. What was to cause the church thus to go into the <mark>wilderness</mark>? The elevation …",
      "weight": 0.3,
      "group": "apl"
    },
    {
      "index": 14,
      "lang": "en",
      "para_id": "12517.913",
      "pub_code": "7SDABC",
      "pub_name": "SDA Bible Commentary, vol. 7",
      "refcode_long": "SDA Bible Commentary, vol. 7, p. 114.6 (Francis Nichol-GCSDA)",
      "refcode_short": "7SDABC 114.6",
      "pub_year": "1957",
      "snippet": "",
      "weight": 0.3,
      "group": "bible",
      "action_required": "purchased"
    },
    {
      "index": 15,
      "lang": "en",
      "para_id": "1321.1051",
      "pub_code": "MWV2",
      "pub_name": "Miller’s Works, vol. 2. Evidence from Scripture and History of the Second Coming of Christ about the Year",
      "refcode_long": "Miller’s Works, vol. 2. Evidence from Scripture and History of the Second Coming of Christ about the Year, p. 274.5 (William Miller)",
      "refcode_short": "MWV2 274.5",
      "pub_year": "1843",
      "snippet": "… her <mark>wilderness</mark> state, “a place prepared of God, that they should feed her there <mark>1260</mark> days;” or, “to the <mark>woman</mark> were given two wings of a great eagle, that she might fly …",
      "weight": 0.29,
      "group": "apl"
    },
    {
      "index": 16,
      "lang": "en",
      "para_id": "1646.1695",
      "pub_code": "ARSH",
      "pub_name": "The Advent Review, and Sabbath Herald, vol. 2",
      "refcode_long": "The Advent Review, and Sabbath Herald, vol. 2 December 9,  1851, page 57 paragraph 24",
      "refcode_short": "ARSH December 9,  1851, page 57.24",
      "pub_year": "1852",
      "snippet": "… the <mark>wilderness</mark>. Doubtless both cases refer to the same time. The <mark>woman</mark> does not fly while in the <mark>wilderness</mark>, but ‘fled into it.’ - The <mark>wilderness</mark> is her place, prepared …",
      "weight": 0.29,
      "group": "apl"
    },
    {
      "index": 17,
      "lang": "en",
      "para_id": "1678.8564",
      "pub_code": "ARSH",
      "pub_name": "Advent Review, and Sabbath Herald, vol. 25",
      "refcode_long": "Advent Review, and Sabbath Herald, vol. 25 May 30,  1865, page 204 paragraph 22",
      "refcode_short": "ARSH May 30,  1865, page 204.22",
      "pub_year": "1865",
      "snippet": "… hidden, <mark>wilderness</mark> state; and the earth which helped her, earthly, civil government. The earth began to help the <mark>woman</mark> when the civil rulers of Europe began …",
      "weight": 0.27,
      "group": "apl"
    },
    {
      "index": 18,
      "lang": "en",
      "para_id": "12668.19703",
      "pub_code": "SDAEnc",
      "pub_name": "SDA Encyclopedia",
      "refcode_long": "SDA Encyclopedia, p. .0 (General Conference of SDA)",
      "refcode_short": "SDAEnc .0",
      "pub_year": "1966",
      "snippet": "",
      "weight": 0.27,
      "group": "bible",
      "action_required": "purchased"
    },
    {
      "index": 19,
      "lang": "en",
      "para_id": "1652.3853",
      "pub_code": "HST",
      "pub_name": "The Advent Herald, and Signs of the Times Reporter [Himes], vol. 7",
      "refcode_long": "The Advent Herald, and Signs of the Times Reporter [Himes], vol. 7 May 8,  1844, page 110 paragraph 10",
      "refcode_short": "HST May 8,  1844, page 110.10",
      "pub_year": "1844",
      "snippet": "… the <mark>woman</mark> fled into the <mark>wilderness</mark>, where she hath a place prepared of God, that they should feed her there a thousand two hundred and threescore days. And to …",
      "weight": 0.27,
      "group": "apl"
    }
  ]
}
