{
  "next": "https://a.egwwritings.org/search?lang=en&period=all&facets=False&query=remnant%20church%20commandments&offset=25&limit=25&order=rel&snippet=long&query_type=prefer_exact",
  "previous": null,
  "total": 479,
  "count": 479,
  "results": [
    {
      "index": 0,
      "lang": "en",
      "para_id": "14266.272",
      "pub_code": "GP",
      "pub_name": "The Gift of Prophecy (The Role of Ellen White in God’s Remnant Church)",
      "refcode_long": "The Gift of Prophecy (The Role of Ellen White in God’s Remnant Church), p. 41.4 (Gerhard Pfandl)",
      "refcode_short": "GP 41.4",
      "pub_year": "2008",
      "snippet": "… <mark>remnant church</mark> is their loyalty to God’s moral law—the Ten <mark>Commandments</mark>. In other words, the <mark>remnant church</mark> obeys all of God’s ten <mark>commandments</mark>, including …",
      "weight": 1,
      "group": "reference"
    },
    {
      "index": 1,
      "lang": "en",
      "para_id": "702.5",
      "pub_code": "GTCT",
      "pub_name": "God’s True Church Today",
      "refcode_long": "God’s True Church Today, p. 1.2 (Robert W. Olson)",
      "refcode_short": "GTCT 1.2",
      "pub_year": "1986",
      "snippet": "… <mark></mark> can be recognized as the body of people who (a) keep the <mark>commandments</mark> and (b) have the testimony of Jesus. Not all members of the visible <mark>remnant church</mark> will …",
      "weight": 0.94,
      "group": "reference"
    },
    {
      "index": 2,
      "lang": "en",
      "para_id": "648.920",
      "pub_code": "TOJ",
      "pub_name": "The Testimony of Jesus",
      "refcode_long": "The Testimony of Jesus, p. 146.7 (Francis McLellan Wilcox)",
      "refcode_short": "TOJ 146.7",
      "pub_year": "1944",
      "snippet": "… the <mark>remnant church</mark> because of its teaching of the <mark>commandments</mark> of God, and particularly of Sabbath reform, has come from the world at large, from those who …",
      "weight": 0.88,
      "group": "reference"
    },
    {
      "index": 3,
      "lang": "en",
      "para_id": "660.2324",
      "pub_code": "APAY",
      "pub_name": "A Prophet Among You",
      "refcode_long": "A Prophet Among You, p. 365.2 (T. Housel Jemison)",
      "refcode_short": "APAY 365.2",
      "pub_year": "1955",
      "snippet": "… the <mark>commandments</mark> of God, and have the testimony of Jesus Christ.” Revelation 12:17. The attitude of the <mark>remnant church</mark> toward the <mark>commandments</mark> is indicative …",
      "weight": 0.88,
      "group": "reference"
    },
    {
      "index": 4,
      "lang": "en",
      "para_id": "1583.5593",
      "pub_code": "PFF4",
      "pub_name": "The Prophetic Faith of Our Fathers, vol. 4",
      "refcode_long": "The Prophetic Faith of Our Fathers, vol. 4, p. 975.1 (LeRoy Edwin Froom)",
      "refcode_short": "PFF4 975.1",
      "pub_year": "1954",
      "snippet": "… the <mark>remnant church</mark> through the final scenes of earth’s climactic hour. The book, or prophecy, of Revelation would therefore be the special object of concern …",
      "weight": 0.86,
      "group": "apl"
    },
    {
      "index": 5,
      "lang": "en",
      "para_id": "19.29",
      "pub_code": "CCh",
      "pub_name": "Counsels for the Church",
      "refcode_long": "Counsels for the Church, p. 10.1 (Ellen Gould White)",
      "refcode_short": "CCh 10.1",
      "pub_year": "1991",
      "snippet": "… <mark></mark>, “the <mark>remnant church</mark>,” as those “which keep the <mark>commandments</mark> of God,” Revelation 12:17, thus making them a <mark>commandment</mark>-keeping <mark>church</mark>. This <mark>remnant church</mark> would …",
      "weight": 0.84,
      "group": "egwwritings"
    },
    {
      "index": 6,
      "lang": "en",
      "para_id": "653.1778",
      "pub_code": "AGP",
      "pub_name": "The Abiding Gift of Prophecy",
      "refcode_long": "The Abiding Gift of Prophecy, p. 250.2 (Arthur Grosvenor Daniells)",
      "refcode_short": "AGP 250.2",
      "pub_year": "1936",
      "snippet": "… the <mark>remnant church</mark> that had just begun to stress “the <mark>commandments</mark> of God, and the faith of Jesus.” Its beginning was under the severe handicap of prejudice …",
      "weight": 0.81,
      "group": "reference"
    },
    {
      "index": 7,
      "lang": "en",
      "para_id": "660.2374",
      "pub_code": "APAY",
      "pub_name": "A Prophet Among You",
      "refcode_long": "A Prophet Among You, p. 372.4 (T. Housel Jemison)",
      "refcode_short": "APAY 372.4",
      "pub_year": "1955",
      "snippet": "3. The <mark>commandments</mark> of God and the spirit of prophecy constitute prominent marks of identification of the <mark>remnant church</mark>.",
      "weight": 0.75,
      "group": "reference"
    },
    {
      "index": 8,
      "lang": "en",
      "para_id": "658.980",
      "pub_code": "WEWMM",
      "pub_name": "What Ellen White has Meant to Me",
      "refcode_long": "What Ellen White has Meant to Me, p. 180.3 (Herbert E. Douglass)",
      "refcode_short": "WEWMM 180.3",
      "pub_year": "1973",
      "snippet": "And the specific prophecy of this work for the <mark>remnant church</mark> declares that the last <mark>church</mark> is to keep the <mark>commandments</mark> of God and have the Spirit of prophecy in its midst:",
      "weight": 0.75,
      "group": "reference"
    },
    {
      "index": 9,
      "lang": "en",
      "para_id": "651.11",
      "pub_code": "DGRGC",
      "pub_name": "Divine Guidance in the Remnant of God’s Church",
      "refcode_long": "Divine Guidance in the Remnant of God’s Church, p. 7.3 (Denton Edward Rebok)",
      "refcode_short": "DGRGC 7.3",
      "pub_year": "1955",
      "snippet": "… the “<mark>remnant</mark> of God’s <mark>church</mark>” are obedience to the <mark>commandments</mark> of God, and the presence of the testimony of Jesus Christ, which is the Spirit of prophecy. We …",
      "weight": 0.74,
      "group": "reference"
    },
    {
      "index": 10,
      "lang": "en",
      "para_id": "13965.2741",
      "pub_code": "GOP",
      "pub_name": "The Gift of Prophecy",
      "refcode_long": "The Gift of Prophecy, p. 418.3 (Dr. Alberto Timm & Dwain Esmond)",
      "refcode_short": "GOP 418.3",
      "pub_year": "2015",
      "snippet": "… [God’s <mark>church</mark>], and he went to make war with the rest [or <mark>remnant</mark>] of her offspring [or seed—God’s last-day people and <mark>church</mark>], who keep the <mark>commandments</mark> of God and …",
      "weight": 0.73,
      "group": "reference"
    },
    {
      "index": 11,
      "lang": "en",
      "para_id": "648.918",
      "pub_code": "TOJ",
      "pub_name": "The Testimony of Jesus",
      "refcode_long": "The Testimony of Jesus, p. 146.5 (Francis McLellan Wilcox)",
      "refcode_short": "TOJ 146.5",
      "pub_year": "1944",
      "snippet": "… the <mark>remnant church</mark> would suffer persecution because of the fact that that <mark>church</mark> would uphold in their teaching and practice the <mark>commandments</mark> of God and …",
      "weight": 0.73,
      "group": "reference"
    },
    {
      "index": 12,
      "lang": "en",
      "para_id": "1630.886",
      "pub_code": "HEVI",
      "pub_name": "Heavenly Visions",
      "refcode_long": "Heavenly Visions, p. 83.2 (John Norton Loughborough)",
      "refcode_short": "HEVI 83.2",
      "pub_year": "1984",
      "snippet": "… this <mark>remnant church</mark>. The dragon, it was foretold, would be wroth with the <mark>remnant</mark>, with the last <mark>church</mark>, which should “keep the <mark>commandments</mark> of God, and have the …",
      "weight": 0.72,
      "group": "apl"
    },
    {
      "index": 13,
      "lang": "en",
      "para_id": "654.1708",
      "pub_code": "BHP",
      "pub_name": "Believe His Prophets",
      "refcode_long": "Believe His Prophets, p. 290.4 (Denton Edward Rebok)",
      "refcode_short": "BHP 290.4",
      "pub_year": "1955",
      "snippet": "These are the words God speaks to the <mark>remnant church</mark>—to you and me—who keep all of His <mark>commandments</mark>, and who cling to the testimony of Jesus Christ, which is the Spirit of prophecy.",
      "weight": 0.71,
      "group": "reference"
    },
    {
      "index": 14,
      "lang": "en",
      "para_id": "14266.271",
      "pub_code": "GP",
      "pub_name": "The Gift of Prophecy (The Role of Ellen White in God’s Remnant Church)",
      "refcode_long": "The Gift of Prophecy (The Role of Ellen White in God’s Remnant Church), p. 41.3 (Gerhard Pfandl)",
      "refcode_short": "GP 41.3",
      "pub_year": "2008",
      "snippet": "Revelation 12 gives two identifying marks of this <mark>remnant church</mark>: (1) they keep the <mark>commandments</mark> of God, and (2) they have the testimony of Jesus. Revelation 14:12 contains two other identifying marks—patience and the faith of Jesus.",
      "weight": 0.71,
      "group": "reference"
    },
    {
      "index": 15,
      "lang": "en",
      "para_id": "12517.19374",
      "pub_code": "7SDABC",
      "pub_name": "SDA Bible Commentary, vol. 7",
      "refcode_long": "SDA Bible Commentary, vol. 7, p. 833.2 (Francis Nichol-GCSDA)",
      "refcode_short": "7SDABC 833.2",
      "pub_year": "1957",
      "snippet": "",
      "weight": 0.71,
      "group": "bible",
      "action_required": "purchased"
    },
    {
      "index": 16,
      "lang": "en",
      "para_id": "648.175",
      "pub_code": "TOJ",
      "pub_name": "The Testimony of Jesus",
      "refcode_long": "The Testimony of Jesus, p. 33.2 (Francis McLellan Wilcox)",
      "refcode_short": "TOJ 33.2",
      "pub_year": "1944",
      "snippet": "… Christian <mark>church</mark>: “The dragon was wroth with the woman, and went to make war with the <mark>remnant</mark> of her seed, which keep the <mark>commandments</mark> of God, and have the testimony …",
      "weight": 0.71,
      "group": "reference"
    },
    {
      "index": 17,
      "lang": "en",
      "para_id": "14810.170",
      "pub_code": "CCL",
      "pub_name": "Counsels on Church Life",
      "refcode_long": "Counsels on Church Life, p. 23.6 (Ellen G. White Estate)",
      "refcode_short": "CCL 23.6",
      "pub_year": "2025",
      "snippet": "… <mark> church</mark> and the power of evil, and said, ‘The dragon was wroth with the woman, and went to make war with the <mark>remnant</mark> of her seed, which keep the <mark>commandments</mark> of God …",
      "weight": 0.71,
      "group": "reference"
    },
    {
      "index": 18,
      "lang": "en",
      "para_id": "649.101",
      "pub_code": "SPIAM",
      "pub_name": "The Spirit of Prophecy in the Advent Movement",
      "refcode_long": "The Spirit of Prophecy in the Advent Movement, p. 19.4 (William Ambrose Spicer)",
      "refcode_short": "SPIAM 19.4",
      "pub_year": "1937",
      "snippet": "… . The <mark>remnant church</mark>, the people of the advent movement, were to keep the <mark>commandments</mark>, as did the New Testament <mark>church</mark>, and they were to have the gift of the Spirit …",
      "weight": 0.7,
      "group": "reference"
    },
    {
      "index": 19,
      "lang": "en",
      "para_id": "649.119",
      "pub_code": "SPIAM",
      "pub_name": "The Spirit of Prophecy in the Advent Movement",
      "refcode_long": "The Spirit of Prophecy in the Advent Movement, p. 22.1 (William Ambrose Spicer)",
      "refcode_short": "SPIAM 22.1",
      "pub_year": "1937",
      "snippet": "… this “<mark>remnant” church</mark> of the movement. Like the New Testament <mark>church</mark>, they were to “keep the <mark>commandments</mark> of God, and the faith of Jesus,” and also, like the New Testament …",
      "weight": 0.7,
      "group": "reference"
    },
    {
      "index": 20,
      "lang": "en",
      "para_id": "13965.2748",
      "pub_code": "GOP",
      "pub_name": "The Gift of Prophecy",
      "refcode_long": "The Gift of Prophecy, p. 419.2 (Dr. Alberto Timm & Dwain Esmond)",
      "refcode_short": "GOP 419.2",
      "pub_year": "2015",
      "snippet": "… His <mark>remnant church</mark>, the Seventh-day Adventist <mark>Church</mark>. These people would love Him supremely and follow His <mark>commandments</mark> through His power. He is using the …",
      "weight": 0.7,
      "group": "reference"
    },
    {
      "index": 21,
      "lang": "en",
      "para_id": "14805.200",
      "pub_code": "CFL",
      "pub_name": "Counsels on Future Life",
      "refcode_long": "Counsels on Future Life, p. 28.4 (Ellen G. White Estate)",
      "refcode_short": "CFL 28.4",
      "pub_year": "2025",
      "snippet": "… <mark> church</mark> and the power of evil, and said ‘The dragon was wroth with the woman, and went to make war with the <mark>remnant</mark> of her seed, which keep the <mark>commandments</mark> of God …",
      "weight": 0.7,
      "group": "reference"
    },
    {
      "index": 22,
      "lang": "en",
      "para_id": "14266.312",
      "pub_code": "GP",
      "pub_name": "The Gift of Prophecy (The Role of Ellen White in God’s Remnant Church)",
      "refcode_long": "The Gift of Prophecy (The Role of Ellen White in God’s Remnant Church), p. 47.2 (Gerhard Pfandl)",
      "refcode_short": "GP 47.2",
      "pub_year": "2008",
      "snippet": "… the <mark>remnant</mark> people who keep the <mark>commandments</mark> of God and have faith in Jesus, who are exalting the standard of righteousness in these last days” (TM 58).",
      "weight": 0.7,
      "group": "reference"
    },
    {
      "index": 23,
      "lang": "en",
      "para_id": "96.966",
      "pub_code": "7BC",
      "pub_name": "EGW SDA Bible Commentary, vol. 7",
      "refcode_long": "EGW SDA Bible Commentary, vol. 7, p. 974.6 (Ellen Gould White)",
      "refcode_short": "7BC 974.6",
      "pub_year": "1957",
      "snippet": "… <mark> church</mark> and the power of evil, and said, “The dragon was wroth with the woman, and went to make war with the <mark>remnant</mark> of her seed, which keep the <mark>commandments</mark> of God …",
      "weight": 0.7,
      "group": "bible"
    },
    {
      "index": 24,
      "lang": "en",
      "para_id": "12666.9612",
      "pub_code": "HSDAT",
      "pub_name": "Handbook of SDA Theology",
      "refcode_long": "Handbook of SDA Theology, p. 890.1 (Raoul Dederen-GCSDA)",
      "refcode_short": "HSDAT 890.1",
      "pub_year": "2000",
      "snippet": "",
      "weight": 0.7,
      "group": "bible",
      "action_required": "purchased"
    }
  ]
}
