{
  "next": "https://a.egwwritings.org/search?lang=en&period=all&facets=False&query=United%20States%20two-horned&offset=25&limit=25&order=rel&snippet=long&query_type=prefer_exact",
  "previous": null,
  "total": 336,
  "count": 336,
  "results": [
    {
      "index": 0,
      "lang": "en",
      "para_id": "949.954",
      "pub_code": "FSDA",
      "pub_name": "Foundations of the Seventh-day Adventist Message and Mission",
      "refcode_long": "Foundations of the Seventh-day Adventist Message and Mission, p. 198.1 (Pieter Gerard Damsteegt)",
      "refcode_short": "FSDA 198.1",
      "pub_year": "1977",
      "snippet": "… , the <mark>United States</mark> alone is left. Do the <mark>two-horned</mark> beast and the <mark>United States</mark> belong together? If they do, then all the symbols find an application, and all the …",
      "weight": 1,
      "group": "apl"
    },
    {
      "index": 1,
      "lang": "en",
      "para_id": "12861.2781",
      "pub_code": "DAR",
      "pub_name": "Daniel and The Revelation",
      "refcode_long": "Daniel and The Revelation, p. 533.3 (Uriah Smith)",
      "refcode_short": "DAR 533.3",
      "pub_year": "1897",
      "snippet": "… , the <mark>United States</mark> government, remains. Do the <mark>two-horned</mark> beast and the <mark>United States</mark> belong together? If they do, then all the symbols find an application, and …",
      "weight": 0.93,
      "group": "apl"
    },
    {
      "index": 2,
      "lang": "en",
      "para_id": "1297.2617",
      "pub_code": "DAR1909",
      "pub_name": "Daniel and The Revelation",
      "refcode_long": "Daniel and The Revelation, p. 572.3 (Uriah Smith)",
      "refcode_short": "DAR1909 572.3",
      "pub_year": "1909",
      "snippet": "… , the <mark>United States</mark> government, remains. Do the <mark>two-horned</mark> beast and the <mark>United States</mark> belong together? If they do, then all the symbols find an application, and …",
      "weight": 0.93,
      "group": "apl"
    },
    {
      "index": 3,
      "lang": "en",
      "para_id": "1419.83",
      "pub_code": "USLP",
      "pub_name": "The United States in the Light of Prophecy",
      "refcode_long": "The United States in the Light of Prophecy, p. 18.2 (Uriah Smith)",
      "refcode_short": "USLP 18.2",
      "pub_year": "1874",
      "snippet": "… , the <mark>United States</mark> alone are left. Do the <mark>two-horned</mark> beast and the <mark>United States</mark> belong together? If they do, then all the symbols find an application, and all …",
      "weight": 0.93,
      "group": "apl"
    },
    {
      "index": 4,
      "lang": "en",
      "para_id": "1418.253",
      "pub_code": "TBUS",
      "pub_name": "The Two-Horned Beast of Rev. XIII, a Symbol of the United States",
      "refcode_long": "The Two-Horned Beast of Rev. XIII, a Symbol of the United States, p. 50.2 (John Norton Loughborough)",
      "refcode_short": "TBUS 50.2",
      "pub_year": "1857",
      "snippet": "… these <mark>United States</mark>. But as we have already seen that the <mark>United States</mark> is the <mark>two-horned</mark> beast, we conclude with definiteness that the image will be formed …",
      "weight": 0.88,
      "group": "apl"
    },
    {
      "index": 5,
      "lang": "en",
      "para_id": "1583.6419",
      "pub_code": "PFF4",
      "pub_name": "The Prophetic Faith of Our Fathers, vol. 4",
      "refcode_long": "The Prophetic Faith of Our Fathers, vol. 4, p. 1107.1 (LeRoy Edwin Froom)",
      "refcode_short": "PFF4 1107.1",
      "pub_year": "1954",
      "snippet": "… , “The <mark>Two-Horned</mark> Beast,” Review and Herald, March 21, 1854, p. 66; March 28, 1854, pp. 74, 75; The <mark>Two-Horned</mark> Beast of Rev. XIII, A Symbol of the <mark>United States</mark> (1857).",
      "weight": 0.88,
      "group": "apl"
    },
    {
      "index": 6,
      "lang": "en",
      "para_id": "1418.363",
      "pub_code": "TBUS",
      "pub_name": "The Two-Horned Beast of Rev. XIII, a Symbol of the United States",
      "refcode_long": "The Two-Horned Beast of Rev. XIII, a Symbol of the United States, p. 70.2 (John Norton Loughborough)",
      "refcode_short": "TBUS 70.2",
      "pub_year": "1857",
      "snippet": "… the <mark>two-horned</mark> beast? We have shown by conclusive evidence that the <mark>United States</mark> is the <mark>two-horned</mark> beast; and to say that they will pass no such laws, is to virtually …",
      "weight": 0.87,
      "group": "apl"
    },
    {
      "index": 7,
      "lang": "en",
      "para_id": "1410.162",
      "pub_code": "THB",
      "pub_name": "The Two-Horned Beast",
      "refcode_long": "The Two-Horned Beast, p. 36.1 (John Norton Loughborough)",
      "refcode_short": "THB 36.1",
      "pub_year": "1854",
      "snippet": "… these <mark>United States</mark>. But we have already seen that the <mark>United States</mark> is the <mark>two-horned</mark> beast. With definiteness we conclude, here will the image be formed; here …",
      "weight": 0.86,
      "group": "apl"
    },
    {
      "index": 8,
      "lang": "en",
      "para_id": "1693.2584",
      "pub_code": "ARSH",
      "pub_name": "Advent Review, and Sabbath Herald, vol. 10",
      "refcode_long": "Advent Review, and Sabbath Herald, vol. 10 July 9,  1857, page 73 paragraph 21",
      "refcode_short": "ARSH July 9,  1857, page 73.21",
      "pub_year": "1857",
      "snippet": "… these <mark>United States</mark>. But as we have already seen that the <mark>United States</mark> is the <mark>two-horned</mark> beast, we conclude with definiteness that the image will be formed …",
      "weight": 0.85,
      "group": "apl"
    },
    {
      "index": 9,
      "lang": "en",
      "para_id": "1419.9",
      "pub_code": "USLP",
      "pub_name": "The United States in the Light of Prophecy",
      "refcode_long": "The United States in the Light of Prophecy, p. 4 (Uriah Smith)",
      "refcode_short": "USLP 4",
      "pub_year": "1874",
      "snippet": "… <mark>TWO-HORNED</mark> BEAST 31 CHAPTER 4. CHRONOLOGY OF THE <mark>TWO-HORNED</mark> BEAST 41 CHAPTER 5. THE <mark>UNITED STATES</mark> HAVE ARISEN IN THE EXACT MANNER IN WHICH JOHN SAW THE <mark>TWO-HORNED</mark> …",
      "weight": 0.84,
      "group": "apl"
    },
    {
      "index": 10,
      "lang": "en",
      "para_id": "1644.2634",
      "pub_code": "ARSH",
      "pub_name": "The Advent Review, and Sabbath Herald, vol. 4",
      "refcode_long": "The Advent Review, and Sabbath Herald, vol. 4 September 20,  1853, page 85 paragraph 12",
      "refcode_short": "ARSH September 20,  1853, page 85.12",
      "pub_year": "1853",
      "snippet": "… the <mark>two-horned</mark> beast being France or any other power than Republican. That the <mark>United States</mark>, Civil and Ecclesiastical, is the <mark>two-horned</mark> beast is a point established …",
      "weight": 0.84,
      "group": "apl"
    },
    {
      "index": 11,
      "lang": "en",
      "para_id": "1621.376",
      "pub_code": "MANA",
      "pub_name": "The Marvel of Nations",
      "refcode_long": "The Marvel of Nations, p. 93.1 (Uriah Smith)",
      "refcode_short": "MANA 93.1",
      "pub_year": "1887",
      "snippet": "… the <mark>two-horned</mark> beast and the <mark>United States</mark> belong together? If they do, then all the symbols find an application, and all the ground is covered. If they do not …",
      "weight": 0.79,
      "group": "apl"
    },
    {
      "index": 12,
      "lang": "en",
      "para_id": "1693.2862",
      "pub_code": "ARSH",
      "pub_name": "Advent Review, and Sabbath Herald, vol. 10",
      "refcode_long": "Advent Review, and Sabbath Herald, vol. 10 July 16,  1857, page 81 paragraph 8",
      "refcode_short": "ARSH July 16,  1857, page 81.8",
      "pub_year": "1857",
      "snippet": "… the <mark>two-horned</mark> beast? We have shown by conclusive evidence that the <mark>United States</mark> is the <mark>two-horned</mark> beast; and to say that they will pass no such laws, is to virtually …",
      "weight": 0.79,
      "group": "apl"
    },
    {
      "index": 13,
      "lang": "en",
      "para_id": "1643.2642",
      "pub_code": "ARSH",
      "pub_name": "The Advent Review, and Sabbath Herald, vol. 5",
      "refcode_long": "The Advent Review, and Sabbath Herald, vol. 5 March 28,  1854, page 74 paragraph 11",
      "refcode_short": "ARSH March 28,  1854, page 74.11",
      "pub_year": "1854",
      "snippet": "… these <mark>United States</mark>. But we have already seen that the <mark>United States</mark> is the <mark>two-horned</mark> beast. With definiteness we conclude, here will the image be formed; here …",
      "weight": 0.79,
      "group": "apl"
    },
    {
      "index": 14,
      "lang": "en",
      "para_id": "12668.21094",
      "pub_code": "SDAEnc",
      "pub_name": "SDA Encyclopedia",
      "refcode_long": "SDA Encyclopedia, p. .0 (General Conference of SDA)",
      "refcode_short": "SDAEnc .0",
      "pub_year": "1966",
      "snippet": "",
      "weight": 0.78,
      "group": "bible",
      "action_required": "purchased"
    },
    {
      "index": 15,
      "lang": "en",
      "para_id": "1410.181",
      "pub_code": "THB",
      "pub_name": "The Two-Horned Beast",
      "refcode_long": "The Two-Horned Beast, p. 40.1 (John Norton Loughborough)",
      "refcode_short": "THB 40.1",
      "pub_year": "1854",
      "snippet": "… the <mark>two-horned</mark> beast. We see all other nations have abolished slavery, or declared it to be piracy, and the traffic is dying away. In the <mark>United States</mark> it still …",
      "weight": 0.78,
      "group": "apl"
    },
    {
      "index": 16,
      "lang": "en",
      "para_id": "1643.2655",
      "pub_code": "ARSH",
      "pub_name": "The Advent Review, and Sabbath Herald, vol. 5",
      "refcode_long": "The Advent Review, and Sabbath Herald, vol. 5 March 28,  1854, page 75 paragraph 9",
      "refcode_short": "ARSH March 28,  1854, page 75.9",
      "pub_year": "1854",
      "snippet": "… the <mark>two-horned</mark> beast. We see all other nations have abolished slavery, or declared it to be piracy, and the traffic is dying away. In the <mark>United States</mark> it still …",
      "weight": 0.76,
      "group": "apl"
    },
    {
      "index": 17,
      "lang": "en",
      "para_id": "1641.5688",
      "pub_code": "ARSH",
      "pub_name": "The Advent Review, and Sabbath Herald, vol. 7",
      "refcode_long": "The Advent Review, and Sabbath Herald, vol. 7 February 14,  1856, page 154 paragraph 21",
      "refcode_short": "ARSH February 14,  1856, page 154.21",
      "pub_year": "1855",
      "snippet": "… these <mark>United States</mark> of North America, which we also believe to be symbolized by the <mark>two-horned</mark> beast of Revelation 13:11, is the country and place to which the …",
      "weight": 0.76,
      "group": "apl"
    },
    {
      "index": 18,
      "lang": "en",
      "para_id": "1279.63",
      "pub_code": "AMCR",
      "pub_name": "America’s Crisis",
      "refcode_long": "America’s Crisis, p. 14.13 (Uriah Smith)",
      "refcode_short": "AMCR 14.13",
      "pub_year": "1895",
      "snippet": "… the <mark>United States</mark>; and, secondly, that if we try to apply them to any other government, they will be found to be utter failures. The <mark>two-horned</mark> beast, therefore …",
      "weight": 0.75,
      "group": "apl"
    },
    {
      "index": 19,
      "lang": "en",
      "para_id": "1641.5696",
      "pub_code": "ARSH",
      "pub_name": "The Advent Review, and Sabbath Herald, vol. 7",
      "refcode_long": "The Advent Review, and Sabbath Herald, vol. 7 February 14,  1856, page 155 paragraph 2",
      "refcode_short": "ARSH February 14,  1856, page 155.2",
      "pub_year": "1855",
      "snippet": "… ten <mark>horns</mark> of the scarlet-colored beast, we are necessarily confined to these <mark>United States</mark> as the location of the <mark>two-horned</mark> beast.",
      "weight": 0.75,
      "group": "apl"
    },
    {
      "index": 20,
      "lang": "en",
      "para_id": "1279.27",
      "pub_code": "AMCR",
      "pub_name": "America’s Crisis",
      "refcode_long": "America’s Crisis, p. 8.2 (Uriah Smith)",
      "refcode_short": "AMCR 8.2",
      "pub_year": "1895",
      "snippet": "… the <mark>two-horned</mark> beast and the <mark>United States</mark> belong together? Does the former symbolize the latter? If they do thus belong together, all the Biblical symbols …",
      "weight": 0.75,
      "group": "apl"
    },
    {
      "index": 21,
      "lang": "en",
      "para_id": "12861.2847",
      "pub_code": "DAR",
      "pub_name": "Daniel and The Revelation",
      "refcode_long": "Daniel and The Revelation, p. 545.1 (Uriah Smith)",
      "refcode_short": "DAR 545.1",
      "pub_year": "1897",
      "snippet": "… the <mark>United States</mark>, thus connecting its wonders with the work of the <mark>two-horned</mark> beast. Commencing in Hydesville, N. Y., in the family of Mr. John D. Fox, in the latter …",
      "weight": 0.75,
      "group": "apl"
    },
    {
      "index": 22,
      "lang": "en",
      "para_id": "1297.2688",
      "pub_code": "DAR1909",
      "pub_name": "Daniel and The Revelation",
      "refcode_long": "Daniel and The Revelation, p. 586.1 (Uriah Smith)",
      "refcode_short": "DAR1909 586.1",
      "pub_year": "1909",
      "snippet": "… the <mark>United States</mark>, thus connecting its wonders with the work of the <mark>two-horned</mark> beast. Commencing in Hydesville, N. Y., in the family of Mr. John D. Fox, in the latter …",
      "weight": 0.75,
      "group": "apl"
    },
    {
      "index": 23,
      "lang": "en",
      "para_id": "1693.4413",
      "pub_code": "ARSH",
      "pub_name": "Advent Review, and Sabbath Herald, vol. 10",
      "refcode_long": "Advent Review, and Sabbath Herald, vol. 10 August 20,  1857, page 124 paragraph 4",
      "refcode_short": "ARSH August 20,  1857, page 124.4",
      "pub_year": "1857",
      "snippet": "… the <mark>United States</mark> government is symbolized by the <mark>two-horned</mark> beast falls to the ground; for; that proves the seven last plagues are not all in the future, as …",
      "weight": 0.73,
      "group": "apl"
    },
    {
      "index": 24,
      "lang": "en",
      "para_id": "12517.19989",
      "pub_code": "7SDABC",
      "pub_name": "SDA Bible Commentary, vol. 7",
      "refcode_long": "SDA Bible Commentary, vol. 7, p. 854.11 (Francis Nichol-GCSDA)",
      "refcode_short": "7SDABC 854.11",
      "pub_year": "1957",
      "snippet": "",
      "weight": 0.73,
      "group": "bible",
      "action_required": "purchased"
    }
  ]
}
