{
  "next": "https://a.egwwritings.org/search?lang=en&period=all&facets=False&query=image%20to%20the%20beast&offset=25&limit=25&order=rel&snippet=long&query_type=prefer_exact",
  "previous": null,
  "total": 2899,
  "count": 2899,
  "results": [
    {
      "index": 0,
      "lang": "en",
      "para_id": "1297.2694",
      "pub_code": "DAR1909",
      "pub_name": "Daniel and The Revelation",
      "refcode_long": "Daniel and The Revelation, p. 587.2 (Uriah Smith)",
      "refcode_short": "DAR1909 587.2",
      "pub_year": "1909",
      "snippet": "… . An <mark>Image to the beast</mark>. —Closely associated with this working of miracles is <mark>the</mark> erection of an <mark>image to the beast. The</mark> prophet thus connects <mark>the</mark> two in verse …",
      "weight": 1,
      "group": "apl"
    },
    {
      "index": 1,
      "lang": "en",
      "para_id": "12861.2853",
      "pub_code": "DAR",
      "pub_name": "Daniel and The Revelation",
      "refcode_long": "Daniel and The Revelation, p. 546.2 (Uriah Smith)",
      "refcode_short": "DAR 546.2",
      "pub_year": "1897",
      "snippet": "… . An <mark>Image to the Beast</mark>. — Closely associated with this working of miracles is <mark>the</mark> erection of an <mark>image to the beast. The</mark> prophet thus connects <mark>the</mark> two in verse …",
      "weight": 1,
      "group": "apl"
    },
    {
      "index": 2,
      "lang": "en",
      "para_id": "39.1484",
      "pub_code": "LDE",
      "pub_name": "Last Day Events",
      "refcode_long": "Last Day Events, p. 228.1 (Ellen Gould White)",
      "refcode_short": "LDE 228.1",
      "pub_year": "1992",
      "snippet": "… <mark> “image to the beast</mark>”? and how is it <mark>to</mark> be formed? <mark>The image</mark> is made by <mark>the</mark> two-horned <mark>beast</mark>, and is an <mark>image to the beast</mark>. It is also called an <mark>image</mark> of <mark>the beast. [ The</mark> …",
      "weight": 0.99,
      "group": "egwwritings"
    },
    {
      "index": 3,
      "lang": "en",
      "para_id": "1136.708",
      "pub_code": "GNT",
      "pub_name": "The Great Nations of To-day",
      "refcode_long": "The Great Nations of To-day, p. 166.2 (Alonzo Trevier Jones)",
      "refcode_short": "GNT 166.2",
      "pub_year": "1901",
      "snippet": "… <mark> Beast</mark> be found? Notice that <mark>the Image</mark> of <mark>the Beast</mark> must be “made;” for it was said “<mark>to</mark> them that dwell on <mark>the</mark> earth, that they should make an <mark>image to the Beast</mark>.” And …",
      "weight": 0.91,
      "group": "apl"
    },
    {
      "index": 4,
      "lang": "en",
      "para_id": "14648.397",
      "pub_code": "3AM",
      "pub_name": "The Three Angels’ Messages",
      "refcode_long": "The Three Angels’ Messages, p. 85.4 (Ellen Gould White)",
      "refcode_short": "3AM 85.4",
      "pub_year": "2022",
      "snippet": "<mark>The image</mark> identified —What is <mark>the “image to the beast</mark>”? and how is it <mark>to</mark> be formed? <mark>The image</mark> is made by <mark>the</mark> two-horned <mark>beast</mark>, and is an <mark>image to the</mark> first <mark>beast</mark>. It is …",
      "weight": 0.9,
      "group": "egwwritings"
    },
    {
      "index": 5,
      "lang": "en",
      "para_id": "132.2003",
      "pub_code": "GC",
      "pub_name": "The Great Controversy",
      "refcode_long": "The Great Controversy, p. 443.1 (Ellen Gould White)",
      "refcode_short": "GC 443.1",
      "pub_year": "1911",
      "snippet": "… <mark>the “image to the beast</mark>”? and how is it <mark>to</mark> be formed? <mark>The image</mark> is made by <mark>the</mark> two-horned <mark>beast</mark>, and is an <mark>image to the</mark> first <mark>beast</mark>. It is also called an <mark>image</mark> of <mark>the beast</mark> …",
      "weight": 0.9,
      "group": "egwwritings"
    },
    {
      "index": 6,
      "lang": "en",
      "para_id": "1583.6402",
      "pub_code": "PFF4",
      "pub_name": "The Prophetic Faith of Our Fathers, vol. 4",
      "refcode_long": "The Prophetic Faith of Our Fathers, vol. 4, p. 1103.2 (LeRoy Edwin Froom)",
      "refcode_short": "PFF4 1103.2",
      "pub_year": "1954",
      "snippet": "… an <mark>Image to the Beast</mark>,” Sept. 19, 1854, p. 43; “<mark>Image</mark> of <mark>the Beast</mark>,” May 12, 1868, p. 340. Cornell, “They Will Make an <mark>Image to the Beast</mark>,” Review and Herald, Sept. 19, 1834, p. 43.",
      "weight": 0.86,
      "group": "apl"
    },
    {
      "index": 7,
      "lang": "en",
      "para_id": "1206.2305",
      "pub_code": "SITI",
      "pub_name": "The Signs of the Times, vol. 12",
      "refcode_long": "The Signs of the Times, vol. 12 December 23,  1886, page 776 paragraph 2",
      "refcode_short": "SITI December 23,  1886, page 776.2",
      "pub_year": "1886",
      "snippet": "… <mark>the image to the beast</mark>. That which formed <mark>the beast</mark> of <mark>the</mark> prophecy was <mark>the</mark> union of Church and State—<mark>the</mark> union of Catholicism and <mark>the</mark> State. An <mark>image to the beast</mark> …",
      "weight": 0.86,
      "group": "apl"
    },
    {
      "index": 8,
      "lang": "en",
      "para_id": "133.2011",
      "pub_code": "GC88",
      "pub_name": "The Great Controversy (1888 ed.)",
      "refcode_long": "The Great Controversy (1888 ed.), p. 443.2 (Ellen Gould White)",
      "refcode_short": "GC88 443.2",
      "pub_year": "1888",
      "snippet": "… <mark>the “image to the beast</mark>”? and how is it <mark>to</mark> be formed? <mark>The image</mark> is made by <mark>the</mark> two-horned <mark>beast</mark>, and is an <mark>image to the</mark> first <mark>beast</mark>. It is also called an <mark>image</mark> of <mark>the beast</mark> …",
      "weight": 0.85,
      "group": "egwwritings"
    },
    {
      "index": 9,
      "lang": "en",
      "para_id": "1615.367",
      "pub_code": "TAR",
      "pub_name": "The Three Angels of Revelation 14:6-12",
      "refcode_long": "The Three Angels of Revelation 14:6-12, p. 84.1 (John Nevins Andrews)",
      "refcode_short": "TAR 84.1",
      "pub_year": "1855",
      "snippet": "… of <mark>the</mark> eastern empire, it is absurd <mark>to</mark> make it also <mark>the image to the</mark> first <mark>beast</mark>. For it cannot be both <mark>the image to the beast</mark>, and <mark>the</mark> mouth of <mark>the beast</mark> also.",
      "weight": 0.84,
      "group": "apl"
    },
    {
      "index": 10,
      "lang": "en",
      "para_id": "1646.186",
      "pub_code": "ARSH",
      "pub_name": "The Advent Review, and Sabbath Herald, vol. 2",
      "refcode_long": "The Advent Review, and Sabbath Herald, vol. 2 August 5,  1851, page 4 paragraph 5",
      "refcode_short": "ARSH August 5,  1851, page 4.5",
      "pub_year": "1852",
      "snippet": "… <mark>image to the beast</mark> that received <mark>the</mark> deadly wound must be made. That <mark>beast</mark> was in truth a church clothed with civil power and authority by which it put <mark>to</mark> death …",
      "weight": 0.84,
      "group": "apl"
    },
    {
      "index": 11,
      "lang": "en",
      "para_id": "1029.528",
      "pub_code": "PREX1",
      "pub_name": "Prophetic Expositions, vol. 1",
      "refcode_long": "Prophetic Expositions, vol. 1, p. 109.2 (Josiah Litch)",
      "refcode_short": "PREX1 109.2",
      "pub_year": "1842",
      "snippet": "… <mark>image to the beast</mark> which had <mark>the</mark> deadly wound by <mark>the</mark> sword and did live. And he had power <mark>to</mark> give life <mark>to the image</mark> of <mark>the beast</mark>, that <mark>the image</mark> of <mark>the beast</mark> should …",
      "weight": 0.84,
      "group": "apl"
    },
    {
      "index": 12,
      "lang": "en",
      "para_id": "1642.7555",
      "pub_code": "ARSH",
      "pub_name": "The Advent Review, and Sabbath Herald, vol. 6",
      "refcode_long": "The Advent Review, and Sabbath Herald, vol. 6 March 20,  1855, page 195 paragraph 9",
      "refcode_short": "ARSH March 20,  1855, page 195.9",
      "pub_year": "1854",
      "snippet": "… of <mark>the</mark> eastern empire, it is absurd <mark>to</mark> make it also <mark>the image to the</mark> first <mark>beast</mark>. For it cannot be both <mark>the image to the beast</mark>, and <mark>the</mark> mouth of <mark>the beast</mark> also.",
      "weight": 0.82,
      "group": "apl"
    },
    {
      "index": 13,
      "lang": "en",
      "para_id": "945.2094",
      "pub_code": "FAFA",
      "pub_name": "Facts of Faith",
      "refcode_long": "Facts of Faith, p. 302.2 (Christian Edwardson)",
      "refcode_short": "FAFA 302.2",
      "pub_year": "1943",
      "snippet": "… is <mark>to</mark> be “an <mark>image to the beast</mark>,” it cannot be <mark>the beast</mark> itself, but must be an effort started among Protestants, who desire <mark>the</mark> aid of <mark>the</mark> state <mark>to</mark> enforce some of …",
      "weight": 0.81,
      "group": "apl"
    },
    {
      "index": 14,
      "lang": "en",
      "para_id": "1621.663",
      "pub_code": "MANA",
      "pub_name": "The Marvel of Nations",
      "refcode_long": "The Marvel of Nations, p. 160.1 (Uriah Smith)",
      "refcode_short": "MANA 160.1",
      "pub_year": "1887",
      "snippet": "… <mark>image to the beast</mark>; but it says <mark>to</mark> them that dwell on <mark>the</mark> earth, that is, <mark>the</mark> people occupying <mark>the</mark> territory where it arises, that they should make an <mark>image to the</mark> …",
      "weight": 0.81,
      "group": "apl"
    },
    {
      "index": 15,
      "lang": "en",
      "para_id": "1419.412",
      "pub_code": "USLP",
      "pub_name": "The United States in the Light of Prophecy",
      "refcode_long": "The United States in the Light of Prophecy, p. 102.1 (Uriah Smith)",
      "refcode_short": "USLP 102.1",
      "pub_year": "1874",
      "snippet": "… <mark>image to the beast</mark>; but it says <mark>to</mark> them that dwell on <mark>the</mark> earth, that is, <mark>the</mark> people occupying <mark>the</mark> territory where it arises, that they should make an <mark>image to the</mark> …",
      "weight": 0.81,
      "group": "apl"
    },
    {
      "index": 16,
      "lang": "en",
      "para_id": "1058.60",
      "pub_code": "ARSH",
      "pub_name": "The Advent Review and Sabbath Herald, vol. 69",
      "refcode_long": "The Advent Review and Sabbath Herald, vol. 69 May 31,  1892, page 339 paragraph 15",
      "refcode_short": "ARSH May 31,  1892, page 339.15",
      "pub_year": "1892",
      "snippet": "… an <mark>image to the beast</mark>, how much more are we justified in lifting up <mark>the</mark> voice and saying <mark>to</mark> all people that this is <mark>the</mark> making of <mark>the image to the beast</mark>, that that …",
      "weight": 0.8,
      "group": "apl"
    },
    {
      "index": 17,
      "lang": "en",
      "para_id": "1084.212",
      "pub_code": "AMS",
      "pub_name": "The American Sentinel 7",
      "refcode_long": "The American Sentinel 7 June 30,  1892, page 205 paragraph 1",
      "refcode_short": "AMS June 30,  1892, page 205.1",
      "pub_year": "1892",
      "snippet": "… an <mark>image to the beast</mark>, how much more are we justified in lifting up <mark>the</mark> voice and saying <mark>to</mark> all people that this is <mark>the</mark> making of <mark>the image to the beast</mark>, that that …",
      "weight": 0.8,
      "group": "apl"
    },
    {
      "index": 18,
      "lang": "en",
      "para_id": "1381.514",
      "pub_code": "TBI",
      "pub_name": "The Biblical Institute",
      "refcode_long": "The Biblical Institute, p. 103.1 (Uriah Smith)",
      "refcode_short": "TBI 103.1",
      "pub_year": "1878",
      "snippet": "… <mark>image to</mark> be made <mark>to the beast</mark>, and <mark>to</mark> enforce <mark>the</mark> reception of <mark>the</mark> mark of <mark>the beast</mark>. An <mark>image to the beast</mark> must be something resembling <mark>the beast. The beast</mark>, Catholicism …",
      "weight": 0.79,
      "group": "apl"
    },
    {
      "index": 19,
      "lang": "en",
      "para_id": "1345.231",
      "pub_code": "SYNPT",
      "pub_name": "Synopsis of the Present Truth",
      "refcode_long": "Synopsis of the Present Truth, p. 54.2 (Uriah Smith)",
      "refcode_short": "SYNPT 54.2",
      "pub_year": "1884",
      "snippet": "… <mark>image to</mark> be made <mark>to the beast</mark>, and <mark>to</mark> enforce <mark>the</mark> reception of <mark>the</mark> mark of <mark>the beast</mark>. An <mark>image to the beast</mark> must be something resembling <mark>the beast. The beast</mark>, Catholicism …",
      "weight": 0.79,
      "group": "apl"
    },
    {
      "index": 20,
      "lang": "en",
      "para_id": "1073.3861",
      "pub_code": "AMS",
      "pub_name": "The American Sentinel 10",
      "refcode_long": "The American Sentinel 10 October 10,  1895, page 313 paragraph 9",
      "refcode_short": "AMS October 10,  1895, page 313.9",
      "pub_year": "1895",
      "snippet": "… on <mark>the</mark> earth that they should make an <mark>image to the beast</mark>,” and causes them—as many as will yield <mark>to</mark> its power—<mark>to</mark> receive <mark>the</mark> “mark” of <mark>the beast</mark> in their right hand …",
      "weight": 0.79,
      "group": "apl"
    },
    {
      "index": 21,
      "lang": "en",
      "para_id": "1002.386",
      "pub_code": "GCB/GCDB",
      "pub_name": "General Conference Daily Bulletin, vol. 5",
      "refcode_long": "General Conference Daily Bulletin, vol. 5 1893, page 89 paragraph 6",
      "refcode_short": "GCB/GCDB 1893, page 89.6",
      "pub_year": "1893",
      "snippet": "… as <mark>the image</mark> of <mark>the beast</mark> has come” [Audience: “Yes, sir.”] Honest now? [Audience: “Yes.”] Now we looked for <mark>the image to the beast to</mark> come. It has come. Now what are we <mark>to</mark> look …",
      "weight": 0.79,
      "group": "apl"
    },
    {
      "index": 22,
      "lang": "en",
      "para_id": "1661.1163",
      "pub_code": "GCDB",
      "pub_name": "General Conference Daily Bulletin, vol. 5",
      "refcode_long": "General Conference Daily Bulletin, vol. 5 January 31,  1893, page 89 paragraph 6",
      "refcode_short": "GCDB January 31,  1893, page 89.6",
      "pub_year": "1893",
      "snippet": "… as <mark>the image</mark> of <mark>the beast</mark> has come? [Audience - “Yes, sir.”] Honest, now? [Audience - “Yes.”] Now we looked for <mark>the image to the beast to</mark> come. It has come. Now what are we <mark>to</mark> look …",
      "weight": 0.79,
      "group": "apl"
    },
    {
      "index": 23,
      "lang": "en",
      "para_id": "1058.111",
      "pub_code": "ARSH",
      "pub_name": "The Advent Review and Sabbath Herald, vol. 69",
      "refcode_long": "The Advent Review and Sabbath Herald, vol. 69 June 14,  1892, page 369 paragraph 4",
      "refcode_short": "ARSH June 14,  1892, page 369.4",
      "pub_year": "1892",
      "snippet": "… unto <mark>the image</mark> of <mark>the beast</mark>, that <mark>the image</mark> of <mark>the beast</mark> should both speak, and cause ,” etc. That speaks first of <mark>the image</mark> of <mark>the beast</mark>, then a living <mark>image</mark>, then a …",
      "weight": 0.79,
      "group": "apl"
    },
    {
      "index": 24,
      "lang": "en",
      "para_id": "1621.665",
      "pub_code": "MANA",
      "pub_name": "The Marvel of Nations",
      "refcode_long": "The Marvel of Nations, p. 160.3 (Uriah Smith)",
      "refcode_short": "MANA 160.3",
      "pub_year": "1887",
      "snippet": "… <mark>to</mark>, that power; and <mark>the image</mark>, when made, is an <mark>image</mark>, likeness, or representation of <mark>the beast</mark>. Verse 15. <mark>The beast</mark> after which <mark>the image</mark> is modeled is <mark>the</mark> one which …",
      "weight": 0.79,
      "group": "apl"
    }
  ]
}
