{
  "next": "https://a.egwwritings.org/search?lang=en&period=all&facets=False&query=Vicarius%20Filii%20Dei&offset=15&limit=15&order=rel&snippet=long&query_type=prefer_exact",
  "previous": null,
  "total": 65,
  "count": 65,
  "results": [
    {
      "index": 0,
      "lang": "en",
      "para_id": "12517.19161",
      "pub_code": "7SDABC",
      "pub_name": "SDA Bible Commentary, vol. 7",
      "refcode_long": "SDA Bible Commentary, vol. 7, p. 823.10 (Francis Nichol-GCSDA)",
      "refcode_short": "7SDABC 823.10",
      "pub_year": "1957",
      "snippet": "",
      "weight": 1,
      "group": "bible",
      "action_required": "purchased"
    },
    {
      "index": 1,
      "lang": "en",
      "para_id": "1579.4145",
      "pub_code": "PFF2",
      "pub_name": "The Prophetic Faith of Our Fathers, vol. 2",
      "refcode_long": "The Prophetic Faith of Our Fathers, vol. 2, p. 649.1 (LeRoy Edwin Froom)",
      "refcode_short": "PFF2 649.1",
      "pub_year": "1948",
      "snippet": "… name <mark>Vicarius Filii Dei</mark>, it is only a supplemental statement by the reprinter, first appearing in an appended section of the 1793 reprint. It is introduced …",
      "weight": 0.98,
      "group": "apl"
    },
    {
      "index": 2,
      "lang": "en",
      "para_id": "945.1551",
      "pub_code": "FAFA",
      "pub_name": "Facts of Faith",
      "refcode_long": "Facts of Faith, p. 226.1 (Christian Edwardson)",
      "refcode_short": "FAFA 226.1",
      "pub_year": "1943",
      "snippet": "… of <mark>Vicarius Filii Dei</mark> and “Vicar of Christ” as synonymous terms, and Cardinal Manning does the same in his book, “Temporal Power of the Pope.” It cannot, therefore …",
      "weight": 0.89,
      "group": "apl"
    },
    {
      "index": 3,
      "lang": "en",
      "para_id": "1579.3895",
      "pub_code": "PFF2",
      "pub_name": "The Prophetic Faith of Our Fathers, vol. 2",
      "refcode_long": "The Prophetic Faith of Our Fathers, vol. 2, p. 608.3 (LeRoy Edwin Froom)",
      "refcode_short": "PFF2 608.3",
      "pub_year": "1948",
      "snippet": "… preferred <mark>Vicarius Filii Dei</mark> of the Latin. (3) Helwig’s computation, based on <mark>Vicarius Filii Dei</mark>, was expressly stated to be an expansion of the actual historical …",
      "weight": 0.83,
      "group": "apl"
    },
    {
      "index": 4,
      "lang": "en",
      "para_id": "12669.14453",
      "pub_code": "SDASB",
      "pub_name": "SDA Bible Students’ Source Book",
      "refcode_long": "SDA Bible Students’ Source Book, p. 1069.2 (Francis Nichol-GCSDA)",
      "refcode_short": "SDASB 1069.2",
      "pub_year": "1962",
      "snippet": "",
      "weight": 0.77,
      "group": "bible",
      "action_required": "purchased"
    },
    {
      "index": 5,
      "lang": "en",
      "para_id": "12669.26540",
      "pub_code": "SDASB",
      "pub_name": "SDA Bible Students’ Source Book",
      "refcode_long": "SDA Bible Students’ Source Book, p. 1191.7 (Francis Nichol-GCSDA)",
      "refcode_short": "SDASB 1191.7",
      "pub_year": "1962",
      "snippet": "",
      "weight": 0.76,
      "group": "bible",
      "action_required": "purchased"
    },
    {
      "index": 6,
      "lang": "en",
      "para_id": "1579.3889",
      "pub_code": "PFF2",
      "pub_name": "The Prophetic Faith of Our Fathers, vol. 2",
      "refcode_long": "The Prophetic Faith of Our Fathers, vol. 2, p. 607.4 (LeRoy Edwin Froom)",
      "refcode_short": "PFF2 607.4",
      "pub_year": "1948",
      "snippet": "Helwig tells why he computes the number from <mark>Vicarius Filii Dei</mark>, when it is a lengthened equivalent of his official title <mark>Vicarius</mark> Christi.",
      "weight": 0.76,
      "group": "apl"
    },
    {
      "index": 7,
      "lang": "en",
      "para_id": "12669.14487",
      "pub_code": "SDASB",
      "pub_name": "SDA Bible Students’ Source Book",
      "refcode_long": "SDA Bible Students’ Source Book, p. 1071.1 (Francis Nichol-GCSDA)",
      "refcode_short": "SDASB 1071.1",
      "pub_year": "1962",
      "snippet": "",
      "weight": 0.75,
      "group": "bible",
      "action_required": "purchased"
    },
    {
      "index": 8,
      "lang": "en",
      "para_id": "1579.3886",
      "pub_code": "PFF2",
      "pub_name": "The Prophetic Faith of Our Fathers, vol. 2",
      "refcode_long": "The Prophetic Faith of Our Fathers, vol. 2, p. 607.2 (LeRoy Edwin Froom)",
      "refcode_short": "PFF2 607.2",
      "pub_year": "1948",
      "snippet": "Explaining his emphasis of <mark>Vicarius Filii Dei</mark>, Helwig checks it by his four rules: Ibid., sig. C2r, v.",
      "weight": 0.75,
      "group": "apl"
    },
    {
      "index": 9,
      "lang": "en",
      "para_id": "12669.27565",
      "pub_code": "SDASB",
      "pub_name": "SDA Bible Students’ Source Book",
      "refcode_long": "SDA Bible Students’ Source Book, p. 1197.3 (Francis Nichol-GCSDA)",
      "refcode_short": "SDASB 1197.3",
      "pub_year": "1962",
      "snippet": "",
      "weight": 0.74,
      "group": "bible",
      "action_required": "purchased"
    },
    {
      "index": 10,
      "lang": "en",
      "para_id": "945.1557",
      "pub_code": "FAFA",
      "pub_name": "Facts of Faith",
      "refcode_long": "Facts of Faith, p. 227.1 (Christian Edwardson)",
      "refcode_short": "FAFA 227.1",
      "pub_year": "1943",
      "snippet": "That the title, <mark>Vicarius Filii Dei</mark>, has been employed elsewhere than in Roman Catholic canon law is also asserted by Rev. B. Hoffman:",
      "weight": 0.74,
      "group": "apl"
    },
    {
      "index": 11,
      "lang": "en",
      "para_id": "1582.2829",
      "pub_code": "PFF3",
      "pub_name": "The Prophetic Faith of Our Fathers, vol. 3",
      "refcode_long": "The Prophetic Faith of Our Fathers, vol. 3, p. 412 (LeRoy Edwin Froom)",
      "refcode_short": "PFF3 412",
      "pub_year": "1946",
      "snippet": "8. <mark>VICARIUS FILII DEI</mark> “HARDLY SATISFACTORY.”",
      "weight": 0.74,
      "group": "apl"
    },
    {
      "index": 12,
      "lang": "en",
      "para_id": "1579.3871",
      "pub_code": "PFF2",
      "pub_name": "The Prophetic Faith of Our Fathers, vol. 2",
      "refcode_long": "The Prophetic Faith of Our Fathers, vol. 2, p. 605 (LeRoy Edwin Froom)",
      "refcode_short": "PFF2 605",
      "pub_year": "1948",
      "snippet": "IV. Helwig Finds 666 in <mark>Vicarius Filii Dei</mark>",
      "weight": 0.73,
      "group": "apl"
    },
    {
      "index": 13,
      "lang": "en",
      "para_id": "1579.3885",
      "pub_code": "PFF2",
      "pub_name": "The Prophetic Faith of Our Fathers, vol. 2",
      "refcode_long": "The Prophetic Faith of Our Fathers, vol. 2, p. 607 (LeRoy Edwin Froom)",
      "refcode_short": "PFF2 607",
      "pub_year": "1948",
      "snippet": "3. EXPLAINS CHOICE OF <mark>VICARIUS FILII DEI</mark>",
      "weight": 0.73,
      "group": "apl"
    },
    {
      "index": 14,
      "lang": "en",
      "para_id": "1579.4144",
      "pub_code": "PFF2",
      "pub_name": "The Prophetic Faith of Our Fathers, vol. 2",
      "refcode_long": "The Prophetic Faith of Our Fathers, vol. 2, p. 649 (LeRoy Edwin Froom)",
      "refcode_short": "PFF2 649",
      "pub_year": "1948",
      "snippet": "9. FLEMING NEVER EMPLOYED <mark>VICARIUS FILII DEI</mark>",
      "weight": 0.73,
      "group": "apl"
    }
  ]
}
