{
  "next": "https://a.egwwritings.org/search?lang=en&period=all&facets=False&query=three%20angels%20messages&offset=30&limit=30&order=rel&snippet=long&query_type=prefer_exact",
  "previous": null,
  "total": 1624,
  "count": 1624,
  "results": [
    {
      "index": 0,
      "lang": "en",
      "para_id": "949.1145",
      "pub_code": "FSDA",
      "pub_name": "Foundations of the Seventh-day Adventist Message and Mission",
      "refcode_long": "Foundations of the Seventh-day Adventist Message and Mission, p. 241.4 (Pieter Gerard Damsteegt)",
      "refcode_short": "FSDA 241.4",
      "pub_year": "1977",
      "snippet": "… the <mark>three angels’ messages</mark>. In 1850 E. G. White stressed the validity of the <mark>three angels’ messages</mark> as a central part of their missionary proclamation, indicating …",
      "weight": 1,
      "group": "apl"
    },
    {
      "index": 1,
      "lang": "en",
      "para_id": "12362.1766",
      "pub_code": "EGWEnc",
      "pub_name": "The Ellen G. White Encyclopedia",
      "refcode_long": "The Ellen G. White Encyclopedia, p. 281.1 (Denis Fortin, Jerry Moon)",
      "refcode_short": "EGWEnc 281.1",
      "pub_year": "2013",
      "snippet": "",
      "weight": 0.9,
      "group": "reference",
      "action_required": "purchased"
    },
    {
      "index": 2,
      "lang": "en",
      "para_id": "949.1272",
      "pub_code": "FSDA",
      "pub_name": "Foundations of the Seventh-day Adventist Message and Mission",
      "refcode_long": "Foundations of the Seventh-day Adventist Message and Mission, p. 268.1 (Pieter Gerard Damsteegt)",
      "refcode_short": "FSDA 268.1",
      "pub_year": "1977",
      "snippet": "… two <mark>angels’ messages</mark> was considered a prerequisite for the understanding of the third <mark>angel</mark>. The proclamation of the <mark>three angels’ messages</mark> was seen as a …",
      "weight": 0.88,
      "group": "apl"
    },
    {
      "index": 3,
      "lang": "en",
      "para_id": "12362.10938",
      "pub_code": "EGWEnc",
      "pub_name": "The Ellen G. White Encyclopedia",
      "refcode_long": "The Ellen G. White Encyclopedia, p. 1220.4 (Denis Fortin, Jerry Moon)",
      "refcode_short": "EGWEnc 1220.4",
      "pub_year": "2013",
      "snippet": "",
      "weight": 0.86,
      "group": "reference",
      "action_required": "purchased"
    },
    {
      "index": 4,
      "lang": "en",
      "para_id": "12668.15061",
      "pub_code": "SDAEnc",
      "pub_name": "SDA Encyclopedia",
      "refcode_long": "SDA Encyclopedia, p. .0 (General Conference of SDA)",
      "refcode_short": "SDAEnc .0",
      "pub_year": "1966",
      "snippet": "",
      "weight": 0.85,
      "group": "bible",
      "action_required": "purchased"
    },
    {
      "index": 5,
      "lang": "en",
      "para_id": "14805.348",
      "pub_code": "CFL",
      "pub_name": "Counsels on Future Life",
      "refcode_long": "Counsels on Future Life, p. 49.2 (Ellen G. White Estate)",
      "refcode_short": "CFL 49.2",
      "pub_year": "2025",
      "snippet": "… urgent <mark>message</mark>. https://www.adventistworld.org/the-<mark>three-angels-messages</mark>-and-the-mission-of-the-church/",
      "weight": 0.85,
      "group": "reference"
    },
    {
      "index": 6,
      "lang": "en",
      "para_id": "949.792",
      "pub_code": "FSDA",
      "pub_name": "Foundations of the Seventh-day Adventist Message and Mission",
      "refcode_long": "Foundations of the Seventh-day Adventist Message and Mission, p. 165.1 (Pieter Gerard Damsteegt)",
      "refcode_short": "FSDA 165.1",
      "pub_year": "1977",
      "snippet": "… the <mark>three angels’ messages</mark> with its focus on the third <mark>angel’s message</mark>, were central in their mission proclamation to prepare mankind for the Second Advent …",
      "weight": 0.81,
      "group": "apl"
    },
    {
      "index": 7,
      "lang": "en",
      "para_id": "656.2379",
      "pub_code": "MOL",
      "pub_name": "Messenger of the Lord",
      "refcode_long": "Messenger of the Lord, p. 260.1 (Herbert E. Douglass)",
      "refcode_short": "MOL 260.1",
      "pub_year": "1998",
      "snippet": "… past <mark>messages</mark> were pointing them the way to the heavenly sanctuary. Many saw the perfect chain of truth in the <mark>angels’ messages</mark>, and gladly received it. They …",
      "weight": 0.78,
      "group": "reference"
    },
    {
      "index": 8,
      "lang": "en",
      "para_id": "148.1413",
      "pub_code": "VSS",
      "pub_name": "The Voice in Speech and Song",
      "refcode_long": "The Voice in Speech and Song, p. 329.1 (Ellen Gould White)",
      "refcode_short": "VSS 329.1",
      "pub_year": "1988",
      "snippet": "… second <mark>angels’ messages</mark> are bound up with the third <mark>angel’s message</mark>. The power of the proclamation of the first and second <mark>angels’ messages</mark> is to be concentrated …",
      "weight": 0.78,
      "group": "egwwritings"
    },
    {
      "index": 9,
      "lang": "en",
      "para_id": "1691.6506",
      "pub_code": "ARSH",
      "pub_name": "Advent Review, and Sabbath Herald, vol. 12",
      "refcode_long": "Advent Review, and Sabbath Herald, vol. 12 October 14,  1858, page 167 paragraph 8",
      "refcode_short": "ARSH October 14,  1858, page 167.8",
      "pub_year": "1858",
      "snippet": "NOTE. We send you the tract entitled “The <mark>Three Angels</mark> of Revelation 14 ,” which we think sets forth the <mark>three angels’ messages</mark> in their true light. - ED.",
      "weight": 0.77,
      "group": "apl"
    },
    {
      "index": 10,
      "lang": "en",
      "para_id": "13959.658",
      "pub_code": "UEGW",
      "pub_name": "Understanding Ellen White",
      "refcode_long": "Understanding Ellen White, p. 112.1 (Dr. Merlin Burt)",
      "refcode_short": "UEGW 112.1",
      "pub_year": "2015",
      "snippet": "… the <mark>three angels’ messages</mark>; her role was limited to endorsing the presentations made by other speakers and writers with the exception of one vision on the …",
      "weight": 0.76,
      "group": "reference"
    },
    {
      "index": 11,
      "lang": "en",
      "para_id": "12362.10313",
      "pub_code": "EGWEnc",
      "pub_name": "The Ellen G. White Encyclopedia",
      "refcode_long": "The Ellen G. White Encyclopedia, p. 1153.4 (Denis Fortin, Jerry Moon)",
      "refcode_short": "EGWEnc 1153.4",
      "pub_year": "2013",
      "snippet": "",
      "weight": 0.76,
      "group": "reference",
      "action_required": "purchased"
    },
    {
      "index": 12,
      "lang": "en",
      "para_id": "12668.25695",
      "pub_code": "SDAEnc",
      "pub_name": "SDA Encyclopedia",
      "refcode_long": "SDA Encyclopedia, p. .0 (General Conference of SDA)",
      "refcode_short": "SDAEnc .0",
      "pub_year": "1966",
      "snippet": "",
      "weight": 0.76,
      "group": "bible",
      "action_required": "purchased"
    },
    {
      "index": 13,
      "lang": "en",
      "para_id": "14820.1819",
      "pub_code": "JTLD",
      "pub_name": "My Journey to Life - Daily Study Guide",
      "refcode_long": "My Journey to Life - Daily Study Guide, p. 308.2 (Ellen G. White Estate)",
      "refcode_short": "JTLD 308.2",
      "pub_year": "2025",
      "snippet": "The <mark>three angels’ messages</mark> of Revelation 14:6 - 12 are the heart of the gospel <mark>message</mark>. Just before Jesus returns (See Step #6, The Second Coming), Satan will deploy …",
      "weight": 0.75,
      "group": "reference"
    },
    {
      "index": 14,
      "lang": "en",
      "para_id": "14786.58",
      "pub_code": "JTL22",
      "pub_name": "My Journey to Life, Step 22—The Remnant",
      "refcode_long": "My Journey to Life, Step 22—The Remnant, p. 8.1 (Ellen G. White Estate)",
      "refcode_short": "JTL22 8.1",
      "pub_year": "",
      "snippet": "The <mark>three angels’ messages</mark> of Revelation 14:6 - 12 are the heart of the gospel <mark>message</mark>. Just before Jesus returns ( See Step #6, The Second Coming ), Satan will deploy …",
      "weight": 0.75,
      "group": "reference"
    },
    {
      "index": 15,
      "lang": "en",
      "para_id": "99.573",
      "pub_code": "2SM",
      "pub_name": "Selected Messages Book 2",
      "refcode_long": "Selected Messages Book 2, p. 101.1 (Ellen Gould White)",
      "refcode_short": "2SM 101.1",
      "pub_year": "1958",
      "snippet": "… other <mark>angel</mark> of Revelation 18:1. Some erroneous teachings through the years have involved as well the <mark>messages</mark> of the <mark>three angels</mark> of Revelation 14. Such was …",
      "weight": 0.73,
      "group": "egwwritings"
    },
    {
      "index": 16,
      "lang": "en",
      "para_id": "12362.10937",
      "pub_code": "EGWEnc",
      "pub_name": "The Ellen G. White Encyclopedia",
      "refcode_long": "The Ellen G. White Encyclopedia, p. 1220.3 (Denis Fortin, Jerry Moon)",
      "refcode_short": "EGWEnc 1220.3",
      "pub_year": "2013",
      "snippet": "",
      "weight": 0.73,
      "group": "reference",
      "action_required": "purchased"
    },
    {
      "index": 17,
      "lang": "en",
      "para_id": "643.170",
      "pub_code": "SWhite",
      "pub_name": "Sister White",
      "refcode_long": "Sister White, p. 36.2 (Arthur Whitefield Spalding)",
      "refcode_short": "SWhite 36.2",
      "pub_year": "1950",
      "snippet": "… third <mark>angel’s message</mark>, though now we speak of the <mark>three angels’ messages</mark> joined in one; that is: Worship God, who made heaven and earth; receive the Lord Jesus …",
      "weight": 0.72,
      "group": "reference"
    },
    {
      "index": 18,
      "lang": "en",
      "para_id": "12362.10919",
      "pub_code": "EGWEnc",
      "pub_name": "The Ellen G. White Encyclopedia",
      "refcode_long": "The Ellen G. White Encyclopedia, p. 1218.10 (Denis Fortin, Jerry Moon)",
      "refcode_short": "EGWEnc 1218.10",
      "pub_year": "2013",
      "snippet": "",
      "weight": 0.71,
      "group": "reference",
      "action_required": "purchased"
    },
    {
      "index": 19,
      "lang": "en",
      "para_id": "12668.7993",
      "pub_code": "SDAEnc",
      "pub_name": "SDA Encyclopedia",
      "refcode_long": "SDA Encyclopedia, p. .0 (General Conference of SDA)",
      "refcode_short": "SDAEnc .0",
      "pub_year": "1966",
      "snippet": "",
      "weight": 0.71,
      "group": "bible",
      "action_required": "purchased"
    },
    {
      "index": 20,
      "lang": "en",
      "para_id": "12668.25652",
      "pub_code": "SDAEnc",
      "pub_name": "SDA Encyclopedia",
      "refcode_long": "SDA Encyclopedia, p. .0 (General Conference of SDA)",
      "refcode_short": "SDAEnc .0",
      "pub_year": "1966",
      "snippet": "",
      "weight": 0.71,
      "group": "bible",
      "action_required": "purchased"
    },
    {
      "index": 21,
      "lang": "en",
      "para_id": "12362.6782",
      "pub_code": "EGWEnc",
      "pub_name": "The Ellen G. White Encyclopedia",
      "refcode_long": "The Ellen G. White Encyclopedia, p. 776.2 (Denis Fortin, Jerry Moon)",
      "refcode_short": "EGWEnc 776.2",
      "pub_year": "2013",
      "snippet": "",
      "weight": 0.71,
      "group": "reference",
      "action_required": "purchased"
    },
    {
      "index": 22,
      "lang": "en",
      "para_id": "100.2439",
      "pub_code": "3SM",
      "pub_name": "Selected Messages Book 3",
      "refcode_long": "Selected Messages Book 3, p. 405.2 (Ellen Gould White)",
      "refcode_short": "3SM 405.2",
      "pub_year": "1980",
      "snippet": "… the <mark>Three Angels’ Messages</mark> —The third <mark>angel</mark> is represented as flying in the midst of heaven, symbolizing the work of those who proclaim the first, second, and …",
      "weight": 0.71,
      "group": "egwwritings"
    },
    {
      "index": 23,
      "lang": "en",
      "para_id": "12667.7956",
      "pub_code": "1EGWLM",
      "pub_name": "The Ellen G. White Letters and Manuscripts: Volume 1",
      "refcode_long": "The Ellen G. White Letters and Manuscripts: Volume 1, p. 973.57 (Ellen Gould White)",
      "refcode_short": "1EGWLM 973.57",
      "pub_year": "2014",
      "snippet": "<mark>Three angels’ messages</mark>",
      "weight": 0.71,
      "group": "egwwritings"
    },
    {
      "index": 24,
      "lang": "en",
      "para_id": "14805.296",
      "pub_code": "CFL",
      "pub_name": "Counsels on Future Life",
      "refcode_long": "Counsels on Future Life, p. 42.1 (Ellen G. White Estate)",
      "refcode_short": "CFL 42.1",
      "pub_year": "2025",
      "snippet": "Picture: <mark>THREE ANGELS’ MESSAGES</mark>",
      "weight": 0.71,
      "group": "reference"
    },
    {
      "index": 25,
      "lang": "en",
      "para_id": "12668.22683",
      "pub_code": "SDAEnc",
      "pub_name": "SDA Encyclopedia",
      "refcode_long": "SDA Encyclopedia, p. .0 (General Conference of SDA)",
      "refcode_short": "SDAEnc .0",
      "pub_year": "1966",
      "snippet": "",
      "weight": 0.71,
      "group": "bible",
      "action_required": "purchased"
    },
    {
      "index": 26,
      "lang": "en",
      "para_id": "14019.35",
      "pub_code": "CS-SG",
      "pub_name": "Counsels on Stewardship -- Study Guide",
      "refcode_long": "Counsels on Stewardship -- Study Guide, p. 4.7 (Ellen G. White Estate)",
      "refcode_short": "CS-SG 4.7",
      "pub_year": "1979",
      "snippet": "The <mark>three angels’ messages</mark>? Yes!",
      "weight": 0.71,
      "group": "reference"
    },
    {
      "index": 27,
      "lang": "en",
      "para_id": "14805.299",
      "pub_code": "CFL",
      "pub_name": "Counsels on Future Life",
      "refcode_long": "Counsels on Future Life, p. 43.1 (Ellen G. White Estate)",
      "refcode_short": "CFL 43.1",
      "pub_year": "2025",
      "snippet": "Picture: Counsel #1 — <mark>Three Angels’ Messages</mark> — Historical Intro",
      "weight": 0.7,
      "group": "reference"
    },
    {
      "index": 28,
      "lang": "en",
      "para_id": "933.4727",
      "pub_code": "SBBS",
      "pub_name": "Source Book for Bible Students",
      "refcode_long": "Source Book for Bible Students, p. 556.9 (General Conference of SDA)",
      "refcode_short": "SBBS 556.9",
      "pub_year": "1919",
      "snippet": "<mark>Three Angels’ Messages</mark>. — See Advent, Second, 22-25.",
      "weight": 0.7,
      "group": "apl"
    },
    {
      "index": 29,
      "lang": "en",
      "para_id": "12667.1457",
      "pub_code": "1EGWLM",
      "pub_name": "The Ellen G. White Letters and Manuscripts: Volume 1",
      "refcode_long": "The Ellen G. White Letters and Manuscripts: Volume 1, p. 272.2 (Ellen Gould White)",
      "refcode_short": "1EGWLM 272.2",
      "pub_year": "2014",
      "snippet": "… the <mark>message</mark> should be the first, second, and third <mark>angels’ messages</mark>, and those who had any hope in God would yield to the force of that truth. How mighty and glorious …",
      "weight": 0.7,
      "group": "egwwritings"
    }
  ]
}
