{
  "next": "https://a.egwwritings.org/search?lang=en&period=all&facets=False&query=loud%20cry%20latter%20rain&offset=25&limit=25&order=rel&snippet=long&query_type=prefer_exact",
  "previous": null,
  "total": 121,
  "count": 121,
  "results": [
    {
      "index": 0,
      "lang": "en",
      "para_id": "1002.887",
      "pub_code": "GCB/GCDB",
      "pub_name": "General Conference Daily Bulletin, vol. 5",
      "refcode_long": "General Conference Daily Bulletin, vol. 5 1893, page 183 paragraph 5",
      "refcode_short": "GCB/GCDB 1893, page 183.5",
      "pub_year": "1893",
      "snippet": "… <mark>latter rain</mark>. Then what did the brethren in that fearful position in which they stood, reject at Minneapolis? They rejected the <mark>latter rain</mark>—the <mark>loud cry</mark> of the …",
      "weight": 1,
      "group": "apl"
    },
    {
      "index": 1,
      "lang": "en",
      "para_id": "1661.2326",
      "pub_code": "GCDB",
      "pub_name": "General Conference Daily Bulletin, vol. 5",
      "refcode_long": "General Conference Daily Bulletin, vol. 5 February 7,  1893, page 183 paragraph 5",
      "refcode_short": "GCDB February 7,  1893, page 183.5",
      "pub_year": "1893",
      "snippet": "… <mark>latter rain</mark>. Then what did the brethren in that fearful position in which they stood, reject at Minneapolis? They rejected the <mark>latter rain</mark> - the <mark>loud cry</mark> of the …",
      "weight": 1,
      "group": "apl"
    },
    {
      "index": 2,
      "lang": "en",
      "para_id": "14648.670",
      "pub_code": "3AM",
      "pub_name": "The Three Angels’ Messages",
      "refcode_long": "The Three Angels’ Messages, p. 142.5 (Ellen Gould White)",
      "refcode_short": "3AM 142.5",
      "pub_year": "2022",
      "snippet": "The <mark>latter rain</mark> accompanies the <mark>loud cry</mark> —As the members of the body of Christ approach the period of their last conflict, “the time of Jacob’s trouble,” they …",
      "weight": 0.89,
      "group": "egwwritings"
    },
    {
      "index": 3,
      "lang": "en",
      "para_id": "1661.465",
      "pub_code": "GCDB",
      "pub_name": "General Conference Daily Bulletin, vol. 5",
      "refcode_long": "General Conference Daily Bulletin, vol. 5 January 29,  1893, page 39 paragraph 4",
      "refcode_short": "GCDB January 29,  1893, page 39.4",
      "pub_year": "1893",
      "snippet": "… . The <mark>loud cry</mark> and the <mark>latter rain</mark> go together. As the time has come for the <mark>loud cry</mark> it has also come for the <mark>latter rain</mark>, and we are to ask for it.",
      "weight": 0.89,
      "group": "apl"
    },
    {
      "index": 4,
      "lang": "en",
      "para_id": "1002.1376",
      "pub_code": "GCB/GCDB",
      "pub_name": "General Conference Daily Bulletin, vol. 5",
      "refcode_long": "General Conference Daily Bulletin, vol. 5 1893, page 359 paragraph 2",
      "refcode_short": "GCB/GCDB 1893, page 359.2",
      "pub_year": "1893",
      "snippet": "… the <mark>latter rain</mark>? [Congregation: “The teaching of righteousness according to righteousness.”] What is the <mark>loud cry</mark>? [Congregation: “The message of the righteousness …",
      "weight": 0.86,
      "group": "apl"
    },
    {
      "index": 5,
      "lang": "en",
      "para_id": "1661.4762",
      "pub_code": "GCDB",
      "pub_name": "General Conference Daily Bulletin, vol. 5",
      "refcode_long": "General Conference Daily Bulletin, vol. 5 February 23,  1893, page 359 paragraph 2",
      "refcode_short": "GCDB February 23,  1893, page 359.2",
      "pub_year": "1893",
      "snippet": "… the <mark>latter rain</mark>? [Congregation: “The teaching of righteousness according to righteousness.”] What is the <mark>loud cry</mark>? [Congregation: “The message of the righteousness …",
      "weight": 0.86,
      "group": "apl"
    },
    {
      "index": 6,
      "lang": "en",
      "para_id": "12668.13031",
      "pub_code": "SDAEnc",
      "pub_name": "SDA Encyclopedia",
      "refcode_long": "SDA Encyclopedia, p. .0 (General Conference of SDA)",
      "refcode_short": "SDAEnc .0",
      "pub_year": "1966",
      "snippet": "",
      "weight": 0.84,
      "group": "bible",
      "action_required": "purchased"
    },
    {
      "index": 7,
      "lang": "en",
      "para_id": "1660.2976",
      "pub_code": "GCDB",
      "pub_name": "General Conference Daily Bulletin, vol. 8",
      "refcode_long": "General Conference Daily Bulletin, vol. 8 February 27,  1899, page 96 paragraph 7",
      "refcode_short": "GCDB February 27,  1899, page 96.7",
      "pub_year": "1899",
      "snippet": "… the <mark>latter rain</mark> and the <mark>loud cry</mark>. The rising and falling must stop, and stop forever. “But,” says one, “I will be all right, if probation closes when I am up .” No, sir. We must …",
      "weight": 0.81,
      "group": "apl"
    },
    {
      "index": 8,
      "lang": "en",
      "para_id": "1661.4765",
      "pub_code": "GCDB",
      "pub_name": "General Conference Daily Bulletin, vol. 5",
      "refcode_long": "General Conference Daily Bulletin, vol. 5 February 23,  1893, page 359 paragraph 5",
      "refcode_short": "GCDB February 23,  1893, page 359.5",
      "pub_year": "1893",
      "snippet": "… the <mark>latter rain</mark>? [Congregation: “Righteousness.”] Are we in the time of the <mark>latter rain</mark>? [Congregation: “Yes.”] What are we to ask for? [Congregation: “<mark>Rain</mark>.”] What is it? [Congregation …",
      "weight": 0.8,
      "group": "apl"
    },
    {
      "index": 9,
      "lang": "en",
      "para_id": "14805.441",
      "pub_code": "CFL",
      "pub_name": "Counsels on Future Life",
      "refcode_long": "Counsels on Future Life, p. 63.2 (Ellen G. White Estate)",
      "refcode_short": "CFL 63.2",
      "pub_year": "2025",
      "snippet": "… /the-<mark>latter-rain</mark>-and-the-<mark>loud-cry</mark>",
      "weight": 0.79,
      "group": "reference"
    },
    {
      "index": 10,
      "lang": "en",
      "para_id": "1134.328",
      "pub_code": "HOMI",
      "pub_name": "The Home Missionary, vol. 5",
      "refcode_long": "The Home Missionary, vol. 5 October 1893, page 193 paragraph 7",
      "refcode_short": "HOMI October 1893, page 193.7",
      "pub_year": "1893",
      "snippet": "Thus prepared! thus prepared! How is that? Why, by the words of this message, by the <mark>loud cry</mark> of this angel, by the time of refreshing, by the <mark>latter rain</mark>, the <mark>loud cry</mark>,—it is all one.",
      "weight": 0.79,
      "group": "apl"
    },
    {
      "index": 11,
      "lang": "en",
      "para_id": "1002.1010",
      "pub_code": "GCB/GCDB",
      "pub_name": "General Conference Daily Bulletin, vol. 5",
      "refcode_long": "General Conference Daily Bulletin, vol. 5 1893, page 242 paragraph 5",
      "refcode_short": "GCB/GCDB 1893, page 242.5",
      "pub_year": "1893",
      "snippet": "… former <mark>rain</mark>? And He will give you “the <mark>rain</mark>, the former <mark>rain</mark>, and the <mark>latter rain</mark>,” as at the first. What will the <mark>latter rain</mark> be? “A teacher of righteousness” again. According …",
      "weight": 0.77,
      "group": "apl"
    },
    {
      "index": 12,
      "lang": "en",
      "para_id": "1661.3068",
      "pub_code": "GCDB",
      "pub_name": "General Conference Daily Bulletin, vol. 5",
      "refcode_long": "General Conference Daily Bulletin, vol. 5 February 13,  1893, page 242 paragraph 9",
      "refcode_short": "GCDB February 13,  1893, page 242.9",
      "pub_year": "1893",
      "snippet": "… former <mark>rain</mark>? And he will give you “the <mark>rain</mark>, the former <mark>rain</mark>, and the <mark>latter rain</mark>,” as at the first. What will the <mark>latter rain</mark> be? - “A teacher of righteousness” again. According …",
      "weight": 0.77,
      "group": "apl"
    },
    {
      "index": 13,
      "lang": "en",
      "para_id": "14648.675",
      "pub_code": "3AM",
      "pub_name": "The Three Angels’ Messages",
      "refcode_long": "The Three Angels’ Messages, p. 143.3 (Ellen Gould White)",
      "refcode_short": "3AM 143.3",
      "pub_year": "2022",
      "snippet": "… the <mark>loud cry</mark> —We must get ready for the <mark>latter rain</mark>. The earth is to be lighted with the glory of the third angel—not a little corner only, but the whole earth. You …",
      "weight": 0.77,
      "group": "egwwritings"
    },
    {
      "index": 14,
      "lang": "en",
      "para_id": "1002.1379",
      "pub_code": "GCB/GCDB",
      "pub_name": "General Conference Daily Bulletin, vol. 5",
      "refcode_long": "General Conference Daily Bulletin, vol. 5 1893, page 359 paragraph 5",
      "refcode_short": "GCB/GCDB 1893, page 359.5",
      "pub_year": "1893",
      "snippet": "… the <mark>latter rain</mark>? [Congregation: “Righteousness.”] Are we in the time of the <mark>latter rain</mark>? [Congregation: “Yes.”] What are we to ask for? [Congregation: “<mark>Rain</mark>.”] What is it? [Congregation …",
      "weight": 0.76,
      "group": "apl"
    },
    {
      "index": 15,
      "lang": "en",
      "para_id": "1002.1377",
      "pub_code": "GCB/GCDB",
      "pub_name": "General Conference Daily Bulletin, vol. 5",
      "refcode_long": "General Conference Daily Bulletin, vol. 5 1893, page 359 paragraph 3",
      "refcode_short": "GCB/GCDB 1893, page 359.3",
      "pub_year": "1893",
      "snippet": "… the <mark>latter rain</mark>; that is the righteousness of Christ. Is that so? [Congregation: “Yes.”] The <mark>latter rain</mark> comes down from heaven. How much of that <mark>latter rain</mark> comes …",
      "weight": 0.75,
      "group": "apl"
    },
    {
      "index": 16,
      "lang": "en",
      "para_id": "1661.4763",
      "pub_code": "GCDB",
      "pub_name": "General Conference Daily Bulletin, vol. 5",
      "refcode_long": "General Conference Daily Bulletin, vol. 5 February 23,  1893, page 359 paragraph 3",
      "refcode_short": "GCDB February 23,  1893, page 359.3",
      "pub_year": "1893",
      "snippet": "… the <mark>latter rain</mark>; that is the righteousness of Christ. Is that so? [Congregation: “Yes.”] The <mark>latter rain</mark> comes down from heaven. How much of that <mark>latter rain</mark> comes …",
      "weight": 0.75,
      "group": "apl"
    },
    {
      "index": 17,
      "lang": "en",
      "para_id": "12362.8447",
      "pub_code": "EGWEnc",
      "pub_name": "The Ellen G. White Encyclopedia",
      "refcode_long": "The Ellen G. White Encyclopedia, p. 950.3 (Denis Fortin, Jerry Moon)",
      "refcode_short": "EGWEnc 950.3",
      "pub_year": "2013",
      "snippet": "",
      "weight": 0.75,
      "group": "reference",
      "action_required": "purchased"
    },
    {
      "index": 18,
      "lang": "en",
      "para_id": "1002.1022",
      "pub_code": "GCB/GCDB",
      "pub_name": "General Conference Daily Bulletin, vol. 5",
      "refcode_long": "General Conference Daily Bulletin, vol. 5 1893, page 243 paragraph 10",
      "refcode_short": "GCB/GCDB 1893, page 243.10",
      "pub_year": "1893",
      "snippet": "… the <mark>loud cry</mark>. It is the <mark>latter rain</mark>. We have been praying for the <mark>latter rain</mark> here at this Conference already, haven’t we? Have you? [Congregation: “Yes, sir.”] What were …",
      "weight": 0.74,
      "group": "apl"
    },
    {
      "index": 19,
      "lang": "en",
      "para_id": "1661.3080",
      "pub_code": "GCDB",
      "pub_name": "General Conference Daily Bulletin, vol. 5",
      "refcode_long": "General Conference Daily Bulletin, vol. 5 February 13,  1893, page 243 paragraph 10",
      "refcode_short": "GCDB February 13,  1893, page 243.10",
      "pub_year": "1893",
      "snippet": "… the <mark>loud cry</mark>. It is the <mark>latter rain</mark>. We have been praying for the <mark>latter rain</mark> here at this Conference already, haven’t we? Have you? [Congregation: “Yes sir.”] What were …",
      "weight": 0.74,
      "group": "apl"
    },
    {
      "index": 20,
      "lang": "en",
      "para_id": "1134.161",
      "pub_code": "HOMI",
      "pub_name": "The Home Missionary, vol. 5",
      "refcode_long": "The Home Missionary, vol. 5 August 1893, page 5 paragraph 2",
      "refcode_short": "HOMI August 1893, page 5.2",
      "pub_year": "1893",
      "snippet": "… the <mark>loud cry</mark> of the third angel? Has the <mark>latter rain</mark> been falling? Has the time of refreshing come? When did the <mark>latter rain</mark> begin? We had the word direct here at …",
      "weight": 0.74,
      "group": "apl"
    },
    {
      "index": 21,
      "lang": "en",
      "para_id": "12362.8205",
      "pub_code": "EGWEnc",
      "pub_name": "The Ellen G. White Encyclopedia",
      "refcode_long": "The Ellen G. White Encyclopedia, p. 926.1 (Denis Fortin, Jerry Moon)",
      "refcode_short": "EGWEnc 926.1",
      "pub_year": "2013",
      "snippet": "",
      "weight": 0.73,
      "group": "reference",
      "action_required": "purchased"
    },
    {
      "index": 22,
      "lang": "en",
      "para_id": "96.1096",
      "pub_code": "7BC",
      "pub_name": "EGW SDA Bible Commentary, vol. 7",
      "refcode_long": "EGW SDA Bible Commentary, vol. 7, p. 984.4 (Ellen Gould White)",
      "refcode_short": "7BC 984.4",
      "pub_year": "1957",
      "snippet": "… a <mark>loud cry</mark>, and as great power and glory attend the closing work, the faithful people of God will partake of that glory. It is the <mark>latter rain</mark> which revives and …",
      "weight": 0.73,
      "group": "bible"
    },
    {
      "index": 23,
      "lang": "en",
      "para_id": "1002.1021",
      "pub_code": "GCB/GCDB",
      "pub_name": "General Conference Daily Bulletin, vol. 5",
      "refcode_long": "General Conference Daily Bulletin, vol. 5 1893, page 243 paragraph 9",
      "refcode_short": "GCB/GCDB 1893, page 243.9",
      "pub_year": "1893",
      "snippet": "… , the <mark>latter rain</mark> is the <mark>loud cry</mark> of the third angel’s message; it is the beginning of that message of glory that lightens the earth. But the <mark>latter rain</mark> is the …",
      "weight": 0.73,
      "group": "apl"
    },
    {
      "index": 24,
      "lang": "en",
      "para_id": "1661.3079",
      "pub_code": "GCDB",
      "pub_name": "General Conference Daily Bulletin, vol. 5",
      "refcode_long": "General Conference Daily Bulletin, vol. 5 February 13,  1893, page 243 paragraph 9",
      "refcode_short": "GCDB February 13,  1893, page 243.9",
      "pub_year": "1893",
      "snippet": "… , the <mark>latter rain</mark> is the <mark>loud cry</mark> of the third angel’s message; it is the beginning of that message of glory that lightens the earth. But the <mark>latter rain</mark> is the …",
      "weight": 0.73,
      "group": "apl"
    }
  ]
}
