{
  "next": "https://a.egwwritings.org/search?lang=en&period=all&facets=False&query=Sunday%20law%20mark%20beast&offset=25&limit=25&order=rel&snippet=long&query_type=prefer_exact",
  "previous": null,
  "total": 152,
  "count": 152,
  "results": [
    {
      "index": 0,
      "lang": "en",
      "para_id": "1541.5536",
      "pub_code": "SITI",
      "pub_name": "The Signs of the Times, vol. 14",
      "refcode_long": "The Signs of the Times, vol. 14 December 21,  1888, page 784 paragraph 10",
      "refcode_short": "SITI December 21,  1888, page 784.10",
      "pub_year": "1888",
      "snippet": "… these <mark>Sunday-law</mark> petitions were hung. It was a “seemingly endless broad scarlet ribbon.” Inasmuch as the <mark>Sunday</mark> institution is the child of the woman arrayed …",
      "weight": 1,
      "group": "apl"
    },
    {
      "index": 1,
      "lang": "en",
      "para_id": "14648.518",
      "pub_code": "3AM",
      "pub_name": "The Three Angels’ Messages",
      "refcode_long": "The Three Angels’ Messages, p. 109.3 (Ellen Gould White)",
      "refcode_short": "3AM 109.3",
      "pub_year": "2022",
      "snippet": "… the <mark>Sunday law</mark>. Through union with opposers of the Sabbath of the fourth commandment—the seventh day Sabbath—men will receive the <mark>mark</mark> of the <mark>beast</mark>. And all …",
      "weight": 0.87,
      "group": "egwwritings"
    },
    {
      "index": 2,
      "lang": "en",
      "para_id": "1297.2542",
      "pub_code": "DAR1909",
      "pub_name": "Daniel and The Revelation",
      "refcode_long": "Daniel and The Revelation",
      "refcode_short": "DAR1909",
      "pub_year": "1909",
      "snippet": "… <mark>Mark</mark> of the <mark>Beast</mark> - Catholic Authority on the Change of the Sabbath - The National Reform Movement - Christian Endeavor Society - Progress of the <mark>Sunday Law</mark> Movement …",
      "weight": 0.84,
      "group": "apl"
    },
    {
      "index": 3,
      "lang": "en",
      "para_id": "14065.9610017",
      "pub_code": "15LtMs",
      "pub_name": "Letters and Manuscripts — Volume 15 (1900)",
      "refcode_long": "Letters and Manuscripts — Volume 15 (1900), Lt 118, 1900, par. 11",
      "refcode_short": "15LtMs, Lt 118, 1900, par. 11",
      "pub_year": "1900",
      "snippet": "… the <mark>Sunday law</mark>. Through union with opposers of the Sabbath of the fourth commandment—the seventh day Sabbath—men will receive the <mark>mark</mark> of the <mark>beast</mark>. And all …",
      "weight": 0.8,
      "group": "egwwritings"
    },
    {
      "index": 4,
      "lang": "en",
      "para_id": "1087.2311",
      "pub_code": "AMS",
      "pub_name": "The American Sentinel 9",
      "refcode_long": "The American Sentinel 9 November 1,  1894, page 337 paragraph 5",
      "refcode_short": "AMS November 1,  1894, page 337.5",
      "pub_year": "1894",
      "snippet": "… the <mark>beast</mark> and his image by observing the papal <mark>Sunday</mark> enforced by <mark>laws</mark> which are made in the image of papal policy? “If any man worship the <mark>beast</mark> or his image …",
      "weight": 0.75,
      "group": "apl"
    },
    {
      "index": 5,
      "lang": "en",
      "para_id": "821.31752",
      "pub_code": "RH",
      "pub_name": "The Review and Herald",
      "refcode_long": "The Review and Herald April 6,  1911, paragraph 2",
      "refcode_short": "RH April 6,  1911, par. 2",
      "pub_year": "1851",
      "snippet": "… a <mark>Sunday law</mark> was being enforced, to refrain from such labor under any conditions would be a denial of faith, and would involve receiving the <mark>mark</mark> of the <mark>beast</mark> …",
      "weight": 0.74,
      "group": "egwwritings"
    },
    {
      "index": 6,
      "lang": "en",
      "para_id": "14266.598",
      "pub_code": "GP",
      "pub_name": "The Gift of Prophecy (The Role of Ellen White in God’s Remnant Church)",
      "refcode_long": "The Gift of Prophecy (The Role of Ellen White in God’s Remnant Church), p. 89.5 (Gerhard Pfandl)",
      "refcode_short": "GP 89.5",
      "pub_year": "2008",
      "snippet": "… <mark></mark>, and they will issue a universal <mark>Sunday law</mark> that will culminate in a death decree for God’s true followers and the reception of the <mark>mark</mark> of the <mark>beast</mark> by …",
      "weight": 0.72,
      "group": "reference"
    },
    {
      "index": 7,
      "lang": "en",
      "para_id": "14648.38",
      "pub_code": "3AM",
      "pub_name": "The Three Angels’ Messages",
      "refcode_long": "The Three Angels’ Messages, p. 13.4 (Ellen Gould White)",
      "refcode_short": "3AM 13.4",
      "pub_year": "2022",
      "snippet": "… national <mark>Sunday law</mark>, many Seventh-day Adventists looked for the rapid proclamation of the “loud cry” as the gospel went to all the world. Yet Ellen White was …",
      "weight": 0.69,
      "group": "egwwritings"
    },
    {
      "index": 8,
      "lang": "en",
      "para_id": "1519.7094",
      "pub_code": "PTUK",
      "pub_name": "The Present Truth, vol. 11",
      "refcode_long": "The Present Truth, vol. 11 November 14,  1895, page 726 paragraph 10",
      "refcode_short": "PTUK November 14,  1895, page 726.10",
      "pub_year": "1895",
      "snippet": "… on <mark>Sundays</mark>, even in private shops at home, because such labour would be unfair competition with those who are compelled to rest. The <mark>Sunday-law</mark> rule is, “The liberty …",
      "weight": 0.65,
      "group": "apl"
    },
    {
      "index": 9,
      "lang": "en",
      "para_id": "1671.3716",
      "pub_code": "GCB",
      "pub_name": "General Conference Bulletin, vol. 3",
      "refcode_long": "General Conference Bulletin, vol. 3 October 1,  1899, page 91 paragraph 4",
      "refcode_short": "GCB October 1,  1899, page 91.4",
      "pub_year": "1899",
      "snippet": "… the <mark>beast</mark> and his image, and the reception of his <mark>mark</mark>. We must not forget that the <mark>Sunday-law</mark> advocates were never more thoroughly entrenched than at present …",
      "weight": 0.56,
      "group": "apl"
    },
    {
      "index": 10,
      "lang": "en",
      "para_id": "1668.2565",
      "pub_code": "GCB",
      "pub_name": "General Conference Bulletin, vol. 6",
      "refcode_long": "General Conference Bulletin, vol. 6 May 21,  1909, page 100 paragraph 2",
      "refcode_short": "GCB May 21,  1909, page 100.2",
      "pub_year": "1909",
      "snippet": "… on <mark>Sunday</mark>, and every week fines are being paid for breaking the <mark>Sunday law</mark>. When the world unites—if not before—in enforcing the <mark>mark</mark> of the <mark>beast</mark>, South Africa …",
      "weight": 0.56,
      "group": "apl"
    },
    {
      "index": 11,
      "lang": "en",
      "para_id": "1621.1387",
      "pub_code": "MANA",
      "pub_name": "The Marvel of Nations",
      "refcode_long": "The Marvel of Nations, p. 294 (Uriah Smith)",
      "refcode_short": "MANA 294",
      "pub_year": "1887",
      "snippet": "… enforce <mark>Sunday</mark> as a civil institution. 215 Making an image. 159 <mark>Mark</mark> of <mark>beast</mark> — by whom enforced. 169 <mark>Mark</mark> of <mark>beast</mark> — what? 172 Meaning of Greek anabainon. 126 Meaning …",
      "weight": 0.38,
      "group": "apl"
    },
    {
      "index": 12,
      "lang": "en",
      "para_id": "12861.2939",
      "pub_code": "DAR",
      "pub_name": "Daniel and The Revelation",
      "refcode_long": "Daniel and The Revelation, p. 560.1 (Uriah Smith)",
      "refcode_short": "DAR 560.1",
      "pub_year": "1897",
      "snippet": "… : The <mark>mark</mark> and worship of the <mark>beast</mark> are enforced by the two-horned <mark>beast</mark>. The receiving of the <mark>mark</mark> of the <mark>beast</mark> is a specific act which the two-horned <mark>beast</mark> is …",
      "weight": 0.35,
      "group": "apl"
    },
    {
      "index": 13,
      "lang": "en",
      "para_id": "1297.2804",
      "pub_code": "DAR1909",
      "pub_name": "Daniel and The Revelation",
      "refcode_long": "Daniel and The Revelation, p. 606.2 (Uriah Smith)",
      "refcode_short": "DAR1909 606.2",
      "pub_year": "1909",
      "snippet": "… : The <mark>mark</mark> and worship of the <mark>beast</mark> are enforced by the two-horned <mark>beast</mark>. The receiving of the <mark>mark</mark> of the <mark>beast</mark> is a specific act which the two-horned <mark>beast</mark> is …",
      "weight": 0.35,
      "group": "apl"
    },
    {
      "index": 14,
      "lang": "en",
      "para_id": "12668.14434",
      "pub_code": "SDAEnc",
      "pub_name": "SDA Encyclopedia",
      "refcode_long": "SDA Encyclopedia, p. .0 (General Conference of SDA)",
      "refcode_short": "SDAEnc .0",
      "pub_year": "1966",
      "snippet": "",
      "weight": 0.34,
      "group": "bible",
      "action_required": "purchased"
    },
    {
      "index": 15,
      "lang": "en",
      "para_id": "12517.19134",
      "pub_code": "7SDABC",
      "pub_name": "SDA Bible Commentary, vol. 7",
      "refcode_long": "SDA Bible Commentary, vol. 7, p. 822.7 (Francis Nichol-GCSDA)",
      "refcode_short": "7SDABC 822.7",
      "pub_year": "1957",
      "snippet": "",
      "weight": 0.34,
      "group": "bible",
      "action_required": "purchased"
    },
    {
      "index": 16,
      "lang": "en",
      "para_id": "12269.1566",
      "pub_code": "LF",
      "pub_name": "Love Under Fire",
      "refcode_long": "Love Under Fire, p. 185.6 (Ellen Gould White)",
      "refcode_short": "LF 185.6",
      "pub_year": "2011",
      "snippet": "… established <mark>Sunday</mark> as the day for worship. God accepts their sincerity and integrity. But when <mark>Sunday</mark> observance is enforced by <mark>law</mark> and the world is enlightened …",
      "weight": 0.34,
      "group": "egwwritings"
    },
    {
      "index": 17,
      "lang": "en",
      "para_id": "14753.1670",
      "pub_code": "5TC",
      "pub_name": "The Victory",
      "refcode_long": "The Victory, p. 262.6 (Ellen Gould White)",
      "refcode_short": "5TC 262.6",
      "pub_year": "2024",
      "snippet": "… established <mark>Sunday</mark> as the day for worship. God accepts their sincerity and integrity. But when <mark>Sunday</mark> observance is enforced by <mark>law</mark> and the world is enlightened …",
      "weight": 0.34,
      "group": "egwwritings"
    },
    {
      "index": 18,
      "lang": "en",
      "para_id": "1419.536",
      "pub_code": "USLP",
      "pub_name": "The United States in the Light of Prophecy",
      "refcode_long": "The United States in the Light of Prophecy, p. 130.1 (Uriah Smith)",
      "refcode_short": "USLP 130.1",
      "pub_year": "1874",
      "snippet": "… : The <mark>mark</mark> and worship of the <mark>beast</mark> are enforced by the two-horned <mark>beast</mark>. The receiving of the <mark>mark</mark> of the <mark>beast</mark> is a specific act which the two-horned <mark>beast</mark> is …",
      "weight": 0.33,
      "group": "apl"
    },
    {
      "index": 19,
      "lang": "en",
      "para_id": "12362.8554",
      "pub_code": "EGWEnc",
      "pub_name": "The Ellen G. White Encyclopedia",
      "refcode_long": "The Ellen G. White Encyclopedia, p. 962.3 (Denis Fortin, Jerry Moon)",
      "refcode_short": "EGWEnc 962.3",
      "pub_year": "2013",
      "snippet": "",
      "weight": 0.33,
      "group": "reference",
      "action_required": "purchased"
    },
    {
      "index": 20,
      "lang": "en",
      "para_id": "12362.8549",
      "pub_code": "EGWEnc",
      "pub_name": "The Ellen G. White Encyclopedia",
      "refcode_long": "The Ellen G. White Encyclopedia, p. 961.3 (Denis Fortin, Jerry Moon)",
      "refcode_short": "EGWEnc 961.3",
      "pub_year": "2013",
      "snippet": "",
      "weight": 0.33,
      "group": "reference",
      "action_required": "purchased"
    },
    {
      "index": 21,
      "lang": "en",
      "para_id": "12362.8548",
      "pub_code": "EGWEnc",
      "pub_name": "The Ellen G. White Encyclopedia",
      "refcode_long": "The Ellen G. White Encyclopedia, p. 961.2 (Denis Fortin, Jerry Moon)",
      "refcode_short": "EGWEnc 961.2",
      "pub_year": "2013",
      "snippet": "",
      "weight": 0.33,
      "group": "reference",
      "action_required": "purchased"
    },
    {
      "index": 22,
      "lang": "en",
      "para_id": "1683.6836",
      "pub_code": "ARSH",
      "pub_name": "Advent Review, and Sabbath Herald, vol. 20",
      "refcode_long": "Advent Review, and Sabbath Herald, vol. 20 November 4,  1862, page 181 paragraph 8",
      "refcode_short": "ARSH November 4,  1862, page 181.8",
      "pub_year": "1862",
      "snippet": "… <mark>mark</mark> of the same. Hence, those that keep all the commandments of God will not have the <mark>mark</mark> of the <mark>beast</mark>, and those that accept of the <mark>mark</mark> of the <mark>beast</mark> will not …",
      "weight": 0.33,
      "group": "apl"
    },
    {
      "index": 23,
      "lang": "en",
      "para_id": "2774.1742",
      "pub_code": "HF",
      "pub_name": "From Here to Forever",
      "refcode_long": "From Here to Forever, p. 278.3 (Ellen Gould White)",
      "refcode_short": "HF 278.3",
      "pub_year": "1982",
      "snippet": "… that <mark>Sunday</mark> is of divine appointment. God accepts their sincerity and integrity. But when <mark>Sunday</mark> observance shall be enforced by <mark>law</mark> and the world shall …",
      "weight": 0.32,
      "group": "egwwritings"
    },
    {
      "index": 24,
      "lang": "en",
      "para_id": "1693.7128",
      "pub_code": "ARSH",
      "pub_name": "Advent Review, and Sabbath Herald, vol. 10",
      "refcode_long": "Advent Review, and Sabbath Herald, vol. 10 October 22,  1857, page 197 paragraph 12",
      "refcode_short": "ARSH October 22,  1857, page 197.12",
      "pub_year": "1857",
      "snippet": "… it. <mark>Sunday</mark>-keeping has taken the place of God’s seal or <mark>mark</mark>, and for the reasons assigned within, we hesitate not to call it “the <mark>mark</mark> of the <mark>beast</mark> .” And as you see …",
      "weight": 0.31,
      "group": "apl"
    }
  ]
}
