{
  "next": "https://a.egwwritings.org/search?lang=en&period=all&facets=False&query=Sabbath%20seal%20of%20God&offset=25&limit=25&order=rel&snippet=long&query_type=prefer_exact",
  "previous": null,
  "total": 831,
  "count": 831,
  "results": [
    {
      "index": 0,
      "lang": "en",
      "para_id": "12861.2461",
      "pub_code": "DAR",
      "pub_name": "Daniel and The Revelation",
      "refcode_long": "Daniel and The Revelation, p. 474.4 (Uriah Smith)",
      "refcode_short": "DAR 474.4",
      "pub_year": "1897",
      "snippet": "The <mark>Seal of God</mark> in their Foreheads. — In remarks upon chapter 7:1-3, we have shown that the <mark>seal of God</mark> is the <mark>Sabbath of</mark> the fourth commandment; and history is not …",
      "weight": 1,
      "group": "apl"
    },
    {
      "index": 1,
      "lang": "en",
      "para_id": "1297.2278",
      "pub_code": "DAR1909",
      "pub_name": "Daniel and The Revelation",
      "refcode_long": "Daniel and The Revelation, p. 501.2 (Uriah Smith)",
      "refcode_short": "DAR1909 501.2",
      "pub_year": "1909",
      "snippet": "The <mark>Seal of God</mark> in Their Foreheads. - In remarks upon chapter 7:1-3, we have shown that the <mark>seal of God</mark> is the <mark>Sabbath of</mark> the fourth commandment; and history is not …",
      "weight": 1,
      "group": "apl"
    },
    {
      "index": 2,
      "lang": "en",
      "para_id": "12861.3069",
      "pub_code": "DAR",
      "pub_name": "Daniel and The Revelation",
      "refcode_long": "Daniel and The Revelation, p. 584.2 (Uriah Smith)",
      "refcode_short": "DAR 584.2",
      "pub_year": "1897",
      "snippet": "… his <mark>seal</mark>. That commandment <mark>of</mark> the law which contains <mark>God’s</mark> name is therefore the <mark>seal of</mark> the law. The <mark>Sabbath</mark> commandment is the only one which has this; that …",
      "weight": 0.93,
      "group": "apl"
    },
    {
      "index": 3,
      "lang": "en",
      "para_id": "1297.2954",
      "pub_code": "DAR1909",
      "pub_name": "Daniel and The Revelation",
      "refcode_long": "Daniel and The Revelation, p. 630.1 (Uriah Smith)",
      "refcode_short": "DAR1909 630.1",
      "pub_year": "1909",
      "snippet": "… his <mark>seal</mark>. That commandment <mark>of</mark> the law which contains <mark>God’s</mark> name is therefore the <mark>seal of</mark> the law. The <mark>Sabbath</mark> commandment is the only one which has this; that …",
      "weight": 0.93,
      "group": "apl"
    },
    {
      "index": 4,
      "lang": "en",
      "para_id": "12861.2464",
      "pub_code": "DAR",
      "pub_name": "Daniel and The Revelation",
      "refcode_long": "Daniel and The Revelation, p. 475.1 (Uriah Smith)",
      "refcode_short": "DAR 475.1",
      "pub_year": "1897",
      "snippet": "… the <mark>seal of God</mark> in their foreheads; inasmuch as that is the very church which has robbed the law <mark>of God of</mark> its <mark>seal</mark>, by tearing away the true <mark>Sabbath</mark>, and erecting …",
      "weight": 0.91,
      "group": "apl"
    },
    {
      "index": 5,
      "lang": "en",
      "para_id": "1297.2281",
      "pub_code": "DAR1909",
      "pub_name": "Daniel and The Revelation",
      "refcode_long": "Daniel and The Revelation, p. 502.1 (Uriah Smith)",
      "refcode_short": "DAR1909 502.1",
      "pub_year": "1909",
      "snippet": "… the <mark>seal of God</mark> in their foreheads; inasmuch as that is the very church which has robbed the law <mark>of God of</mark> its <mark>seal</mark>, by tearing away the true <mark>Sabbath</mark>, and erecting …",
      "weight": 0.91,
      "group": "apl"
    },
    {
      "index": 6,
      "lang": "en",
      "para_id": "1583.5503",
      "pub_code": "PFF4",
      "pub_name": "The Prophetic Faith of Our Fathers, vol. 4",
      "refcode_long": "The Prophetic Faith of Our Fathers, vol. 4, p. 958.2 (LeRoy Edwin Froom)",
      "refcode_short": "PFF4 958.2",
      "pub_year": "1954",
      "snippet": "… <mark>Sabbath</mark> was next set forth as the “<mark>seal of God</mark>,” as based on the <mark>sealing</mark> work <mark>of</mark> Revelation 7. In January, 1849, Bates issued his tract, A <mark>Seal of</mark> the Living <mark>God</mark>. From …",
      "weight": 0.9,
      "group": "apl"
    },
    {
      "index": 7,
      "lang": "en",
      "para_id": "12667.714",
      "pub_code": "1EGWLM",
      "pub_name": "The Ellen G. White Letters and Manuscripts: Volume 1",
      "refcode_long": "The Ellen G. White Letters and Manuscripts: Volume 1, p. 146.2 (Ellen Gould White)",
      "refcode_short": "1EGWLM 146.2",
      "pub_year": "2014",
      "snippet": "To the church <mark>of God</mark> who keep the <mark>Sabbath</mark>—the <mark>seal of</mark> the living <mark>God</mark>. See: EGWEnc, s.v. “<mark>Seal of God</mark>.”",
      "weight": 0.89,
      "group": "egwwritings"
    },
    {
      "index": 8,
      "lang": "en",
      "para_id": "1683.7474",
      "pub_code": "ARSH",
      "pub_name": "Advent Review, and Sabbath Herald, vol. 20",
      "refcode_long": "Advent Review, and Sabbath Herald, vol. 20 November 18,  1862, page 196 paragraph 21",
      "refcode_short": "ARSH November 18,  1862, page 196.21",
      "pub_year": "1862",
      "snippet": "… his <mark>seal</mark>. That commandment <mark>of</mark> the law which contains <mark>God’s</mark> name is therefore the <mark>seal of</mark> the law. The <mark>Sabbath</mark> commandment is the only one which has this; that …",
      "weight": 0.89,
      "group": "apl"
    },
    {
      "index": 9,
      "lang": "en",
      "para_id": "1686.1554",
      "pub_code": "ARSH",
      "pub_name": "Advent Review, and Sabbath Herald, vol. 17",
      "refcode_long": "Advent Review, and Sabbath Herald, vol. 17 December 25,  1860, page 45 paragraph 1",
      "refcode_short": "ARSH December 25,  1860, page 45.1",
      "pub_year": "1860",
      "snippet": "… knowledge <mark>of</mark> the Law-giver, nor the extent <mark>of</mark> his authority. But the <mark>Sabbath</mark> commandment is the sign or <mark>seal of God</mark> from the fact that it shows us the supreme …",
      "weight": 0.88,
      "group": "apl"
    },
    {
      "index": 10,
      "lang": "en",
      "para_id": "12668.22656",
      "pub_code": "SDAEnc",
      "pub_name": "SDA Encyclopedia",
      "refcode_long": "SDA Encyclopedia, p. .0 (General Conference of SDA)",
      "refcode_short": "SDAEnc .0",
      "pub_year": "1966",
      "snippet": "",
      "weight": 0.87,
      "group": "bible",
      "action_required": "purchased"
    },
    {
      "index": 11,
      "lang": "en",
      "para_id": "1002.1748",
      "pub_code": "GCB/GCDB",
      "pub_name": "General Conference Daily Bulletin, vol. 5",
      "refcode_long": "General Conference Daily Bulletin, vol. 5 1893, page 455 paragraph 2",
      "refcode_short": "GCB/GCDB 1893, page 455.2",
      "pub_year": "1893",
      "snippet": "… the <mark>seal of</mark> the living <mark>God</mark>. Saturday keeping is not the <mark>seal of God</mark>. Christ as He is reflected in the <mark>Sabbath of</mark> the Lord, through the <mark>Sabbath of</mark> the Lord, and in …",
      "weight": 0.85,
      "group": "apl"
    },
    {
      "index": 12,
      "lang": "en",
      "para_id": "1661.6055",
      "pub_code": "GCDB",
      "pub_name": "General Conference Daily Bulletin, vol. 5",
      "refcode_long": "General Conference Daily Bulletin, vol. 5 March 2,  1893, page 455 paragraph 2",
      "refcode_short": "GCDB March 2,  1893, page 455.2",
      "pub_year": "1893",
      "snippet": "… the <mark>seal of</mark> the living <mark>God</mark>. Saturday keeping is not the <mark>seal of God</mark>. Christ as he is reflected in the <mark>Sabbath of</mark> the Lord, through the <mark>Sabbath of</mark> the Lord, and in …",
      "weight": 0.85,
      "group": "apl"
    },
    {
      "index": 13,
      "lang": "en",
      "para_id": "30.1301",
      "pub_code": "Ev",
      "pub_name": "Evangelism",
      "refcode_long": "Evangelism, p. 235.2 (Ellen Gould White)",
      "refcode_short": "Ev 235.2",
      "pub_year": "1946",
      "snippet": "… Word <mark>of God</mark> for Sunday observance, and yet you still cling to the false <mark>sabbath</mark>, refusing to keep holy the <mark>Sabbath</mark> which <mark>God</mark> calls “My holy day,” you receive the …",
      "weight": 0.84,
      "group": "egwwritings"
    },
    {
      "index": 14,
      "lang": "en",
      "para_id": "12362.10365",
      "pub_code": "EGWEnc",
      "pub_name": "The Ellen G. White Encyclopedia",
      "refcode_long": "The Ellen G. White Encyclopedia, p. 1159.5 (Denis Fortin, Jerry Moon)",
      "refcode_short": "EGWEnc 1159.5",
      "pub_year": "2013",
      "snippet": "",
      "weight": 0.84,
      "group": "reference",
      "action_required": "purchased"
    },
    {
      "index": 15,
      "lang": "en",
      "para_id": "13959.967",
      "pub_code": "UEGW",
      "pub_name": "Understanding Ellen White",
      "refcode_long": "Understanding Ellen White, p. 174.3 (Dr. Merlin Burt)",
      "refcode_short": "UEGW 174.3",
      "pub_year": "2015",
      "snippet": "… <mark>of</mark> the <mark>seal of God</mark> and the <mark>Sabbath</mark> clarifies that believers are <mark>sealed</mark> by the Holy Spirit ( Eph. 4:30 ). The <mark>Sabbath</mark> is an external manifestation <mark>of</mark> the …",
      "weight": 0.84,
      "group": "reference"
    },
    {
      "index": 16,
      "lang": "en",
      "para_id": "1693.2801",
      "pub_code": "ARSH",
      "pub_name": "Advent Review, and Sabbath Herald, vol. 10",
      "refcode_long": "Advent Review, and Sabbath Herald, vol. 10 July 9,  1857, page 80 paragraph 8",
      "refcode_short": "ARSH July 9,  1857, page 80.8",
      "pub_year": "1857",
      "snippet": "… the <mark>seal of</mark> the living <mark>God</mark>. If the mark <mark>of</mark> the beast is the keeping <mark>of</mark> a counterfeit <mark>Sabbath</mark>, analogy would suggest that the <mark>seal of God</mark> which is held forth as …",
      "weight": 0.84,
      "group": "apl"
    },
    {
      "index": 17,
      "lang": "en",
      "para_id": "14648.422",
      "pub_code": "3AM",
      "pub_name": "The Three Angels’ Messages",
      "refcode_long": "The Three Angels’ Messages, p. 89.2 (Ellen Gould White)",
      "refcode_short": "3AM 89.2",
      "pub_year": "2022",
      "snippet": "… <mark>of</mark> the beast is the opposite <mark>of</mark> the <mark>seal of God</mark> —The sign or <mark>seal of God</mark> is the observance <mark>of</mark> the seventh day <mark>Sabbath</mark>, the Lord’s memorial <mark>of</mark> His work <mark>of</mark> creation …",
      "weight": 0.83,
      "group": "egwwritings"
    },
    {
      "index": 18,
      "lang": "en",
      "para_id": "12362.8553",
      "pub_code": "EGWEnc",
      "pub_name": "The Ellen G. White Encyclopedia",
      "refcode_long": "The Ellen G. White Encyclopedia, p. 962.2 (Denis Fortin, Jerry Moon)",
      "refcode_short": "EGWEnc 962.2",
      "pub_year": "2013",
      "snippet": "",
      "weight": 0.83,
      "group": "reference",
      "action_required": "purchased"
    },
    {
      "index": 19,
      "lang": "en",
      "para_id": "1682.8122",
      "pub_code": "ARSH",
      "pub_name": "Advent Review, and Sabbath Herald, vol. 21",
      "refcode_long": "Advent Review, and Sabbath Herald, vol. 21 May 12,  1863, page 190 paragraph 30",
      "refcode_short": "ARSH May 12,  1863, page 190.30",
      "pub_year": "1862",
      "snippet": "… <mark>of</mark> royalty, the extent <mark>of</mark> his dominion, and his right to reign. Therefore the <mark>Sabbath</mark> may with propriety be called the <mark>seal of God</mark>. Again, the words, <mark>seal</mark> and …",
      "weight": 0.82,
      "group": "apl"
    },
    {
      "index": 20,
      "lang": "en",
      "para_id": "140.2042",
      "pub_code": "4SP",
      "pub_name": "The Spirit of Prophecy, vol. 4",
      "refcode_long": "The Spirit of Prophecy, vol. 4, p. 505.3 (Ellen Gould White)",
      "refcode_short": "4SP 505.3",
      "pub_year": "1884",
      "snippet": "… <mark>of</mark> this mark. The sign or <mark>seal of God</mark> is his <mark>Sabbath</mark>, and the <mark>seal</mark> or mark <mark>of</mark> the beast is in direct opposition to it; it is a counterfeit <mark>Sabbath</mark> on the “day <mark>of</mark> the …",
      "weight": 0.82,
      "group": "egwwritings"
    },
    {
      "index": 21,
      "lang": "en",
      "para_id": "133.3148",
      "pub_code": "GC88",
      "pub_name": "The Great Controversy (1888 ed.)",
      "refcode_long": "The Great Controversy (1888 ed.), p. 691.3 (Ellen Gould White)",
      "refcode_short": "GC88 691.3",
      "pub_year": "1888",
      "snippet": "… <mark>of</mark> this mark. The sign or <mark>seal of God</mark> is his <mark>Sabbath</mark>, and the <mark>seal</mark> or mark <mark>of</mark> the beast is in direct opposition to it; it is a counterfeit <mark>Sabbath</mark> on the “day <mark>of</mark> the …",
      "weight": 0.82,
      "group": "egwwritings"
    },
    {
      "index": 22,
      "lang": "en",
      "para_id": "12861.3287",
      "pub_code": "DAR",
      "pub_name": "Daniel and The Revelation",
      "refcode_long": "Daniel and The Revelation, p. 628.2 (Uriah Smith)",
      "refcode_short": "DAR 628.2",
      "pub_year": "1897",
      "snippet": "… are <mark>sealed</mark> with the <mark>seal of</mark> the living <mark>God</mark>, that is, have his mark, or keep his <mark>Sabbath</mark>; and those who are <mark>sealed</mark> with the <mark>seal of</mark> the beast, that is, have his mark, or …",
      "weight": 0.82,
      "group": "apl"
    },
    {
      "index": 23,
      "lang": "en",
      "para_id": "1297.3160",
      "pub_code": "DAR1909",
      "pub_name": "Daniel and The Revelation",
      "refcode_long": "Daniel and The Revelation, p. 672.2 (Uriah Smith)",
      "refcode_short": "DAR1909 672.2",
      "pub_year": "1909",
      "snippet": "… are <mark>sealed</mark> with the <mark>seal of</mark> the living <mark>God</mark> - that is, have his mark, or keep his <mark>Sabbath</mark> - and those who are <mark>sealed</mark> with the <mark>seal of</mark> the beast - that is, have his mark, or …",
      "weight": 0.82,
      "group": "apl"
    },
    {
      "index": 24,
      "lang": "en",
      "para_id": "949.707",
      "pub_code": "FSDA",
      "pub_name": "Foundations of the Seventh-day Adventist Message and Mission",
      "refcode_long": "Foundations of the Seventh-day Adventist Message and Mission, p. 143.2 (Pieter Gerard Damsteegt)",
      "refcode_short": "FSDA 143.2",
      "pub_year": "1977",
      "snippet": "… [<mark>of</mark>] his <mark>Sabbath</mark>, then ‘a <mark>seal of</mark> the living <mark>God</mark>’ is the <mark>Sabbath</mark>.”E. G. White, Manuscript 3, 1849; E. G. White, “To Those Who Are Receiving the <mark>Seal of</mark> the Living <mark>God</mark>” (Broadside …",
      "weight": 0.81,
      "group": "apl"
    }
  ]
}
