{
  "next": "https://a.egwwritings.org/search?lang=en&period=all&facets=False&query=Babylon%20harlot%20fallen&offset=25&limit=25&order=rel&snippet=long&query_type=prefer_exact",
  "previous": null,
  "total": 29,
  "count": 29,
  "results": [
    {
      "index": 0,
      "lang": "en",
      "para_id": "12666.9507",
      "pub_code": "HSDAT",
      "pub_name": "Handbook of SDA Theology",
      "refcode_long": "Handbook of SDA Theology, p. 879.2 (Raoul Dederen-GCSDA)",
      "refcode_short": "HSDAT 879.2",
      "pub_year": "2000",
      "snippet": "",
      "weight": 1,
      "group": "bible",
      "action_required": "purchased"
    },
    {
      "index": 1,
      "lang": "en",
      "para_id": "12668.25697",
      "pub_code": "SDAEnc",
      "pub_name": "SDA Encyclopedia",
      "refcode_long": "SDA Encyclopedia, p. .0 (General Conference of SDA)",
      "refcode_short": "SDAEnc .0",
      "pub_year": "1966",
      "snippet": "",
      "weight": 0.82,
      "group": "bible",
      "action_required": "purchased"
    },
    {
      "index": 2,
      "lang": "en",
      "para_id": "12517.21044",
      "pub_code": "7SDABC",
      "pub_name": "SDA Bible Commentary, vol. 7",
      "refcode_long": "SDA Bible Commentary, vol. 7, p. 891.13 (Francis Nichol-GCSDA)",
      "refcode_short": "7SDABC 891.13",
      "pub_year": "1957",
      "snippet": "",
      "weight": 0.75,
      "group": "bible",
      "action_required": "purchased"
    },
    {
      "index": 3,
      "lang": "en",
      "para_id": "133.1747",
      "pub_code": "GC88",
      "pub_name": "The Great Controversy (1888 ed.)",
      "refcode_long": "The Great Controversy (1888 ed.), p. 382.3 (Ellen Gould White)",
      "refcode_short": "GC88 382.3",
      "pub_year": "1888",
      "snippet": "… of <mark>Babylon</mark>. According to this scripture, many of God’s people must still be in <mark>Babylon</mark>. And in what religious bodies are the greater part of the followers of …",
      "weight": 0.7,
      "group": "egwwritings"
    },
    {
      "index": 4,
      "lang": "en",
      "para_id": "132.1737",
      "pub_code": "GC",
      "pub_name": "The Great Controversy",
      "refcode_long": "The Great Controversy, p. 382.3 (Ellen Gould White)",
      "refcode_short": "GC 382.3",
      "pub_year": "1911",
      "snippet": "… of <mark>Babylon</mark>. According to this scripture, many of God’s people must still be in <mark>Babylon</mark>. And in what religious bodies are the greater part of the followers of …",
      "weight": 0.7,
      "group": "egwwritings"
    },
    {
      "index": 5,
      "lang": "en",
      "para_id": "1691.7501",
      "pub_code": "ARSH",
      "pub_name": "Advent Review, and Sabbath Herald, vol. 12",
      "refcode_long": "Advent Review, and Sabbath Herald, vol. 12 November 4,  1858, page 191 paragraph 2",
      "refcode_short": "ARSH November 4,  1858, page 191.2",
      "pub_year": "1858",
      "snippet": "… describing <mark>fallen Babylon</mark>. And such a description from such a source, must forever remain free from the charge sometimes brought against our declarations …",
      "weight": 0.61,
      "group": "apl"
    },
    {
      "index": 6,
      "lang": "en",
      "para_id": "1579.480",
      "pub_code": "PFF2",
      "pub_name": "The Prophetic Faith of Our Fathers, vol. 2",
      "refcode_long": "The Prophetic Faith of Our Fathers, vol. 2, p. 83.2 (LeRoy Edwin Froom)",
      "refcode_short": "PFF2 83.2",
      "pub_year": "1948",
      "snippet": "“This <mark>Babylon</mark>, this great City, is the City of Rome, as it appeareth by the process of the Apostle. Because the Angel which shewed unto Saint John the destruction …",
      "weight": 0.61,
      "group": "apl"
    },
    {
      "index": 7,
      "lang": "en",
      "para_id": "949.869",
      "pub_code": "FSDA",
      "pub_name": "Foundations of the Seventh-day Adventist Message and Mission",
      "refcode_long": "Foundations of the Seventh-day Adventist Message and Mission, p. 180.2 (Pieter Gerard Damsteegt)",
      "refcode_short": "FSDA 180.2",
      "pub_year": "1977",
      "snippet": "… have <mark>fallen</mark> lower and lower. Not yet, however, can it be said that ‘<mark>Babylon</mark> is <mark>fallen</mark>, ... because she made all nations drink of the wine of the wrath of her fornication …",
      "weight": 0.57,
      "group": "apl"
    },
    {
      "index": 8,
      "lang": "en",
      "para_id": "1237.1073",
      "pub_code": "SSP",
      "pub_name": "The Story of the Seer of Patmos",
      "refcode_long": "The Story of the Seer of Patmos, p. 301.3 (Stephen Nelson Haskell)",
      "refcode_short": "SSP 301.3",
      "pub_year": "1905",
      "snippet": "… , saying, <mark>Babylon</mark> the great is <mark>fallen</mark>, is <mark>fallen</mark>, and is become the habitation of devils, and the hold of every foul spirit, and a cage of every unclean and hateful …",
      "weight": 0.54,
      "group": "apl"
    },
    {
      "index": 9,
      "lang": "en",
      "para_id": "1692.3534",
      "pub_code": "ARSH",
      "pub_name": "Advent Review, and Sabbath Herald, vol. 11",
      "refcode_long": "Advent Review, and Sabbath Herald, vol. 11 February 4,  1858, page 97 paragraph 15",
      "refcode_short": "ARSH February 4,  1858, page 97.15",
      "pub_year": "1857",
      "snippet": "… :8 : “<mark>Babylon</mark> is <mark>fallen</mark>, is <mark>fallen</mark>, that great city, because she made all nations drink of the wine of the wrath of her fornication.” This illicit intercourse is the …",
      "weight": 0.51,
      "group": "apl"
    },
    {
      "index": 10,
      "lang": "en",
      "para_id": "1237.1043",
      "pub_code": "SSP",
      "pub_name": "The Story of the Seer of Patmos",
      "refcode_long": "The Story of the Seer of Patmos, p. 292.3 (Stephen Nelson Haskell)",
      "refcode_short": "SSP 292.3",
      "pub_year": "1905",
      "snippet": "… Mystery, <mark>Babylon</mark> the Great, the mother of <mark>harlots</mark>, and abominations of the earth.” She who had once been a golden cup in the Lord’s hand, filled with the wine of …",
      "weight": 0.5,
      "group": "apl"
    },
    {
      "index": 11,
      "lang": "en",
      "para_id": "973.97",
      "pub_code": "BP2",
      "pub_name": "[Bates’ Pamphlet #2] Second Advent Way Marks and High Heaps",
      "refcode_long": "[Bates’ Pamphlet #2] Second Advent Way Marks and High Heaps, p. 63.1 (Joseph Bates)",
      "refcode_short": "BP2 63.1",
      "pub_year": "1847",
      "snippet": "… , MYSTERY <mark>BABYLON</mark>, THE GREAT, THE MOTHER OF <mark>HARLOTS</mark>, AND ABOMINATIONS OF THE EARTH. The 15th v. interprets the 1st v. and says, “the waters she sets upon are peoples …",
      "weight": 0.49,
      "group": "apl"
    },
    {
      "index": 12,
      "lang": "en",
      "para_id": "1511.1113",
      "pub_code": "NTMS",
      "pub_name": "The Nature and Tendency of Modern Spiritualism",
      "refcode_long": "The Nature and Tendency of Modern Spiritualism, p. 170.5 (Joseph Harvey Waggoner)",
      "refcode_short": "NTMS 170.5",
      "pub_year": "1884",
      "snippet": "… :8 : “<mark>Babylon</mark> is <mark>fallen</mark>.” This illicit intercourse with the world is the declared ground of her fall. This worldly spirit, which seeks an alliance with the nations …",
      "weight": 0.48,
      "group": "apl"
    },
    {
      "index": 13,
      "lang": "en",
      "para_id": "1237.1054",
      "pub_code": "SSP",
      "pub_name": "The Story of the Seer of Patmos",
      "refcode_long": "The Story of the Seer of Patmos, p. 296.2 (Stephen Nelson Haskell)",
      "refcode_short": "SSP 296.2",
      "pub_year": "1905",
      "snippet": "… , like <mark>Babylon</mark> of old, had prided itself upon the fact that it was the master of the world, was guided and controlled by a prostitute woman. This in the eyes of nations …",
      "weight": 0.34,
      "group": "apl"
    },
    {
      "index": 14,
      "lang": "en",
      "para_id": "1237.1046",
      "pub_code": "SSP",
      "pub_name": "The Story of the Seer of Patmos",
      "refcode_long": "The Story of the Seer of Patmos, p. 293.1 (Stephen Nelson Haskell)",
      "refcode_short": "SSP 293.1",
      "pub_year": "1905",
      "snippet": "… , “Mystery, <mark>Babylon</mark> the Great, the mother of <mark>harlots</mark>.”O Israel, return unto the Lord thy God; for thou hast <mark>fallen</mark> by thine iniquity. Take with you words, and turn to …",
      "weight": 0.31,
      "group": "apl"
    },
    {
      "index": 15,
      "lang": "en",
      "para_id": "14192.15656",
      "pub_code": "MHBCC",
      "pub_name": "Matthew Henry’s Complete Bible Commentary",
      "refcode_long": "Matthew Henry’s Complete Bible Commentary, p. 701.7 (Matthew Henry)",
      "refcode_short": "MHBCC 701.7",
      "pub_year": "1708",
      "snippet": "… <mark>fallen. Babylon’s</mark> business is done now. All the graven images of her gods he has broken unto the ground .” <mark>Babylon</mark> was the mother of <mark>harlots</mark> (that is, of …",
      "weight": 0.08,
      "group": "bible"
    },
    {
      "index": 16,
      "lang": "en",
      "para_id": "667.2556",
      "pub_code": "6BIO",
      "pub_name": "Ellen G. White: The Later Elmshaven Years: 1905-1915 (vol. 6)",
      "refcode_long": "Ellen G. White: The Later Elmshaven Years: 1905-1915 (vol. 6), p. 327.2 (Arthur Lacey White)",
      "refcode_short": "6BIO 327.2",
      "pub_year": "1982",
      "snippet": "Next, she introduces the <mark>fallen</mark> Protestant churches, noting that <mark>Babylon</mark> is said to be “the mother of <mark>harlots</mark>.”",
      "weight": 0.07,
      "group": "egwwritings"
    },
    {
      "index": 17,
      "lang": "en",
      "para_id": "2774.1492",
      "pub_code": "HF",
      "pub_name": "From Here to Forever",
      "refcode_long": "From Here to Forever, p. 238.1 (Ellen Gould White)",
      "refcode_short": "HF 238.1",
      "pub_year": "1982",
      "snippet": "<mark>Babylon</mark> is “the mother of <mark>harlots</mark>.” Her daughters must be churches that cling to her doctrines and follow her example of sacrificing truth in order to form …",
      "weight": 0.07,
      "group": "egwwritings"
    },
    {
      "index": 18,
      "lang": "en",
      "para_id": "12269.1340",
      "pub_code": "LF",
      "pub_name": "Love Under Fire",
      "refcode_long": "Love Under Fire, p. 160.3 (Ellen Gould White)",
      "refcode_short": "LF 160.3",
      "pub_year": "2011",
      "snippet": "<mark>Babylon</mark> is “the mother of <mark>harlots</mark>.” Her daughters must be churches that cling to her teachings and follow her example of sacrificing truth in order to form …",
      "weight": 0.07,
      "group": "egwwritings"
    },
    {
      "index": 19,
      "lang": "en",
      "para_id": "14753.1419",
      "pub_code": "5TC",
      "pub_name": "The Victory",
      "refcode_long": "The Victory, p. 225.1 (Ellen Gould White)",
      "refcode_short": "5TC 225.1",
      "pub_year": "2024",
      "snippet": "<mark>Babylon</mark> is “the mother of <mark>harlots</mark>.” Her daughters must be churches that cling to her teachings and follow her example of sacrificing truth in order to form …",
      "weight": 0.07,
      "group": "egwwritings"
    },
    {
      "index": 20,
      "lang": "en",
      "para_id": "756.2402",
      "pub_code": "EGWC",
      "pub_name": "Ellen G. White and Her Critics",
      "refcode_long": "Ellen G. White and Her Critics, p. 325.1 (Francis D. Nichol)",
      "refcode_short": "EGWC 325.1",
      "pub_year": "1994",
      "snippet": "“<mark>Babylon</mark> is said to be ‘the mother of <mark>harlots</mark>.’ By her daughters must be symbolized churches that cling to her doctrines and traditions, and follow her example …",
      "weight": 0.07,
      "group": "reference"
    },
    {
      "index": 21,
      "lang": "en",
      "para_id": "1073.1020",
      "pub_code": "AMS",
      "pub_name": "The American Sentinel 10",
      "refcode_long": "The American Sentinel 10 March 7,  1895, page 73 paragraph 6",
      "refcode_short": "AMS March 7,  1895, page 73.6",
      "pub_year": "1895",
      "snippet": "… the <mark>fallen</mark> condition of this <mark>fallen</mark> church is that “the kings of the earth have committed fornication with her.” This is the reason she is <mark>fallen</mark>. She has been …",
      "weight": 0.07,
      "group": "apl"
    },
    {
      "index": 22,
      "lang": "en",
      "para_id": "1511.1102",
      "pub_code": "NTMS",
      "pub_name": "The Nature and Tendency of Modern Spiritualism",
      "refcode_long": "The Nature and Tendency of Modern Spiritualism, p. 168.2 (Joseph Harvey Waggoner)",
      "refcode_short": "NTMS 168.2",
      "pub_year": "1884",
      "snippet": "… great <mark>Babylon</mark> of Revelation 14 and 18, and daughters of the “mother of <mark>harlots</mark>” of Revelation 17, we are only following the course marked out for us by the eminently …",
      "weight": 0.06,
      "group": "apl"
    },
    {
      "index": 23,
      "lang": "en",
      "para_id": "1692.3527",
      "pub_code": "ARSH",
      "pub_name": "Advent Review, and Sabbath Herald, vol. 11",
      "refcode_long": "Advent Review, and Sabbath Herald, vol. 11 February 4,  1858, page 97 paragraph 8",
      "refcode_short": "ARSH February 4,  1858, page 97.8",
      "pub_year": "1857",
      "snippet": "… great <mark>Babylon</mark> of Revelation 14, and 18, and daughters of the “Mother of <mark>harlots</mark>” of Revelation 17. The name <mark>Babylon</mark> signifies confusion; and in this sense we may …",
      "weight": 0.06,
      "group": "apl"
    },
    {
      "index": 24,
      "lang": "en",
      "para_id": "12668.2207",
      "pub_code": "SDAEnc",
      "pub_name": "SDA Encyclopedia",
      "refcode_long": "SDA Encyclopedia, p. .0 (General Conference of SDA)",
      "refcode_short": "SDAEnc .0",
      "pub_year": "1966",
      "snippet": "",
      "weight": 0.06,
      "group": "bible",
      "action_required": "purchased"
    }
  ]
}
