{
  "next": "https://a.egwwritings.org/search?lang=en&period=all&facets=False&query=come%20out%20of%20her%20my%20people&offset=20&limit=20&order=rel&snippet=long&query_type=prefer_exact",
  "previous": null,
  "total": 1007,
  "count": 1007,
  "results": [
    {
      "index": 0,
      "lang": "en",
      "para_id": "14648.23",
      "pub_code": "3AM",
      "pub_name": "The Three Angels’ Messages",
      "refcode_long": "The Three Angels’ Messages, p. 11.1 (Ellen Gould White)",
      "refcode_short": "3AM 11.1",
      "pub_year": "2022",
      "snippet": "… part <mark>of</mark> Babylon. Charles Fitch, “<mark>Come Out of Her, My People</mark>”: A Sermon (Rochester, NY: J. V. Himes, 1843); Charles Fitch, “‘<mark>Come Out of Her, My People</mark>,’” Midnight Cry!, September …",
      "weight": 1,
      "group": "egwwritings"
    },
    {
      "index": 1,
      "lang": "en",
      "para_id": "949.398",
      "pub_code": "FSDA",
      "pub_name": "Foundations of the Seventh-day Adventist Message and Mission",
      "refcode_long": "Foundations of the Seventh-day Adventist Message and Mission, p. 79.4 (Pieter Gerard Damsteegt)",
      "refcode_short": "FSDA 79.4",
      "pub_year": "1977",
      "snippet": "… fallen. <mark>Come out of her, my people</mark>.” Charles Fitch’s sermon, <mark>Come Out of Her, My People</mark>, set the pace.",
      "weight": 0.96,
      "group": "apl"
    },
    {
      "index": 2,
      "lang": "en",
      "para_id": "1421.205",
      "pub_code": "WVTP",
      "pub_name": "The Warning Voice of Time and Prophecy",
      "refcode_long": "The Warning Voice of Time and Prophecy, p. 87.1 (Uriah Smith)",
      "refcode_short": "WVTP 87.1",
      "pub_year": "1853",
      "snippet": "Saying, <mark>Come out of her my people</mark>! that Ye <mark>of her</mark> sins be not partakers, and Receive not <mark>of her</mark> plagues; for unto heaven <mark>Her</mark> sins have reached, and <mark>her</mark> iniquities …",
      "weight": 0.96,
      "group": "apl"
    },
    {
      "index": 3,
      "lang": "en",
      "para_id": "65.1370",
      "pub_code": "16MR",
      "pub_name": "Manuscript Releases, vol. 16 [Nos. 1186-1235]",
      "refcode_long": "Manuscript Releases, vol. 16 [Nos. 1186-1235], p. 270.1 (Ellen Gould White)",
      "refcode_short": "16MR 270.1",
      "pub_year": "1990",
      "snippet": "… abundance <mark>of her</mark> delicacies.... <mark>Come out of her, My people</mark>, that ye be not partakers <mark>of her</mark> sins, and that ye receive not <mark>of her</mark> plagues: for <mark>her</mark> sins have reached unto …",
      "weight": 0.92,
      "group": "egwwritings"
    },
    {
      "index": 4,
      "lang": "en",
      "para_id": "998.558",
      "pub_code": "GCB/GCDB",
      "pub_name": "General Conference Bulletin, vol. 1",
      "refcode_long": "General Conference Bulletin, vol. 1 1895, page 133 paragraph 1",
      "refcode_short": "GCB/GCDB 1895, page 133.1",
      "pub_year": "1895",
      "snippet": "… form <mark>of</mark> the cry, “<mark>Come out of her my people</mark>.” And wherever this cry is heard, it means simply, <mark>Come out of</mark> the world, separate from the world and from the things that …",
      "weight": 0.9,
      "group": "apl"
    },
    {
      "index": 5,
      "lang": "en",
      "para_id": "1673.1735",
      "pub_code": "GCB",
      "pub_name": "General Conference Bulletin, vol. 1",
      "refcode_long": "General Conference Bulletin, vol. 1 February 13,  1895, page 133 paragraph 1",
      "refcode_short": "GCB February 13,  1895, page 133.1",
      "pub_year": "1895",
      "snippet": "… form <mark>of</mark> the cry, “<mark>Come out of her my people</mark>.” And wherever this cry is heard, it means simply, <mark>Come out of</mark> the world, separate from the world, and from the things that …",
      "weight": 0.9,
      "group": "apl"
    },
    {
      "index": 6,
      "lang": "en",
      "para_id": "1564.16",
      "pub_code": "TTAM",
      "pub_name": "The Third Angel’s Message",
      "refcode_long": "The Third Angel’s Message, p. 4.1 (James Springer White)",
      "refcode_short": "TTAM 4.1",
      "pub_year": "1850",
      "snippet": "… drink <mark>of</mark> the wine <mark>of</mark> the wrath <mark>of her</mark> fornication.” Revelation 14:8. - “<mark>Come out of her my people</mark>.” Revelation 18:4. This second angel did not go on his mission and deliver …",
      "weight": 0.89,
      "group": "apl"
    },
    {
      "index": 7,
      "lang": "en",
      "para_id": "1087.2332",
      "pub_code": "AMS",
      "pub_name": "The American Sentinel 9",
      "refcode_long": "The American Sentinel 9 November 1,  1894, page 338 paragraph 10",
      "refcode_short": "AMS November 1,  1894, page 338.10",
      "pub_year": "1894",
      "snippet": "… message <mark>of</mark> mercy: “<mark>Come out of her, my people</mark>, that ye partake not <mark>of her</mark> sins and receive not <mark>of her</mark> plagues.” <mark>Come out of</mark> Babylon the great, the mother <mark>of</mark> harlots …",
      "weight": 0.89,
      "group": "apl"
    },
    {
      "index": 8,
      "lang": "en",
      "para_id": "1672.668",
      "pub_code": "GCB",
      "pub_name": "General Conference Bulletin, vol. 2",
      "refcode_long": "General Conference Bulletin, vol. 2 January 1,  1897, page 48 paragraph 2",
      "refcode_short": "GCB January 1,  1897, page 48.2",
      "pub_year": "1897",
      "snippet": "… are <mark>people of</mark> God in Babylon and in Egypt. And to-day the Lord calls, “<mark>Come out of her my people</mark>;” and, “<mark>Out of</mark> Egypt have I called <mark>my</mark> son.”",
      "weight": 0.86,
      "group": "apl"
    },
    {
      "index": 9,
      "lang": "en",
      "para_id": "998.501",
      "pub_code": "GCB/GCDB",
      "pub_name": "General Conference Bulletin, vol. 1",
      "refcode_long": "General Conference Bulletin, vol. 1 1895, page 127 paragraph 2",
      "refcode_short": "GCB/GCDB 1895, page 127.2",
      "pub_year": "1895",
      "snippet": "… , saying, <mark>Come out of her, my people</mark>,” that it is the voice that <mark>comes</mark> from heaven that calls the <mark>people out</mark>. And therefore, those human instruments who will make …",
      "weight": 0.86,
      "group": "apl"
    },
    {
      "index": 10,
      "lang": "en",
      "para_id": "1673.1676",
      "pub_code": "GCB",
      "pub_name": "General Conference Bulletin, vol. 1",
      "refcode_long": "General Conference Bulletin, vol. 1 February 13,  1895, page 127 paragraph 9",
      "refcode_short": "GCB February 13,  1895, page 127.9",
      "pub_year": "1895",
      "snippet": "… , saying, <mark>Come out of her, my people</mark>,” that it is the voice that <mark>comes</mark> from heaven that calls the <mark>people out</mark>. And therefore, those human instruments who will make …",
      "weight": 0.86,
      "group": "apl"
    },
    {
      "index": 11,
      "lang": "en",
      "para_id": "131.2753",
      "pub_code": "FLB",
      "pub_name": "The Faith I Live By",
      "refcode_long": "The Faith I Live By, p. 335.5 (Ellen Gould White)",
      "refcode_short": "FLB 335.5",
      "pub_year": "1958",
      "snippet": "… fall <mark>of</mark> Babylon and calling upon God’s <mark>people</mark> to <mark>come out of her</mark> that they might escape <mark>her</mark> fearful doom.",
      "weight": 0.85,
      "group": "egwwritings"
    },
    {
      "index": 12,
      "lang": "en",
      "para_id": "756.1241",
      "pub_code": "EGWC",
      "pub_name": "Ellen G. White and Her Critics",
      "refcode_long": "Ellen G. White and Her Critics, p. 166.1 (Francis D. Nichol)",
      "refcode_short": "EGWC 166.1",
      "pub_year": "1994",
      "snippet": "… <mark>of</mark> the tragedy <mark>of</mark> the world. This led the Millerite leaders in general to apply to the members <mark>of</mark> these churches the command: “<mark>Come out of her, my people</mark>.” This feature …",
      "weight": 0.85,
      "group": "reference"
    },
    {
      "index": 13,
      "lang": "en",
      "para_id": "1675.2071",
      "pub_code": "ARSH",
      "pub_name": "Advent Review, and Sabbath Herald, vol. 8",
      "refcode_long": "Advent Review, and Sabbath Herald, vol. 8 June 12,  1856, page 55 paragraph 15",
      "refcode_short": "ARSH June 12,  1856, page 55.15",
      "pub_year": "1856",
      "snippet": "… institutions. <mark>Come out</mark>, beloved one, <mark>come out. “Come out of her, my people</mark>, that ye not partakers <mark>of her</mark> sins, an that ye receive not <mark>of her</mark> plagues.” - Revelation 18:4 …",
      "weight": 0.85,
      "group": "apl"
    },
    {
      "index": 14,
      "lang": "en",
      "para_id": "973.108",
      "pub_code": "BP2",
      "pub_name": "[Bates’ Pamphlet #2] Second Advent Way Marks and High Heaps",
      "refcode_long": "[Bates’ Pamphlet #2] Second Advent Way Marks and High Heaps, p. 65.3 (Joseph Bates)",
      "refcode_short": "BP2 65.3",
      "pub_year": "1847",
      "snippet": "… Heaven “<mark>comes out of her my people</mark>,” is a message delivered by messengers calling on God’s <mark>people</mark> to <mark>come out of</mark> these Churches.",
      "weight": 0.84,
      "group": "apl"
    },
    {
      "index": 15,
      "lang": "en",
      "para_id": "14065.8058014",
      "pub_code": "15LtMs",
      "pub_name": "Letters and Manuscripts — Volume 15 (1900)",
      "refcode_long": "Letters and Manuscripts — Volume 15 (1900), Lt 28, 1900, par. 8",
      "refcode_short": "15LtMs, Lt 28, 1900, par. 8",
      "pub_year": "1900",
      "snippet": "… <mark>of her</mark> delicacies. And I heard another voice from heaven, saying, <mark>Come out of her, my people</mark>, that ye be not partakers <mark>of her</mark> sins, and that ye receive not <mark>of her</mark> plagues …",
      "weight": 0.84,
      "group": "egwwritings"
    },
    {
      "index": 16,
      "lang": "en",
      "para_id": "28.1349",
      "pub_code": "EW",
      "pub_name": "Early Writings",
      "refcode_long": "Early Writings, p. 277.2 (Ellen Gould White)",
      "refcode_short": "EW 277.2",
      "pub_year": "1882",
      "snippet": "… everywhere, “<mark>Come out of her, My people</mark>, that ye be not partakers <mark>of her</mark> sins, and that ye receive not <mark>of her</mark> plagues. For <mark>her</mark> sins have reached unto heaven, and God …",
      "weight": 0.83,
      "group": "egwwritings"
    },
    {
      "index": 17,
      "lang": "en",
      "para_id": "104.714",
      "pub_code": "1SG",
      "pub_name": "Spiritual Gifts, vol. 1",
      "refcode_long": "Spiritual Gifts, vol. 1, p. 194.1 (Ellen Gould White)",
      "refcode_short": "1SG 194.1",
      "pub_year": "1858",
      "snippet": "… where, <mark>Come out of her, my people</mark>, that ye be not partakers <mark>of her</mark> sins, and that ye receive not <mark>of her</mark> plagues; for <mark>her</mark> sins have reached unto heaven, and God hath …",
      "weight": 0.83,
      "group": "egwwritings"
    },
    {
      "index": 18,
      "lang": "en",
      "para_id": "145.1904",
      "pub_code": "SR",
      "pub_name": "The Story of Redemption",
      "refcode_long": "The Story of Redemption, p. 399.3 (Ellen Gould White)",
      "refcode_short": "SR 399.3",
      "pub_year": "1947",
      "snippet": "… everywhere, “<mark>Come out of her, My people</mark>, that ye be not partakers <mark>of her</mark> sins, and that ye receive not <mark>of her</mark> plagues. For <mark>her</mark> sins have reached unto heaven, and God …",
      "weight": 0.83,
      "group": "egwwritings"
    },
    {
      "index": 19,
      "lang": "en",
      "para_id": "14648.622",
      "pub_code": "3AM",
      "pub_name": "The Three Angels’ Messages",
      "refcode_long": "The Three Angels’ Messages, p. 132.1 (Ellen Gould White)",
      "refcode_short": "3AM 132.1",
      "pub_year": "2022",
      "snippet": "… everywhere, <mark>Come out of her, My people</mark>, that ye be not partakers <mark>of her</mark> sins, and that ye receive not <mark>of her</mark> plagues; for <mark>her</mark> sins have reached unto heaven, and God …",
      "weight": 0.83,
      "group": "egwwritings"
    }
  ]
}
