{
  "next": "https://a.egwwritings.org/search?lang=en&period=all&facets=False&query=Armageddon%20final%20battle&offset=20&limit=20&order=rel&snippet=long&query_type=prefer_exact",
  "previous": null,
  "total": 42,
  "count": 42,
  "results": [
    {
      "index": 0,
      "lang": "en",
      "para_id": "14721.5790",
      "pub_code": "ABC-NT",
      "pub_name": "Andrews Bible Commentary - New Testament",
      "refcode_long": "Andrews Bible Commentary - New Testament, p. 1979.67",
      "refcode_short": "ABC-NT 1979.67",
      "pub_year": "",
      "snippet": "",
      "weight": 1,
      "group": "bible",
      "action_required": "purchased"
    },
    {
      "index": 1,
      "lang": "en",
      "para_id": "14721.5853",
      "pub_code": "ABC-NT",
      "pub_name": "Andrews Bible Commentary - New Testament",
      "refcode_long": "Andrews Bible Commentary - New Testament, p. 1996.1",
      "refcode_short": "ABC-NT 1996.1",
      "pub_year": "",
      "snippet": "",
      "weight": 0.91,
      "group": "bible",
      "action_required": "purchased"
    },
    {
      "index": 2,
      "lang": "en",
      "para_id": "14721.5856",
      "pub_code": "ABC-NT",
      "pub_name": "Andrews Bible Commentary - New Testament",
      "refcode_long": "Andrews Bible Commentary - New Testament, p. 1996.4",
      "refcode_short": "ABC-NT 1996.4",
      "pub_year": "",
      "snippet": "",
      "weight": 0.9,
      "group": "bible",
      "action_required": "purchased"
    },
    {
      "index": 3,
      "lang": "en",
      "para_id": "12362.7090",
      "pub_code": "EGWEnc",
      "pub_name": "The Ellen G. White Encyclopedia",
      "refcode_long": "The Ellen G. White Encyclopedia, p. 809.3 (Denis Fortin, Jerry Moon)",
      "refcode_short": "EGWEnc 809.3",
      "pub_year": "2013",
      "snippet": "",
      "weight": 0.9,
      "group": "reference",
      "action_required": "purchased"
    },
    {
      "index": 4,
      "lang": "en",
      "para_id": "978.1858",
      "pub_code": "BHB",
      "pub_name": "Bible Handbook",
      "refcode_long": "Bible Handbook, p. 128.2 (Stephen Nelson Haskell)",
      "refcode_short": "BHB 128.2",
      "pub_year": "1919",
      "snippet": "• Revelation 16:16. “<mark>Armageddon</mark>” occurs but once in the Bible, and then refers to the <mark>final battle</mark> which closes all earthly scenes. Testimonies for the Church 6:406 .",
      "weight": 0.9,
      "group": "apl"
    },
    {
      "index": 5,
      "lang": "en",
      "para_id": "1127.1306",
      "pub_code": "CIS",
      "pub_name": "The Cross and its Shadow",
      "refcode_long": "The Cross and its Shadow, p. 291.5 (Stephen Nelson Haskell)",
      "refcode_short": "CIS 291.5",
      "pub_year": "1914",
      "snippet": "… the <mark>battle</mark> of Megiddo, which is in many respects a type of the <mark>final battle</mark> of <mark>Armageddon</mark>, it is stated that “in the divisions of Reuben there were great searchings …",
      "weight": 0.9,
      "group": "apl"
    },
    {
      "index": 6,
      "lang": "en",
      "para_id": "12666.6605",
      "pub_code": "HSDAT",
      "pub_name": "Handbook of SDA Theology",
      "refcode_long": "Handbook of SDA Theology, p. 619.9 (Raoul Dederen-GCSDA)",
      "refcode_short": "HSDAT 619.9",
      "pub_year": "2000",
      "snippet": "",
      "weight": 0.88,
      "group": "bible",
      "action_required": "purchased"
    },
    {
      "index": 7,
      "lang": "en",
      "para_id": "14266.181",
      "pub_code": "GP",
      "pub_name": "The Gift of Prophecy (The Role of Ellen White in God’s Remnant Church)",
      "refcode_long": "The Gift of Prophecy (The Role of Ellen White in God’s Remnant Church), p. 28.3 (Gerhard Pfandl)",
      "refcode_short": "GP 28.3",
      "pub_year": "2008",
      "snippet": "… , the <mark>final battle</mark> between good and evil is called the <mark>battle</mark> of <mark>Armageddon</mark> (see Revelation 16:12-16).",
      "weight": 0.87,
      "group": "reference"
    },
    {
      "index": 8,
      "lang": "en",
      "para_id": "14721.5818",
      "pub_code": "ABC-NT",
      "pub_name": "Andrews Bible Commentary - New Testament",
      "refcode_long": "Andrews Bible Commentary - New Testament, p. 1979.94",
      "refcode_short": "ABC-NT 1979.94",
      "pub_year": "",
      "snippet": "",
      "weight": 0.85,
      "group": "bible",
      "action_required": "purchased"
    },
    {
      "index": 9,
      "lang": "en",
      "para_id": "14266.622",
      "pub_code": "GP",
      "pub_name": "The Gift of Prophecy (The Role of Ellen White in God’s Remnant Church)",
      "refcode_long": "The Gift of Prophecy (The Role of Ellen White in God’s Remnant Church), p. 93.3 (Gerhard Pfandl)",
      "refcode_short": "GP 93.3",
      "pub_year": "2008",
      "snippet": "… a <mark>final battle</mark> against God and His people. <mark>Armageddon</mark> takes place wherever God’s people are endangered by the enemy. At the time of their greatest danger …",
      "weight": 0.85,
      "group": "reference"
    },
    {
      "index": 10,
      "lang": "en",
      "para_id": "14721.5789",
      "pub_code": "ABC-NT",
      "pub_name": "Andrews Bible Commentary - New Testament",
      "refcode_long": "Andrews Bible Commentary - New Testament, p. 1979.66",
      "refcode_short": "ABC-NT 1979.66",
      "pub_year": "",
      "snippet": "",
      "weight": 0.69,
      "group": "bible",
      "action_required": "purchased"
    },
    {
      "index": 11,
      "lang": "en",
      "para_id": "12517.19677",
      "pub_code": "7SDABC",
      "pub_name": "SDA Bible Commentary, vol. 7",
      "refcode_long": "SDA Bible Commentary, vol. 7, p. 842.11 (Francis Nichol-GCSDA)",
      "refcode_short": "7SDABC 842.11",
      "pub_year": "1957",
      "snippet": "",
      "weight": 0.29,
      "group": "bible",
      "action_required": "purchased"
    },
    {
      "index": 12,
      "lang": "en",
      "para_id": "14721.5836",
      "pub_code": "ABC-NT",
      "pub_name": "Andrews Bible Commentary - New Testament",
      "refcode_long": "Andrews Bible Commentary - New Testament, p. 1992.13",
      "refcode_short": "ABC-NT 1992.13",
      "pub_year": "",
      "snippet": "",
      "weight": 0.25,
      "group": "bible",
      "action_required": "purchased"
    },
    {
      "index": 13,
      "lang": "en",
      "para_id": "14721.5863",
      "pub_code": "ABC-NT",
      "pub_name": "Andrews Bible Commentary - New Testament",
      "refcode_long": "Andrews Bible Commentary - New Testament, p. 1996.10",
      "refcode_short": "ABC-NT 1996.10",
      "pub_year": "",
      "snippet": "",
      "weight": 0.25,
      "group": "bible",
      "action_required": "purchased"
    },
    {
      "index": 14,
      "lang": "en",
      "para_id": "74.1890",
      "pub_code": "Mar",
      "pub_name": "Maranatha",
      "refcode_long": "Maranatha, p. 257.4 (Ellen Gould White)",
      "refcode_short": "Mar 257.4",
      "pub_year": "1976",
      "snippet": "… great <mark>final</mark> contest without a desperate struggle. All the world will be on one side or the other of the question. The <mark>battle</mark> of <mark>Armageddon</mark> will be fought, and …",
      "weight": 0.23,
      "group": "egwwritings"
    },
    {
      "index": 15,
      "lang": "en",
      "para_id": "52.1729",
      "pub_code": "8MR",
      "pub_name": "Manuscript Releases, vol. 8 [Nos. 526-663]",
      "refcode_long": "Manuscript Releases, vol. 8 [Nos. 526-663], p. 347.1 (Ellen Gould White)",
      "refcode_short": "8MR 347.1",
      "pub_year": "1990",
      "snippet": "… great <mark>final</mark> contest without a desperate struggle. All the world will be on one side or the other of the question. The <mark>battle</mark> of <mark>Armageddon</mark> will be fought, and …",
      "weight": 0.23,
      "group": "egwwritings"
    },
    {
      "index": 16,
      "lang": "en",
      "para_id": "96.1075",
      "pub_code": "7BC",
      "pub_name": "EGW SDA Bible Commentary, vol. 7",
      "refcode_long": "EGW SDA Bible Commentary, vol. 7, p. 982.6 (Ellen Gould White)",
      "refcode_short": "7BC 982.6",
      "pub_year": "1957",
      "snippet": "… great <mark>final</mark> contest without a desperate struggle. All the world will be on one side or the other of the question. The <mark>battle</mark> of <mark>Armageddon</mark> will be fought, and …",
      "weight": 0.23,
      "group": "bible"
    },
    {
      "index": 17,
      "lang": "en",
      "para_id": "1245.419",
      "pub_code": "WGI",
      "pub_name": "The World’s Greatest Issues: Military, Diplomatic, Religious",
      "refcode_long": "The World’s Greatest Issues: Military, Diplomatic, Religious, p. 93.2 (Alonzo Trevier Jones)",
      "refcode_short": "WGI 93.2",
      "pub_year": "1906",
      "snippet": "… world-<mark>battle</mark> of <mark>Armageddon</mark>, is the <mark>final</mark> meaning and the only culmination of the Eastern Question.",
      "weight": 0.23,
      "group": "apl"
    },
    {
      "index": 18,
      "lang": "en",
      "para_id": "1194.770",
      "pub_code": "PSC",
      "pub_name": "The Probability of the Second Coming of Christ About A.D. 1843",
      "refcode_long": "The Probability of the Second Coming of Christ About A.D. 1843, p. 195.3 (Josiah Litch)",
      "refcode_short": "PSC 195.3",
      "pub_year": "1843",
      "snippet": "… great <mark>battle</mark> of <mark>Armageddon</mark>.",
      "weight": 0.23,
      "group": "apl"
    },
    {
      "index": 19,
      "lang": "en",
      "para_id": "1653.1214",
      "pub_code": "HST",
      "pub_name": "Signs of the Times [Himes], vol. 1",
      "refcode_long": "Signs of the Times [Himes], vol. 1 June 15,  1840, page 42 paragraph 8",
      "refcode_short": "HST June 15,  1840, page 42.8",
      "pub_year": "1840",
      "snippet": "This period would show a great progress in the state of society, and perhaps be signalized for having passed the second engagement of the great <mark>battle</mark> of <mark>Armageddon</mark>,—the <mark>final</mark> termination of Mohamedism, and other forms of error.",
      "weight": 0.23,
      "group": "apl"
    }
  ]
}
