{
  "next": "https://a.egwwritings.org/search?lang=en&period=all&facets=False&query=seven%20last%20plagues&offset=25&limit=25&order=rel&snippet=long&query_type=prefer_exact",
  "previous": null,
  "total": 1087,
  "count": 1087,
  "results": [
    {
      "index": 0,
      "lang": "en",
      "para_id": "1245.445",
      "pub_code": "WGI",
      "pub_name": "The World’s Greatest Issues: Military, Diplomatic, Religious",
      "refcode_long": "The World’s Greatest Issues: Military, Diplomatic, Religious, p. 98.4 (Alonzo Trevier Jones)",
      "refcode_short": "WGI 98.4",
      "pub_year": "1906",
      "snippet": "… the <mark>seven last plagues</mark>, and whosoever escapes the <mark>seven last plagues</mark>, escapes the battle and destruction of that great day and of Armageddon. The battle and …",
      "weight": 1,
      "group": "apl"
    },
    {
      "index": 1,
      "lang": "en",
      "para_id": "1161.438",
      "pub_code": "MEDM",
      "pub_name": "The Medical Missionary, vol. 15",
      "refcode_long": "The Medical Missionary, vol. 15 August 28,  1906, page 76 paragraph 8",
      "refcode_short": "MEDM August 28,  1906, page 76.8",
      "pub_year": "1906",
      "snippet": "… the <mark>seven last plagues</mark>; and whosoever escapes the <mark>seven last plagues</mark>, escapes the battle and destruction of that great day and of Armageddon. The battle and …",
      "weight": 0.98,
      "group": "apl"
    },
    {
      "index": 2,
      "lang": "en",
      "para_id": "1206.1521",
      "pub_code": "SITI",
      "pub_name": "The Signs of the Times, vol. 12",
      "refcode_long": "The Signs of the Times, vol. 12 September 2,  1886, page 535 paragraph 5",
      "refcode_short": "SITI September 2,  1886, page 535.5",
      "pub_year": "1886",
      "snippet": "… the <mark>seven last plagues</mark>. Note further, they are the <mark>seven last plagues</mark>. These <mark>plagues</mark> are the <mark>last</mark> that the world will ever see, at least in this life. This of itself …",
      "weight": 0.94,
      "group": "apl"
    },
    {
      "index": 3,
      "lang": "en",
      "para_id": "949.1017",
      "pub_code": "FSDA",
      "pub_name": "Foundations of the Seventh-day Adventist Message and Mission",
      "refcode_long": "Foundations of the Seventh-day Adventist Message and Mission, p. 214.1 (Pieter Gerard Damsteegt)",
      "refcode_short": "FSDA 214.1",
      "pub_year": "1977",
      "snippet": "… <mark></mark> in the future (“The <mark>Seven Last Plagues</mark>,” MC, Aug. 17, 1843, p. 205). J. White, A Word to the Little Flock, 3. This typology showed him that the <mark>seven last plagues</mark> were of …",
      "weight": 0.94,
      "group": "apl"
    },
    {
      "index": 4,
      "lang": "en",
      "para_id": "1002.376",
      "pub_code": "GCB/GCDB",
      "pub_name": "General Conference Daily Bulletin, vol. 5",
      "refcode_long": "General Conference Daily Bulletin, vol. 5 1893, page 88 paragraph 5",
      "refcode_short": "GCB/GCDB 1893, page 88.5",
      "pub_year": "1893",
      "snippet": "… : “The <mark>seven last plagues</mark>.”] Revelation 15:1. Then doesn’t it follow on the face of it, that the <mark>seven last plagues</mark> are the next thing after that warning? And that the …",
      "weight": 0.88,
      "group": "apl"
    },
    {
      "index": 5,
      "lang": "en",
      "para_id": "1661.1153",
      "pub_code": "GCDB",
      "pub_name": "General Conference Daily Bulletin, vol. 5",
      "refcode_long": "General Conference Daily Bulletin, vol. 5 January 31,  1893, page 88 paragraph 5",
      "refcode_short": "GCDB January 31,  1893, page 88.5",
      "pub_year": "1893",
      "snippet": "… - “The <mark>seven last plagues</mark>.”] Revelation 15:1. Then doesn’t it follow on the face of it, that the <mark>seven last plagues</mark> are the next thing after that warning? and that the …",
      "weight": 0.88,
      "group": "apl"
    },
    {
      "index": 6,
      "lang": "en",
      "para_id": "949.1022",
      "pub_code": "FSDA",
      "pub_name": "Foundations of the Seventh-day Adventist Message and Mission",
      "refcode_long": "Foundations of the Seventh-day Adventist Message and Mission, p. 215.1 (Pieter Gerard Damsteegt)",
      "refcode_short": "FSDA 215.1",
      "pub_year": "1977",
      "snippet": "… the <mark>seven</mark> trumpets. His rationale for the relationship between the <mark>seven</mark> trumpets and the finality of God’s wrath in the <mark>seven last plagues</mark> was the following …",
      "weight": 0.86,
      "group": "apl"
    },
    {
      "index": 7,
      "lang": "en",
      "para_id": "1002.386",
      "pub_code": "GCB/GCDB",
      "pub_name": "General Conference Daily Bulletin, vol. 5",
      "refcode_long": "General Conference Daily Bulletin, vol. 5 1893, page 89 paragraph 6",
      "refcode_short": "GCB/GCDB 1893, page 89.6",
      "pub_year": "1893",
      "snippet": "… ? The <mark>seven last plagues</mark>. Do you believe that the end of the world is coming, with the <mark>seven last plagues</mark>, just as certainly as that the image to the beast is made …",
      "weight": 0.85,
      "group": "apl"
    },
    {
      "index": 8,
      "lang": "en",
      "para_id": "1661.1163",
      "pub_code": "GCDB",
      "pub_name": "General Conference Daily Bulletin, vol. 5",
      "refcode_long": "General Conference Daily Bulletin, vol. 5 January 31,  1893, page 89 paragraph 6",
      "refcode_short": "GCDB January 31,  1893, page 89.6",
      "pub_year": "1893",
      "snippet": "… ? - The <mark>seven last plagues</mark>. Do you believe that the end of the world is coming, with the <mark>seven last plagues</mark>, just as certainly as that the image to the beast is made …",
      "weight": 0.85,
      "group": "apl"
    },
    {
      "index": 9,
      "lang": "en",
      "para_id": "1002.373",
      "pub_code": "GCB/GCDB",
      "pub_name": "General Conference Daily Bulletin, vol. 5",
      "refcode_long": "General Conference Daily Bulletin, vol. 5 1893, page 88 paragraph 2",
      "refcode_short": "GCB/GCDB 1893, page 88.2",
      "pub_year": "1893",
      "snippet": "… <mark>seven last plagues</mark> are between them. Then what is the next great, marked thing in the history of this world and of mankind and of salvation? The <mark>seven last plagues</mark> …",
      "weight": 0.85,
      "group": "apl"
    },
    {
      "index": 10,
      "lang": "en",
      "para_id": "1661.1150",
      "pub_code": "GCDB",
      "pub_name": "General Conference Daily Bulletin, vol. 5",
      "refcode_long": "General Conference Daily Bulletin, vol. 5 January 31,  1893, page 88 paragraph 2",
      "refcode_short": "GCDB January 31,  1893, page 88.2",
      "pub_year": "1893",
      "snippet": "… <mark>seven last plagues</mark> are between them. Then what is the next great, marked thing in the history of this world, and of mankind, and of salvation? - The <mark>seven last plagues</mark> …",
      "weight": 0.85,
      "group": "apl"
    },
    {
      "index": 11,
      "lang": "en",
      "para_id": "12668.19255",
      "pub_code": "SDAEnc",
      "pub_name": "SDA Encyclopedia",
      "refcode_long": "SDA Encyclopedia, p. .0 (General Conference of SDA)",
      "refcode_short": "SDAEnc .0",
      "pub_year": "1966",
      "snippet": "",
      "weight": 0.83,
      "group": "bible",
      "action_required": "purchased"
    },
    {
      "index": 12,
      "lang": "en",
      "para_id": "1240.483",
      "pub_code": "TMR",
      "pub_name": "The Three Messages of Revelation 14:6-12",
      "refcode_long": "The Three Messages of Revelation 14:6-12, p. 115.2 (John Nevins Andrews)",
      "refcode_short": "TMR 115.2",
      "pub_year": "1892",
      "snippet": "… the <mark>seven last plagues</mark>; for the first <mark>plague</mark> is inflicted on the very class that the third angel threatens. Compare Revelation 14:9, 10; 16:1, 2. The fact proves …",
      "weight": 0.83,
      "group": "apl"
    },
    {
      "index": 13,
      "lang": "en",
      "para_id": "1462.1339",
      "pub_code": "LIFIN",
      "pub_name": "Life Incidents",
      "refcode_long": "Life Incidents, p. 260.3 (James Springer White)",
      "refcode_short": "LIFIN 260.3",
      "pub_year": "1868",
      "snippet": "… the <mark>seven last plagues</mark>; for the first <mark>plague</mark> is inflicted on the very class that the third angel threatens. Compare Revelation 14:9, 10; 16:1, 2. This fact proves …",
      "weight": 0.83,
      "group": "apl"
    },
    {
      "index": 14,
      "lang": "en",
      "para_id": "1656.1711",
      "pub_code": "HST",
      "pub_name": "Signs of the Times and Expositor of Prophecy [Himes], vol. 4",
      "refcode_long": "Signs of the Times and Expositor of Prophecy [Himes], vol. 4 November 16,  1842, page 69 paragraph 30",
      "refcode_short": "HST November 16,  1842, page 69.30",
      "pub_year": "1842",
      "snippet": "Chapter VI.— The <mark>Seven Last Plagues</mark> .—Reasons for believing the <mark>seven last plagues</mark> yet future, 175.—The vials and their effects, 177.—A synopsis of Ezekiel, thirty-seventh, thirty-eighth, and thirty-ninth chapters, 193.—The close of the <mark>plagues</mark>, 195.",
      "weight": 0.83,
      "group": "apl"
    },
    {
      "index": 15,
      "lang": "en",
      "para_id": "1693.4413",
      "pub_code": "ARSH",
      "pub_name": "Advent Review, and Sabbath Herald, vol. 10",
      "refcode_long": "Advent Review, and Sabbath Herald, vol. 10 August 20,  1857, page 124 paragraph 4",
      "refcode_short": "ARSH August 20,  1857, page 124.4",
      "pub_year": "1857",
      "snippet": "… the <mark>seven last plagues</mark> of Revelation 16th are all yet in the future. This is essential to the argument, because the very first <mark>plague</mark> takes effect “upon the …",
      "weight": 0.83,
      "group": "apl"
    },
    {
      "index": 16,
      "lang": "en",
      "para_id": "1615.517",
      "pub_code": "TAR",
      "pub_name": "The Three Angels of Revelation 14:6-12",
      "refcode_long": "The Three Angels of Revelation 14:6-12, p. 119.2 (John Nevins Andrews)",
      "refcode_short": "TAR 119.2",
      "pub_year": "1855",
      "snippet": "… the <mark>seven last plagues</mark>; for the first <mark>plague</mark> is inflicted on the very class that the third angel threatens. Compare Revelation 14:9, 10; 16:1, 2. This fact proves …",
      "weight": 0.82,
      "group": "apl"
    },
    {
      "index": 17,
      "lang": "en",
      "para_id": "14805.503",
      "pub_code": "CFL",
      "pub_name": "Counsels on Future Life",
      "refcode_long": "Counsels on Future Life, p. 72.2 (Ellen G. White Estate)",
      "refcode_short": "CFL 72.2",
      "pub_year": "2025",
      "snippet": "… the <mark>seven last plagues</mark> commence. https://www.amazingfacts.org/media-library/media/e/21064/t/the-<mark>seven-last-plagues</mark>",
      "weight": 0.82,
      "group": "reference"
    },
    {
      "index": 18,
      "lang": "en",
      "para_id": "756.2496",
      "pub_code": "EGWC",
      "pub_name": "Ellen G. White and Her Critics",
      "refcode_long": "Ellen G. White and Her Critics, p. 337.2 (Francis D. Nichol)",
      "refcode_short": "EGWC 337.2",
      "pub_year": "1994",
      "snippet": "… the <mark>seven last plagues</mark>. “The slave-holders are all dead. Will they be resurrected to pass through the <mark>seven last plagues</mark>?” Quite evidently she could not see a …",
      "weight": 0.82,
      "group": "reference"
    },
    {
      "index": 19,
      "lang": "en",
      "para_id": "949.1023",
      "pub_code": "FSDA",
      "pub_name": "Foundations of the Seventh-day Adventist Message and Mission",
      "refcode_long": "Foundations of the Seventh-day Adventist Message and Mission, p. 215.2 (Pieter Gerard Damsteegt)",
      "refcode_short": "FSDA 215.2",
      "pub_year": "1977",
      "snippet": "… of <mark>plagues</mark> must come upon men, even the <mark>seven LAST plagues</mark> which fill up God’s wrath. Andrews, “The <mark>Seven Last Plagues</mark>,” RH, Dec. 29, 1868, p. 5.",
      "weight": 0.82,
      "group": "apl"
    },
    {
      "index": 20,
      "lang": "en",
      "para_id": "1437.117",
      "pub_code": "BEARF",
      "pub_name": "A Brief Exposition of the Angels of Revelation XIV",
      "refcode_long": "A Brief Exposition of the Angels of Revelation XIV, p. 21.3 (James Springer White)",
      "refcode_short": "BEARF 21.3",
      "pub_year": "0",
      "snippet": "… the <mark>SEVEN LAST PLAGUES</mark>. These <mark>plagues</mark> are evidently shadowed forth by the <mark>plagues</mark> of Egypt, and will be as real and literal as those were. Compare Exodus 7-12 …",
      "weight": 0.82,
      "group": "apl"
    },
    {
      "index": 21,
      "lang": "en",
      "para_id": "12668.19254",
      "pub_code": "SDAEnc",
      "pub_name": "SDA Encyclopedia",
      "refcode_long": "SDA Encyclopedia, p. .0 (General Conference of SDA)",
      "refcode_short": "SDAEnc .0",
      "pub_year": "1966",
      "snippet": "",
      "weight": 0.81,
      "group": "bible",
      "action_required": "purchased"
    },
    {
      "index": 22,
      "lang": "en",
      "para_id": "1156.148",
      "pub_code": "MON",
      "pub_name": "The Marshaling of the Nations",
      "refcode_long": "The Marshaling of the Nations, p. 35.3 (Alonzo Trevier Jones)",
      "refcode_short": "MON 35.3",
      "pub_year": "1900",
      "snippet": "… the <mark>seven last plagues</mark>. All trouble, distress, and woe that will ever be upon the earth will come in these; for they are the <mark>seven last plagues</mark>. The sixth one is …",
      "weight": 0.8,
      "group": "apl"
    },
    {
      "index": 23,
      "lang": "en",
      "para_id": "1615.555",
      "pub_code": "TAR",
      "pub_name": "The Three Angels of Revelation 14:6-12",
      "refcode_long": "The Three Angels of Revelation 14:6-12, p. 128.1 (John Nevins Andrews)",
      "refcode_short": "TAR 128.1",
      "pub_year": "1855",
      "snippet": "… the <mark>seven last plagues</mark>-the third woe. How fearful will be the events of that woe! May God count us worthy to escape the things coming on the earth, and to stand …",
      "weight": 0.8,
      "group": "apl"
    },
    {
      "index": 24,
      "lang": "en",
      "para_id": "1321.830",
      "pub_code": "MWV2",
      "pub_name": "Miller’s Works, vol. 2. Evidence from Scripture and History of the Second Coming of Christ about the Year",
      "refcode_long": "Miller’s Works, vol. 2. Evidence from Scripture and History of the Second Coming of Christ about the Year, p. 219.4 (William Miller)",
      "refcode_short": "MWV2 219.4",
      "pub_year": "1843",
      "snippet": "… the <mark>last plagues</mark> have been poured out, and how many yet remain for us to experience. These <mark>seven last plagues</mark> have had their shadows in the <mark>plagues</mark> which God …",
      "weight": 0.79,
      "group": "apl"
    }
  ]
}
