{
  "next": "https://a.egwwritings.org/search?lang=en&period=all&facets=False&query=close%20of%20probation&offset=25&limit=25&order=rel&snippet=long&query_type=prefer_exact",
  "previous": null,
  "total": 1459,
  "count": 1459,
  "results": [
    {
      "index": 0,
      "lang": "en",
      "para_id": "14266.612",
      "pub_code": "GP",
      "pub_name": "The Gift of Prophecy (The Role of Ellen White in God’s Remnant Church)",
      "refcode_long": "The Gift of Prophecy (The Role of Ellen White in God’s Remnant Church), p. 91.4 (Gerhard Pfandl)",
      "refcode_short": "GP 91.4",
      "pub_year": "2008",
      "snippet": "… changing <mark>of</mark> sides after the <mark>close of probation</mark>, the test involving a death threat must come before the <mark>close of probation</mark>. In Early Writings, 36, 37, Ellen White …",
      "weight": 1,
      "group": "reference"
    },
    {
      "index": 1,
      "lang": "en",
      "para_id": "14266.611",
      "pub_code": "GP",
      "pub_name": "The Gift of Prophecy (The Role of Ellen White in God’s Remnant Church)",
      "refcode_long": "The Gift of Prophecy (The Role of Ellen White in God’s Remnant Church), p. 91.3 (Gerhard Pfandl)",
      "refcode_short": "GP 91.3",
      "pub_year": "2008",
      "snippet": "… the <mark>close of probation</mark> (see GC 634), the martyrs referred to in Revelation 20:4 must suffer their martyrdom before the <mark>close of probation</mark>. Consequently, we can …",
      "weight": 0.9,
      "group": "reference"
    },
    {
      "index": 2,
      "lang": "en",
      "para_id": "1134.732",
      "pub_code": "HOMI",
      "pub_name": "The Home Missionary, vol. 5",
      "refcode_long": "The Home Missionary, vol. 5 November 1893, page 12 paragraph 13",
      "refcode_short": "HOMI November 1893, page 12.13",
      "pub_year": "1893",
      "snippet": "… the <mark>close of probation</mark>. And the health reform is to prepare our bodies for the <mark>close of probation</mark>, because, between the <mark>close of probation</mark> and the Saviour’s …",
      "weight": 0.9,
      "group": "apl"
    },
    {
      "index": 3,
      "lang": "en",
      "para_id": "12362.5278",
      "pub_code": "EGWEnc",
      "pub_name": "The Ellen G. White Encyclopedia",
      "refcode_long": "The Ellen G. White Encyclopedia, p. 615.4 (Denis Fortin, Jerry Moon)",
      "refcode_short": "EGWEnc 615.4",
      "pub_year": "2013",
      "snippet": "",
      "weight": 0.85,
      "group": "reference",
      "action_required": "purchased"
    },
    {
      "index": 4,
      "lang": "en",
      "para_id": "14266.620",
      "pub_code": "GP",
      "pub_name": "The Gift of Prophecy (The Role of Ellen White in God’s Remnant Church)",
      "refcode_long": "The Gift of Prophecy (The Role of Ellen White in God’s Remnant Church), p. 93.1 (Gerhard Pfandl)",
      "refcode_short": "GP 93.1",
      "pub_year": "2008",
      "snippet": "… <mark>of</mark> Jacob’s trouble, referred to in Jeremiah 30:7, begins with the death decree before the <mark>close of probation</mark>, but it occupies most <mark>of</mark> the great time <mark>of</mark> trouble …",
      "weight": 0.85,
      "group": "reference"
    },
    {
      "index": 5,
      "lang": "en",
      "para_id": "14266.596",
      "pub_code": "GP",
      "pub_name": "The Gift of Prophecy (The Role of Ellen White in God’s Remnant Church)",
      "refcode_long": "The Gift of Prophecy (The Role of Ellen White in God’s Remnant Church), p. 89.4 (Gerhard Pfandl)",
      "refcode_short": "GP 89.4",
      "pub_year": "2008",
      "snippet": "… the <mark>close of probation</mark>; (2) the great time <mark>of</mark> trouble, which follows the <mark>close of probation</mark> and concludes with the Second Advent; and (3) the millennium, which follows …",
      "weight": 0.85,
      "group": "reference"
    },
    {
      "index": 6,
      "lang": "en",
      "para_id": "723.34",
      "pub_code": "CESDAC",
      "pub_name": "Charismatic Experiences in the Seventh-Day Adventist Church",
      "refcode_long": "Charismatic Experiences in the Seventh-Day Adventist Church, p. 4.7 (George E. Rice)",
      "refcode_short": "CESDAC 4.7",
      "pub_year": "1990",
      "snippet": "… <mark> of probation</mark>: “The things you have described as taking place in Indiana, the Lord has shown me would take place just before the <mark>close of probation</mark>. Every …",
      "weight": 0.85,
      "group": "reference"
    },
    {
      "index": 7,
      "lang": "en",
      "para_id": "1542.715",
      "pub_code": "SITI",
      "pub_name": "The Signs of the Times, vol. 15",
      "refcode_long": "The Signs of the Times, vol. 15 February 11,  1889, page 88 paragraph 1",
      "refcode_short": "SITI February 11,  1889, page 88.1",
      "pub_year": "1889",
      "snippet": "… doctrine <mark>of probation</mark> after death, and universal salvation. In fact, the doctrine <mark>of probation</mark> after death, inevitably runs into that <mark>of</mark> universal salvation …",
      "weight": 0.83,
      "group": "apl"
    },
    {
      "index": 8,
      "lang": "en",
      "para_id": "758.135",
      "pub_code": "EGWSDQ",
      "pub_name": "Ellen G. White and the Shut Door Question",
      "refcode_long": "Ellen G. White and the Shut Door Question, p. 20.2 (Arthur Lacey White)",
      "refcode_short": "EGWSDQ 20.2",
      "pub_year": "1982",
      "snippet": "… , a <mark>close of probation</mark> for the whole world. In some <mark>of</mark> its expressions it carried the seeds <mark>of</mark> the teaching <mark>of</mark> a much greater movement yet to take place. Yet the …",
      "weight": 0.82,
      "group": "reference"
    },
    {
      "index": 9,
      "lang": "en",
      "para_id": "951.2261",
      "pub_code": "DOF",
      "pub_name": "In Defense of the Faith",
      "refcode_long": "In Defense of the Faith, p. 363.3 (William Henry Branson)",
      "refcode_short": "DOF 363.3",
      "pub_year": "1933",
      "snippet": "… view <mark>of</mark> the Second Advent doctrine regarding the <mark>close of probation</mark> and the salvation <mark>of</mark> sinners? We answer, Yes, even as the apostles, whom God used to write …",
      "weight": 0.82,
      "group": "apl"
    },
    {
      "index": 10,
      "lang": "en",
      "para_id": "1462.1058",
      "pub_code": "LIFIN",
      "pub_name": "Life Incidents",
      "refcode_long": "Life Incidents, p. 203.3 (James Springer White)",
      "refcode_short": "LIFIN 203.3",
      "pub_year": "1868",
      "snippet": "… marriage <mark>of</mark> the Lamb does not cover the entire period <mark>of probation</mark>, in which believers are united to their Lord, from Adam to the <mark>close of probation</mark>. It is one …",
      "weight": 0.77,
      "group": "apl"
    },
    {
      "index": 11,
      "lang": "en",
      "para_id": "1463.582",
      "pub_code": "LIFSK",
      "pub_name": "Life Sketches",
      "refcode_long": "Life Sketches, p. 120.1 (James Springer White)",
      "refcode_short": "LIFSK 120.1",
      "pub_year": "1880",
      "snippet": "… marriage <mark>of</mark> the Lamb does not cover the entire period <mark>of probation</mark>, in which believers are united to their Lord, from Adam to the <mark>close of probation</mark>. It is one …",
      "weight": 0.77,
      "group": "apl"
    },
    {
      "index": 12,
      "lang": "en",
      "para_id": "12668.25744",
      "pub_code": "SDAEnc",
      "pub_name": "SDA Encyclopedia",
      "refcode_long": "SDA Encyclopedia, p. .0 (General Conference of SDA)",
      "refcode_short": "SDAEnc .0",
      "pub_year": "1966",
      "snippet": "",
      "weight": 0.77,
      "group": "bible",
      "action_required": "purchased"
    },
    {
      "index": 13,
      "lang": "en",
      "para_id": "14266.598",
      "pub_code": "GP",
      "pub_name": "The Gift of Prophecy (The Role of Ellen White in God’s Remnant Church)",
      "refcode_long": "The Gift of Prophecy (The Role of Ellen White in God’s Remnant Church), p. 89.5 (Gerhard Pfandl)",
      "refcode_short": "GP 89.5",
      "pub_year": "2008",
      "snippet": "… the <mark>close of probation</mark>: In heaven, the investigative judgment will deal with those whose names are found in the book <mark>of</mark> life. On earth, a short time prior to the …",
      "weight": 0.77,
      "group": "reference"
    },
    {
      "index": 14,
      "lang": "en",
      "para_id": "12668.5400",
      "pub_code": "SDAEnc",
      "pub_name": "SDA Encyclopedia",
      "refcode_long": "SDA Encyclopedia, p. .0 (General Conference of SDA)",
      "refcode_short": "SDAEnc .0",
      "pub_year": "1966",
      "snippet": "",
      "weight": 0.73,
      "group": "bible",
      "action_required": "purchased"
    },
    {
      "index": 15,
      "lang": "en",
      "para_id": "1668.1204",
      "pub_code": "GCB",
      "pub_name": "General Conference Bulletin, vol. 6",
      "refcode_long": "General Conference Bulletin, vol. 6 May 18,  1909, page 45 paragraph 6",
      "refcode_short": "GCB May 18,  1909, page 45.6",
      "pub_year": "1909",
      "snippet": "… <mark>of</mark> Jesus Christ. Therefore the <mark>close of probation</mark> for every soul on this earth is nearer than the end. But <mark>probation</mark> will not <mark>close</mark> until this gospel <mark>of</mark> the …",
      "weight": 0.72,
      "group": "apl"
    },
    {
      "index": 16,
      "lang": "en",
      "para_id": "12667.235",
      "pub_code": "1EGWLM",
      "pub_name": "The Ellen G. White Letters and Manuscripts: Volume 1",
      "refcode_long": "The Ellen G. White Letters and Manuscripts: Volume 1, p. 42.2 (Ellen Gould White)",
      "refcode_short": "1EGWLM 42.2",
      "pub_year": "2014",
      "snippet": "… <mark>of</mark> the ten virgins in Matthew 25 and the <mark>close of probation</mark> language in Revelation 22:11. Millerites generally believed that <mark>probation</mark> would <mark>close</mark> for the …",
      "weight": 0.72,
      "group": "egwwritings"
    },
    {
      "index": 17,
      "lang": "en",
      "para_id": "1476.746",
      "pub_code": "RDAC",
      "pub_name": "Refutation of the Doctrine Called The Age to Come",
      "refcode_long": "Refutation of the Doctrine Called The Age to Come, p. 156.4 (Joseph Harvey Waggoner)",
      "refcode_short": "RDAC 156.4",
      "pub_year": "1872",
      "snippet": "… termination <mark>of probation</mark> at the <mark>close of</mark> that age, nor did the Judgment set upon the transgressors <mark>of</mark> that age, as will be the case at the <mark>close of</mark> this. Hence …",
      "weight": 0.71,
      "group": "apl"
    },
    {
      "index": 18,
      "lang": "en",
      "para_id": "12668.13465",
      "pub_code": "SDAEnc",
      "pub_name": "SDA Encyclopedia",
      "refcode_long": "SDA Encyclopedia, p. .0 (General Conference of SDA)",
      "refcode_short": "SDAEnc .0",
      "pub_year": "1966",
      "snippet": "",
      "weight": 0.71,
      "group": "bible",
      "action_required": "purchased"
    },
    {
      "index": 19,
      "lang": "en",
      "para_id": "1531.375",
      "pub_code": "SCOC",
      "pub_name": "The Second Coming of Christ",
      "refcode_long": "The Second Coming of Christ, p. 75.1 (James Springer White)",
      "refcode_short": "SCOC 75.1",
      "pub_year": "1871",
      "snippet": "… marriage <mark>of</mark> the Lamb does not cover the entire period <mark>of probation</mark>, in which believers are united to their Lord, from Adam to the <mark>close of probation</mark>. It is one …",
      "weight": 0.71,
      "group": "apl"
    },
    {
      "index": 20,
      "lang": "en",
      "para_id": "14024.275",
      "pub_code": "LDE-SG",
      "pub_name": "Last Day Events  -- Study Guide",
      "refcode_long": "Last Day Events  -- Study Guide, p. 39.1 (Ellen G. White Estate)",
      "refcode_short": "LDE-SG 39.1",
      "pub_year": "2019",
      "snippet": "A. Events Preceding the <mark>Close of Probation</mark>",
      "weight": 0.71,
      "group": "reference"
    },
    {
      "index": 21,
      "lang": "en",
      "para_id": "14024.279",
      "pub_code": "LDE-SG",
      "pub_name": "Last Day Events  -- Study Guide",
      "refcode_long": "Last Day Events  -- Study Guide, p. 39.5 (Ellen G. White Estate)",
      "refcode_short": "LDE-SG 39.5",
      "pub_year": "2019",
      "snippet": "B. The Time For the <mark>Close of Probation</mark>",
      "weight": 0.71,
      "group": "reference"
    },
    {
      "index": 22,
      "lang": "en",
      "para_id": "12668.19629",
      "pub_code": "SDAEnc",
      "pub_name": "SDA Encyclopedia",
      "refcode_long": "SDA Encyclopedia, p. .0 (General Conference of SDA)",
      "refcode_short": "SDAEnc .0",
      "pub_year": "1966",
      "snippet": "",
      "weight": 0.71,
      "group": "bible",
      "action_required": "purchased"
    },
    {
      "index": 23,
      "lang": "en",
      "para_id": "12667.7802",
      "pub_code": "1EGWLM",
      "pub_name": "The Ellen G. White Letters and Manuscripts: Volume 1",
      "refcode_long": "The Ellen G. White Letters and Manuscripts: Volume 1, p. 971.10 (Ellen Gould White)",
      "refcode_short": "1EGWLM 971.10",
      "pub_year": "2014",
      "snippet": "William Miller initially endorsed a limited <mark>close of probation</mark>, 87 n7",
      "weight": 0.7,
      "group": "egwwritings"
    },
    {
      "index": 24,
      "lang": "en",
      "para_id": "978.349",
      "pub_code": "BHB",
      "pub_name": "Bible Handbook",
      "refcode_long": "Bible Handbook, p. 24 (Stephen Nelson Haskell)",
      "refcode_short": "BHB 24",
      "pub_year": "1919",
      "snippet": "<mark>Close of Probation</mark>",
      "weight": 0.7,
      "group": "apl"
    }
  ]
}
