{
  "next": "https://a.egwwritings.org/search?lang=en&period=all&facets=False&query=second%20coming%20clouds%20glory&offset=25&limit=25&order=rel&snippet=long&query_type=prefer_exact",
  "previous": null,
  "total": 282,
  "count": 282,
  "results": [
    {
      "index": 0,
      "lang": "en",
      "para_id": "1321.25",
      "pub_code": "MWV2",
      "pub_name": "Miller’s Works, vol. 2. Evidence from Scripture and History of the Second Coming of Christ about the Year",
      "refcode_long": "Miller’s Works, vol. 2. Evidence from Scripture and History of the Second Coming of Christ about the Year, p. 5.3 (William Miller)",
      "refcode_short": "MWV2 5.3",
      "pub_year": "1843",
      "snippet": "… . His <mark>second coming</mark> will be as God, his divine Godhead and power being most visible. He <mark>comes</mark> first, like the “first man of the earth, earthy;” his <mark>second coming</mark> is …",
      "weight": 1,
      "group": "apl"
    },
    {
      "index": 1,
      "lang": "en",
      "para_id": "14168.7708",
      "pub_code": "MHBC",
      "pub_name": "Matthew Henry’s Concise Bible Commentary",
      "refcode_long": "Matthew Henry’s Concise Bible Commentary, p. 954.4 (Matthew Henry)",
      "refcode_short": "MHBC 954.4",
      "pub_year": "1834",
      "snippet": "… man <mark>coming</mark> in the <mark>clouds</mark>. At his first <mark>coming</mark>, he was set for a sign that should be spoken against, but at his <mark>second coming</mark>, a sign that should be admired. Sooner …",
      "weight": 0.91,
      "group": "bible"
    },
    {
      "index": 2,
      "lang": "en",
      "para_id": "12433.7374",
      "pub_code": "PTUK",
      "pub_name": "The Present Truth, vol. 15",
      "refcode_long": "The Present Truth, vol. 15 December 28,  1899, page 818 paragraph 5",
      "refcode_short": "PTUK December 28,  1899, page 818.5",
      "pub_year": "1899",
      "snippet": "… is <mark>coming</mark> again; but His <mark>coming</mark> in the <mark>clouds</mark> of heaven, “with power and great <mark>glory</mark>,” will be only the manifestation of the power that lay in the manger and hung …",
      "weight": 0.85,
      "group": "apl"
    },
    {
      "index": 3,
      "lang": "en",
      "para_id": "14720.7444",
      "pub_code": "ABC-OT",
      "pub_name": "Andrews Bible Commentary - Old Testament",
      "refcode_long": "Andrews Bible Commentary - Old Testament, p. 1027.39",
      "refcode_short": "ABC-OT 1027.39",
      "pub_year": "",
      "snippet": "",
      "weight": 0.84,
      "group": "bible",
      "action_required": "purchased"
    },
    {
      "index": 4,
      "lang": "en",
      "para_id": "1690.4217",
      "pub_code": "ARSH",
      "pub_name": "Advent Review, and Sabbath Herald, vol. 13",
      "refcode_long": "Advent Review, and Sabbath Herald, vol. 13 March 3,  1859, page 116 paragraph 17",
      "refcode_short": "ARSH March 3,  1859, page 116.17",
      "pub_year": "1858",
      "snippet": "… the <mark>clouds</mark> of heaven with power and great <mark>glory</mark>. This <mark>second coming</mark> is distinguished as the “glorious appearing of the great God,” or rather the appearing of …",
      "weight": 0.84,
      "group": "apl"
    },
    {
      "index": 5,
      "lang": "en",
      "para_id": "1658.14",
      "pub_code": "HST",
      "pub_name": "Signs of the Times and Expositor of Prophecy [Himes], vol. 2",
      "refcode_long": "Signs of the Times and Expositor of Prophecy [Himes], vol. 2 April 1,  1841, page 1 paragraph 5",
      "refcode_short": "HST April 1,  1841, page 1.5",
      "pub_year": "1841",
      "snippet": "… ; his <mark>second coming</mark> will be as God, his divinity and power being most visible; he <mark>comes</mark> first, like the “first man of the earth, earthy;” his <mark>second coming</mark> is “the Lord …",
      "weight": 0.83,
      "group": "apl"
    },
    {
      "index": 6,
      "lang": "en",
      "para_id": "2007.195",
      "pub_code": "MWV3",
      "pub_name": "Miller’s Works, vol. 3. Exposition of the Twenty-Fourth Of Matthew; The True Inheritance Of The Saints; The Cleansing of the Sanctuary; The Ty",
      "refcode_long": "Miller’s Works, vol. 3. Exposition of the Twenty-Fourth Of Matthew; The True Inheritance Of The Saints; The Cleansing of the Sanctuary; The Ty, p. 51.1 (William Miller)",
      "refcode_short": "MWV3 51.1",
      "pub_year": "1842",
      "snippet": "… shall <mark>come</mark> unto us as the rain, as the latter and former rain unto the earth .” The knowledge we shall obtain is the first and <mark>second coming</mark> of Christ to the earth …",
      "weight": 0.83,
      "group": "apl"
    },
    {
      "index": 7,
      "lang": "en",
      "para_id": "1658.379",
      "pub_code": "HST",
      "pub_name": "Signs of the Times and Expositor of Prophecy [Himes], vol. 2",
      "refcode_long": "Signs of the Times and Expositor of Prophecy [Himes], vol. 2 April 15,  1841, page 15 paragraph 1",
      "refcode_short": "HST April 15,  1841, page 15.1",
      "pub_year": "1841",
      "snippet": "… the <mark>second coming</mark> of Christ in the <mark>clouds</mark> of heaven, will be the quickening of all the living saints—the first resurrection—the rise of the glorious millennium …",
      "weight": 0.82,
      "group": "apl"
    },
    {
      "index": 8,
      "lang": "en",
      "para_id": "1680.1208",
      "pub_code": "ARSH",
      "pub_name": "Advent Review, and Sabbath Herald, vol. 23",
      "refcode_long": "Advent Review, and Sabbath Herald, vol. 23 December 29,  1863, page 33 paragraph 12",
      "refcode_short": "ARSH December 29,  1863, page 33.12",
      "pub_year": "1864",
      "snippet": "… the <mark>second coming</mark> of Christ. The time is <mark>coming</mark>-the bright morning will soon dawn, when the many millions of saints who are yet sleeping will awake from their …",
      "weight": 0.81,
      "group": "apl"
    },
    {
      "index": 9,
      "lang": "en",
      "para_id": "12666.9788",
      "pub_code": "HSDAT",
      "pub_name": "Handbook of SDA Theology",
      "refcode_long": "Handbook of SDA Theology, p. 902.8 (Raoul Dederen-GCSDA)",
      "refcode_short": "HSDAT 902.8",
      "pub_year": "2000",
      "snippet": "",
      "weight": 0.81,
      "group": "bible",
      "action_required": "purchased"
    },
    {
      "index": 10,
      "lang": "en",
      "para_id": "956.2455",
      "pub_code": "PFF1",
      "pub_name": "The Prophetic Faith of Our Fathers, vol. 1",
      "refcode_long": "The Prophetic Faith of Our Fathers, vol. 1, p. 393.2 (LeRoy Edwin Froom)",
      "refcode_short": "PFF1 393.2",
      "pub_year": "1950",
      "snippet": "Athanasius tells of Christ’s <mark>second coming</mark> in the <mark>clouds</mark> of heaven, and entreats his readers to be ready for that day when He shall <mark>come</mark> in <mark>glory</mark> to raise the dead and judge the earth, thus to establish His kingdom and cast out the wicked.",
      "weight": 0.81,
      "group": "apl"
    },
    {
      "index": 11,
      "lang": "en",
      "para_id": "12210.2911",
      "pub_code": "FH",
      "pub_name": "From the Heart",
      "refcode_long": "From the Heart, p. 369.4 (Ellen Gould White)",
      "refcode_short": "FH 369.4",
      "pub_year": "2010",
      "snippet": "… <mark>second coming</mark> of the Son of man in the <mark>clouds</mark> of heaven. He is to <mark>come</mark> with His own <mark>glory</mark> and with the <mark>glory</mark> of the Father and of the holy angels. He will <mark>come</mark> clad …",
      "weight": 0.79,
      "group": "egwwritings"
    },
    {
      "index": 12,
      "lang": "en",
      "para_id": "14721.1193",
      "pub_code": "ABC-NT",
      "pub_name": "Andrews Bible Commentary - New Testament",
      "refcode_long": "Andrews Bible Commentary - New Testament, p. 1320.24",
      "refcode_short": "ABC-NT 1320.24",
      "pub_year": "",
      "snippet": "",
      "weight": 0.78,
      "group": "bible",
      "action_required": "purchased"
    },
    {
      "index": 13,
      "lang": "en",
      "para_id": "14055.4011048",
      "pub_code": "5LtMs",
      "pub_name": "Letters and Manuscripts — Volume 5 (1887-1888)",
      "refcode_long": "Letters and Manuscripts — Volume 5 (1887-1888), Ms 25, 1888, par. 22",
      "refcode_short": "5LtMs, Ms 25, 1888, par. 22",
      "pub_year": "1887",
      "snippet": "… His <mark>second coming</mark> in the <mark>clouds</mark> of heaven with power and great <mark>glory</mark>. Many good testimonies were borne to the point.",
      "weight": 0.77,
      "group": "egwwritings"
    },
    {
      "index": 14,
      "lang": "en",
      "para_id": "2774.1407",
      "pub_code": "HF",
      "pub_name": "From Here to Forever",
      "refcode_long": "From Here to Forever, p. 225.2 (Ellen Gould White)",
      "refcode_short": "HF 225.2",
      "pub_year": "1982",
      "snippet": "… soon <mark>coming</mark> held by an isolated people. The Arabs of Yemen, he says, “are in possession of a book called Seera, which gives notice of the <mark>second coming</mark> of Christ …",
      "weight": 0.76,
      "group": "egwwritings"
    },
    {
      "index": 15,
      "lang": "en",
      "para_id": "1296.16",
      "pub_code": "ESH",
      "pub_name": "Evidences from Scripture and History of the Second Coming of Christ About the Year A. D. 1843, and of His Personal Reign of 1000 Years",
      "refcode_long": "Evidences from Scripture and History of the Second Coming of Christ About the Year A. D. 1843, and of His Personal Reign of 1000 Years, p. 4.1 (William Miller)",
      "refcode_short": "ESH 4.1",
      "pub_year": "1833",
      "snippet": "… his <mark>second coming</mark>, “suddenly, in the <mark>clouds</mark>, with power and great <mark>glory</mark>, on a great white throne,” as the “ancient of days.” Likewise, what be will <mark>come</mark> to do, “send his …",
      "weight": 0.74,
      "group": "apl"
    },
    {
      "index": 16,
      "lang": "en",
      "para_id": "14150.2496",
      "pub_code": "JNN",
      "pub_name": "Jesus, Name Above All Names",
      "refcode_long": "Jesus, Name Above All Names, p. 336.2 (Ellen Gould White)",
      "refcode_short": "JNN 336.2",
      "pub_year": "2020",
      "snippet": "… <mark>second coming</mark> of the Son of Man in the <mark>clouds</mark> of heaven. He is to <mark>come</mark> with His own <mark>glory</mark>, and with the <mark>glory</mark> of the Father and of the holy angels. He will <mark>come</mark> clad …",
      "weight": 0.74,
      "group": "egwwritings"
    },
    {
      "index": 17,
      "lang": "en",
      "para_id": "44.2888",
      "pub_code": "LHU",
      "pub_name": "Lift Him Up",
      "refcode_long": "Lift Him Up, p. 373.5 (Ellen Gould White)",
      "refcode_short": "LHU 373.5",
      "pub_year": "1988",
      "snippet": "… <mark>second coming</mark> of the Son of man in the <mark>clouds</mark> of heaven. He is to <mark>come</mark> with His own <mark>glory</mark>, and with the <mark>glory</mark> of the Father and of the holy angels. He will <mark>come</mark> clad …",
      "weight": 0.74,
      "group": "egwwritings"
    },
    {
      "index": 18,
      "lang": "en",
      "para_id": "12666.10010",
      "pub_code": "HSDAT",
      "pub_name": "Handbook of SDA Theology",
      "refcode_long": "Handbook of SDA Theology, p. 920.6 (Raoul Dederen-GCSDA)",
      "refcode_short": "HSDAT 920.6",
      "pub_year": "2000",
      "snippet": "",
      "weight": 0.74,
      "group": "bible",
      "action_required": "purchased"
    },
    {
      "index": 19,
      "lang": "en",
      "para_id": "94.353",
      "pub_code": "5BC",
      "pub_name": "EGW SDA Bible Commentary, vol. 5",
      "refcode_long": "EGW SDA Bible Commentary, vol. 5, p. 1110.3 (Ellen Gould White)",
      "refcode_short": "5BC 1110.3",
      "pub_year": "1956",
      "snippet": "… the <mark>glory</mark> that will be revealed at the general resurrection of the just at the <mark>second</mark> appearing of Christ in the <mark>clouds</mark> of heaven. Then the dead that are in …",
      "weight": 0.74,
      "group": "bible"
    },
    {
      "index": 20,
      "lang": "en",
      "para_id": "434.1269",
      "pub_code": "2SAT",
      "pub_name": "Sermons and Talks, vol. 2",
      "refcode_long": "Sermons and Talks, vol. 2, p. 179.1 (Ellen Gould White)",
      "refcode_short": "2SAT 179.1",
      "pub_year": "1994",
      "snippet": "… the <mark>second coming</mark> of Christ. Our hope of His soon appearing in the <mark>clouds</mark> of heaven with power and great <mark>glory</mark> fills our hearts with joy. When the Saviour <mark>comes</mark> …",
      "weight": 0.74,
      "group": "egwwritings"
    },
    {
      "index": 21,
      "lang": "en",
      "para_id": "12269.1059",
      "pub_code": "LF",
      "pub_name": "Love Under Fire",
      "refcode_long": "Love Under Fire, p. 128.5 (Ellen Gould White)",
      "refcode_short": "LF 128.5",
      "pub_year": "2011",
      "snippet": "… <mark>coming</mark> in the <mark>clouds</mark> with great power and <mark>glory</mark>” ( Mark 13:24-26 ). This is how John the revelator describes the first of the signs that <mark>come</mark> before the <mark>Second</mark> Advent …",
      "weight": 0.74,
      "group": "egwwritings"
    },
    {
      "index": 22,
      "lang": "en",
      "para_id": "12280.386",
      "pub_code": "GrH_a",
      "pub_name": "The Great Hope (Adapted)",
      "refcode_long": "The Great Hope (Adapted), p. 39.1 (Ellen Gould White)",
      "refcode_short": "GrH_a 39.1",
      "pub_year": "2011",
      "snippet": "… <mark>coming</mark> in the <mark>clouds</mark> with great power and <mark>glory</mark>” ( Mark 13:24-26 ). This is how John the Revelator describes the first of the signs that <mark>come</mark> before the <mark>second</mark> advent …",
      "weight": 0.74,
      "group": "egwwritings"
    },
    {
      "index": 23,
      "lang": "en",
      "para_id": "14753.1121",
      "pub_code": "5TC",
      "pub_name": "The Victory",
      "refcode_long": "The Victory, p. 178.4 (Ellen Gould White)",
      "refcode_short": "5TC 178.4",
      "pub_year": "2024",
      "snippet": "… <mark>coming</mark> in the <mark>clouds</mark> with great power and <mark>glory</mark>” ( Mark 13:24-26 ). This is how John the revelator describes the first of the signs that <mark>come</mark> before the <mark>Second</mark> Advent …",
      "weight": 0.74,
      "group": "egwwritings"
    },
    {
      "index": 24,
      "lang": "en",
      "para_id": "12320.385",
      "pub_code": "GrH_c",
      "pub_name": "The Great Hope (Condensed)",
      "refcode_long": "The Great Hope (Condensed), p. 39.1 (Ellen Gould White)",
      "refcode_short": "GrH_c 39.1",
      "pub_year": "2012",
      "snippet": "… man <mark>coming</mark> in the <mark>clouds</mark> with great power and <mark>glory</mark>.” Mark 13:24-26. The revelator thus describes the first of the signs to precede the <mark>second</mark> advent: “There was …",
      "weight": 0.74,
      "group": "egwwritings"
    }
  ]
}
