{
  "next": "https://a.egwwritings.org/search?lang=en&period=all&facets=False&query=marriage%20supper%20Lamb&offset=20&limit=20&order=rel&snippet=long&query_type=prefer_exact",
  "previous": null,
  "total": 528,
  "count": 528,
  "results": [
    {
      "index": 0,
      "lang": "en",
      "para_id": "1140.821",
      "pub_code": "GSAM",
      "pub_name": "The Great Second Advent Movement: Its Rise and Progress",
      "refcode_long": "The Great Second Advent Movement: Its Rise and Progress, p. 134.5 (John Norton Loughborough)",
      "refcode_short": "GSAM 134.5",
      "pub_year": "1905",
      "snippet": "… <mark> supper</mark> of the <mark>Lamb</mark>.” A blessing is pronounced on those who are called to that “<mark>marriage supper</mark>.” A <mark>marriage supper</mark> follows the <mark>marriage</mark>. The <mark>marriage</mark> of the …",
      "weight": 1,
      "group": "apl"
    },
    {
      "index": 1,
      "lang": "en",
      "para_id": "12514.8097",
      "pub_code": "5SDABC",
      "pub_name": "SDA Bible Commentary, vol. 5",
      "refcode_long": "SDA Bible Commentary, vol. 5, p. 523.9 (Francis Nichol-GCSDA)",
      "refcode_short": "5SDABC 523.9",
      "pub_year": "1956",
      "snippet": "",
      "weight": 0.9,
      "group": "bible",
      "action_required": "purchased"
    },
    {
      "index": 2,
      "lang": "en",
      "para_id": "1237.2108",
      "pub_code": "SSP",
      "pub_name": "The Story of the Seer of Patmos",
      "refcode_long": "The Story of the Seer of Patmos, p. 405.10 (Stephen Nelson Haskell)",
      "refcode_short": "SSP 405.10",
      "pub_year": "1905",
      "snippet": "16. Who accompanies Christ to heaven? What is in contrast with the <mark>marriage supper</mark> of the <mark>Lamb</mark>? What does this typify? What will become of the heavens? How many are called to the <mark>marriage supper</mark> of the <mark>Lamb</mark>?",
      "weight": 0.89,
      "group": "apl"
    },
    {
      "index": 3,
      "lang": "en",
      "para_id": "1693.714",
      "pub_code": "ARSH",
      "pub_name": "Advent Review, and Sabbath Herald, vol. 10",
      "refcode_long": "Advent Review, and Sabbath Herald, vol. 10 May 21,  1857, page 20 paragraph 24",
      "refcode_short": "ARSH May 21,  1857, page 20.24",
      "pub_year": "1857",
      "snippet": "… the <mark>marriage supper</mark> referred to in Revelation 19:9. “And he saith unto me, Write, Blessed are they that are called unto the <mark>marriage supper</mark> of the <mark>Lamb</mark>.” Who have …",
      "weight": 0.89,
      "group": "apl"
    },
    {
      "index": 4,
      "lang": "en",
      "para_id": "1652.4543",
      "pub_code": "HST",
      "pub_name": "The Advent Herald, and Signs of the Times Reporter [Himes], vol. 7",
      "refcode_long": "The Advent Herald, and Signs of the Times Reporter [Himes], vol. 7 May 29,  1844, page 131 paragraph 13",
      "refcode_short": "HST May 29,  1844, page 131.13",
      "pub_year": "1844",
      "snippet": "… <mark>marriage supper</mark>: it is the blessedness of eating bread in the kingdom of God; as it is written, “Blessed are they which are called unto the <mark>marriage supper</mark> of …",
      "weight": 0.84,
      "group": "apl"
    },
    {
      "index": 5,
      "lang": "en",
      "para_id": "1674.5280",
      "pub_code": "ARSH",
      "pub_name": "Advent Review, and Sabbath Herald, vol. 9",
      "refcode_long": "Advent Review, and Sabbath Herald, vol. 9 March 5,  1857, page 141 paragraph 4",
      "refcode_short": "ARSH March 5,  1857, page 141.4",
      "pub_year": "1856",
      "snippet": "… meat, [<mark>marriage supper</mark>,] and will come forth and serve them.” Hence it is written, “Blessed are they which are called to the <mark>marriage supper</mark> of the <mark>Lamb</mark>.” Revelation …",
      "weight": 0.82,
      "group": "apl"
    },
    {
      "index": 6,
      "lang": "en",
      "para_id": "820.12360",
      "pub_code": "ST",
      "pub_name": "The Signs of the Times",
      "refcode_long": "The Signs of the Times August 6,  1894, paragraph 7",
      "refcode_short": "ST August 6,  1894, par. 7",
      "pub_year": "1874",
      "snippet": "… the <mark>marriage supper</mark> of the <mark>Lamb</mark>. The question for us to settle is, Which class shall we be among, the wise or the foolish? God help us to be among the wise. “Blessed …",
      "weight": 0.81,
      "group": "egwwritings"
    },
    {
      "index": 7,
      "lang": "en",
      "para_id": "2774.1652",
      "pub_code": "HF",
      "pub_name": "From Here to Forever",
      "refcode_long": "From Here to Forever, p. 264.2 (Ellen Gould White)",
      "refcode_short": "HF 264.2",
      "pub_year": "1982",
      "snippet": "… the <mark>marriage supper</mark> of the <mark>Lamb</mark>. Daniel 7:14; Revelation 21:2 .",
      "weight": 0.79,
      "group": "egwwritings"
    },
    {
      "index": 8,
      "lang": "en",
      "para_id": "12269.1486",
      "pub_code": "LF",
      "pub_name": "Love Under Fire",
      "refcode_long": "Love Under Fire, p. 176.3 (Ellen Gould White)",
      "refcode_short": "LF 176.3",
      "pub_year": "2011",
      "snippet": "… the <mark>marriage supper</mark> of the <mark>Lamb</mark>.",
      "weight": 0.79,
      "group": "egwwritings"
    },
    {
      "index": 9,
      "lang": "en",
      "para_id": "14753.1582",
      "pub_code": "5TC",
      "pub_name": "The Victory",
      "refcode_long": "The Victory, p. 249.3 (Ellen Gould White)",
      "refcode_short": "5TC 249.3",
      "pub_year": "2024",
      "snippet": "… the <mark>marriage supper</mark> of the <mark>Lamb</mark>.",
      "weight": 0.79,
      "group": "egwwritings"
    },
    {
      "index": 10,
      "lang": "en",
      "para_id": "1149.568",
      "pub_code": "JEO",
      "pub_name": "The Judgment. Its Events and Their Order",
      "refcode_long": "The Judgment. Its Events and Their Order, p. 115.2 (John Nevins Andrews)",
      "refcode_short": "JEO 115.2",
      "pub_year": "1890",
      "snippet": "… the <mark>marriage supper</mark> of the <mark>Lamb</mark>. Revelation 19:1-9; Luke 12:36, 37; 22:16-18. Our Lord does, therefore, introduce his saints to the holy city, and to the presence of his …",
      "weight": 0.79,
      "group": "apl"
    },
    {
      "index": 11,
      "lang": "en",
      "para_id": "1321.581",
      "pub_code": "MWV2",
      "pub_name": "Miller’s Works, vol. 2. Evidence from Scripture and History of the Second Coming of Christ about the Year",
      "refcode_long": "Miller’s Works, vol. 2. Evidence from Scripture and History of the Second Coming of Christ about the Year, p. 154.1 (William Miller)",
      "refcode_short": "MWV2 154.1",
      "pub_year": "1843",
      "snippet": "… <mark></mark> of the <mark>Lamb</mark>. And he saith unto me, These are the true sayings of God.” We see, my friends, by the similarity of the sentiments given in the <mark>marriage supper</mark>, and …",
      "weight": 0.78,
      "group": "apl"
    },
    {
      "index": 12,
      "lang": "en",
      "para_id": "1647.23",
      "pub_code": "ADMI",
      "pub_name": "The Advent Mirror, vol. 1, no. 1",
      "refcode_long": "The Advent Mirror, vol. 1, no. 1 January 1845, page 1 paragraph 14",
      "refcode_short": "ADMI January 1845, page 1.14",
      "pub_year": "1845",
      "snippet": "… <mark></mark>,” the <mark>marriage</mark> itself, and the <mark>marriage supper</mark>. It must be evident to all that the coming of the Bridegroom to the <mark>marriage</mark>, precedes the <mark>marriage</mark>, and both …",
      "weight": 0.77,
      "group": "apl"
    },
    {
      "index": 13,
      "lang": "en",
      "para_id": "65.1363",
      "pub_code": "16MR",
      "pub_name": "Manuscript Releases, vol. 16 [Nos. 1186-1235]",
      "refcode_long": "Manuscript Releases, vol. 16 [Nos. 1186-1235], p. 268.3 (Ellen Gould White)",
      "refcode_short": "16MR 268.3",
      "pub_year": "1990",
      "snippet": "… the <mark>marriage supper</mark> of the <mark>Lamb</mark>. The representation is such as to call forth our earnest study, that we may know what preparation we who are living in the last …",
      "weight": 0.76,
      "group": "egwwritings"
    },
    {
      "index": 14,
      "lang": "en",
      "para_id": "1300.170",
      "pub_code": "IMJW",
      "pub_name": "In Memoriam [White]",
      "refcode_long": "In Memoriam [White], p. 37.1 (Uriah Smith)",
      "refcode_short": "IMJW 37.1",
      "pub_year": "1881",
      "snippet": "… the <mark>marriage supper</mark> of the <mark>Lamb</mark>.” Here the glory in all its brightness, the joy in all its exuberance, is brought to view. The festal board is spread. The guests …",
      "weight": 0.76,
      "group": "apl"
    },
    {
      "index": 15,
      "lang": "en",
      "para_id": "14060.5135007",
      "pub_code": "10LtMs",
      "pub_name": "Letters and Manuscripts — Volume 10 (1895)",
      "refcode_long": "Letters and Manuscripts — Volume 10 (1895), Lt 19a, 1895, par. 1",
      "refcode_short": "10LtMs, Lt 19a, 1895, par. 1",
      "pub_year": "1895",
      "snippet": "… his <mark>supper</mark>. The invitation was to go to all classes, and those who received it might be guests at the <mark>marriage supper</mark>.",
      "weight": 0.75,
      "group": "egwwritings"
    },
    {
      "index": 16,
      "lang": "en",
      "para_id": "14068.7811015",
      "pub_code": "18LtMs",
      "pub_name": "Letters and Manuscripts — Volume 18 (1903)",
      "refcode_long": "Letters and Manuscripts — Volume 18 (1903), Ms 90, 1903, par. 8",
      "refcode_short": "18LtMs, Ms 90, 1903, par. 8",
      "pub_year": "1903",
      "snippet": "… the <mark>marriage supper</mark> of the <mark>Lamb</mark>.",
      "weight": 0.75,
      "group": "egwwritings"
    },
    {
      "index": 17,
      "lang": "en",
      "para_id": "427.35",
      "pub_code": "1SAT",
      "pub_name": "Sermons and Talks, vol. 1",
      "refcode_long": "Sermons and Talks, vol. 1, p. 5.4 (Ellen Gould White)",
      "refcode_short": "1SAT 5.4",
      "pub_year": "1990",
      "snippet": "… the <mark>marriage</mark>.” The Lord is sending His servants, saying unto all who will hear, “Come, make ready for the great <mark>marriage supper</mark> of the <mark>Lamb</mark>; He is soon coming to receive …",
      "weight": 0.75,
      "group": "egwwritings"
    },
    {
      "index": 18,
      "lang": "en",
      "para_id": "1453.1465",
      "pub_code": "FEE",
      "pub_name": "From Eden to Eden",
      "refcode_long": "From Eden to Eden, p. 250.3 (Joseph Harvey Waggoner)",
      "refcode_short": "FEE 250.3",
      "pub_year": "1890",
      "snippet": "… the <mark>marriage</mark>. The saints are the guests who are called to the <mark>marriage supper</mark> of the <mark>Lamb</mark>. Revelation 19:6-9. And we have seen that he takes possession of the kingdom …",
      "weight": 0.75,
      "group": "apl"
    },
    {
      "index": 19,
      "lang": "en",
      "para_id": "821.3392",
      "pub_code": "RH",
      "pub_name": "The Review and Herald",
      "refcode_long": "The Review and Herald June 10,  1880, paragraph 2",
      "refcode_short": "RH June 10,  1880, par. 2",
      "pub_year": "1851",
      "snippet": "… the <mark>marriage supper</mark> of the <mark>Lamb</mark>; and it also conveys a reproof to those who might be workers in the vineyard of the Lord, but who will not, because their temporal …",
      "weight": 0.74,
      "group": "egwwritings"
    }
  ]
}
