{
  "next": "https://a.egwwritings.org/search?lang=en&period=all&facets=False&query=thousand%20years%20saints%20reign&offset=25&limit=25&order=rel&snippet=long&query_type=prefer_exact",
  "previous": null,
  "total": 377,
  "count": 377,
  "results": [
    {
      "index": 0,
      "lang": "en",
      "para_id": "1685.3870",
      "pub_code": "ARSH",
      "pub_name": "Advent Review, and Sabbath Herald, vol. 18",
      "refcode_long": "Advent Review, and Sabbath Herald, vol. 18 September 3,  1861, page 109 paragraph 1",
      "refcode_short": "ARSH September 3,  1861, page 109.1",
      "pub_year": "1861",
      "snippet": "The <mark>saints reign</mark> with Christ a <mark>thousand years</mark>, commencing at the first resurrection. But the earth, their promised inheritance, lies under the curse, and desolated …",
      "weight": 1,
      "group": "apl"
    },
    {
      "index": 1,
      "lang": "en",
      "para_id": "1640.740",
      "pub_code": "ADRE",
      "pub_name": "The Advent Review, vol. 1",
      "refcode_long": "The Advent Review, vol. 1 September 1850, page 15 paragraph 1",
      "refcode_short": "ADRE September 1850, page 15.1",
      "pub_year": "1850",
      "snippet": "… the <mark>saints reign</mark> with Christ through the one <mark>thousand years</mark>, if the earth lies desolate? We would here say that the doctrine, that the <mark>saints</mark> will dwell on the …",
      "weight": 0.9,
      "group": "apl"
    },
    {
      "index": 2,
      "lang": "en",
      "para_id": "1689.671",
      "pub_code": "ARSH",
      "pub_name": "Advent Review, and Sabbath Herald, vol. 14",
      "refcode_long": "Advent Review, and Sabbath Herald, vol. 14 June 9,  1859, page 18 paragraph 16",
      "refcode_short": "ARSH June 9,  1859, page 18.16",
      "pub_year": "1859",
      "snippet": "… <mark> reign</mark> a <mark>thousand years</mark>, they must have somebody to <mark>reign</mark> over, and so it is claimed that they <mark>reign</mark> over mortals. But if they cannot <mark>reign</mark> a <mark>thousand years</mark> …",
      "weight": 0.88,
      "group": "apl"
    },
    {
      "index": 3,
      "lang": "en",
      "para_id": "1579.3905",
      "pub_code": "PFF2",
      "pub_name": "The Prophetic Faith of Our Fathers, vol. 2",
      "refcode_long": "The Prophetic Faith of Our Fathers, vol. 2, p. 610.1 (LeRoy Edwin Froom)",
      "refcode_short": "PFF2 610.1",
      "pub_year": "1948",
      "snippet": "… the <mark>Saints Reign</mark> on Earth a <mark>Thousand Years</mark>. He contended that before it is fulfilled, every prophecy is a riddle. But when fulfilled, it is plain and understandable …",
      "weight": 0.81,
      "group": "apl"
    },
    {
      "index": 4,
      "lang": "en",
      "para_id": "956.3121",
      "pub_code": "PFF1",
      "pub_name": "The Prophetic Faith of Our Fathers, vol. 1",
      "refcode_long": "The Prophetic Faith of Our Fathers, vol. 1, p. 483.3 (LeRoy Edwin Froom)",
      "refcode_short": "PFF1 483.3",
      "pub_year": "1950",
      "snippet": "“But while the devil is bound, the <mark>saints reign</mark> with Christ during the same <mark>thousand years</mark>, understood in the same way, that is, of the time of His first coming.” Ibid., p. 429.",
      "weight": 0.8,
      "group": "apl"
    },
    {
      "index": 5,
      "lang": "en",
      "para_id": "1658.1017",
      "pub_code": "HST",
      "pub_name": "Signs of the Times and Expositor of Prophecy [Himes], vol. 2",
      "refcode_long": "Signs of the Times and Expositor of Prophecy [Himes], vol. 2 June 1,  1841, page 38 paragraph 18",
      "refcode_short": "HST June 1,  1841, page 38.18",
      "pub_year": "1841",
      "snippet": "… the <mark>saints</mark> to <mark>reign</mark>, the wicked must, part of them at least, be left, during the <mark>thousand years</mark> as the subjects of the glorified <mark>saints</mark>. But Mr. Miller’s theory …",
      "weight": 0.79,
      "group": "apl"
    },
    {
      "index": 6,
      "lang": "en",
      "para_id": "1675.5782",
      "pub_code": "ARSH",
      "pub_name": "Advent Review, and Sabbath Herald, vol. 8",
      "refcode_long": "Advent Review, and Sabbath Herald, vol. 8 September 11,  1856, page 146 paragraph 12",
      "refcode_short": "ARSH September 11,  1856, page 146.12",
      "pub_year": "1856",
      "snippet": "… <mark>saints reign</mark> with Christ one <mark>thousand years</mark>. Verse 5 shows this <mark>reign</mark> in judgment to begin with the first resurrection. Verse 7. “And when the <mark>thousand years</mark> …",
      "weight": 0.78,
      "group": "apl"
    },
    {
      "index": 7,
      "lang": "en",
      "para_id": "1640.786",
      "pub_code": "ADRE",
      "pub_name": "The Advent Review, vol. 1",
      "refcode_long": "The Advent Review, vol. 1 September 1850, page 50 paragraph 3",
      "refcode_short": "ADRE September 1850, page 50.3",
      "pub_year": "1850",
      "snippet": "… the <mark>saints reign</mark> on thrones in judgment one <mark>thousand years</mark>, therefore the third great event in the judgment, which is gathering ALL NATIONS before him, will …",
      "weight": 0.76,
      "group": "apl"
    },
    {
      "index": 8,
      "lang": "en",
      "para_id": "1657.519",
      "pub_code": "HST",
      "pub_name": "Signs of the Times and Expositor of Prophecy [Himes], vol. 3",
      "refcode_long": "Signs of the Times and Expositor of Prophecy [Himes], vol. 3 April 20,  1842, page 22 paragraph 8",
      "refcode_short": "HST April 20,  1842, page 22.8",
      "pub_year": "1842",
      "snippet": "… . The <mark>saints reign</mark>, in a peculiar sense—perhaps judge, with Christ a <mark>thousand years</mark>. “Know ye not that ye shall judge angels?” Yet a <mark>thousand years</mark> have in them the …",
      "weight": 0.75,
      "group": "apl"
    },
    {
      "index": 9,
      "lang": "en",
      "para_id": "1407.257",
      "pub_code": "SAIN",
      "pub_name": "The Saints’ Inheritance",
      "refcode_long": "The Saints’ Inheritance, p. 61.3 (John Norton Loughborough)",
      "refcode_short": "SAIN 61.3",
      "pub_year": "1893",
      "snippet": "… the <mark>thousand-years’ reign</mark> will be on the earth, usually claim that the <mark>saints</mark> will never go to heaven; and therefore if they <mark>reign</mark> a <mark>thousand years</mark>, it must be …",
      "weight": 0.74,
      "group": "apl"
    },
    {
      "index": 10,
      "lang": "en",
      "para_id": "1583.5959",
      "pub_code": "PFF4",
      "pub_name": "The Prophetic Faith of Our Fathers, vol. 4",
      "refcode_long": "The Prophetic Faith of Our Fathers, vol. 4, p. 1039.3 (LeRoy Edwin Froom)",
      "refcode_short": "PFF4 1039.3",
      "pub_year": "1954",
      "snippet": "… the <mark>saints reign</mark> with Christ during the <mark>thousand years</mark>, followed by the new heavens and the new earth, springing out of the ashes of the old and to continue …",
      "weight": 0.74,
      "group": "apl"
    },
    {
      "index": 11,
      "lang": "en",
      "para_id": "1689.678",
      "pub_code": "ARSH",
      "pub_name": "Advent Review, and Sabbath Herald, vol. 14",
      "refcode_long": "Advent Review, and Sabbath Herald, vol. 14 June 9,  1859, page 19 paragraph 3",
      "refcode_short": "ARSH June 9,  1859, page 19.3",
      "pub_year": "1859",
      "snippet": "… the <mark>thousand years’ reign</mark> will be on earth, generally claim that the <mark>saints</mark> will never go to heaven; and therefore, if they <mark>reign</mark> a <mark>thousand years</mark>, it must be on …",
      "weight": 0.72,
      "group": "apl"
    },
    {
      "index": 12,
      "lang": "en",
      "para_id": "1693.1274",
      "pub_code": "ARSH",
      "pub_name": "Advent Review, and Sabbath Herald, vol. 10",
      "refcode_long": "Advent Review, and Sabbath Herald, vol. 10 June 4,  1857, page 36 paragraph 8",
      "refcode_short": "ARSH June 4,  1857, page 36.8",
      "pub_year": "1857",
      "snippet": "… the <mark>saints reign</mark> upon the earth a <mark>thousand years</mark>. Then the wicked are raised and receive their punishment, and the <mark>saints</mark> are taken away from earth to that …",
      "weight": 0.7,
      "group": "apl"
    },
    {
      "index": 13,
      "lang": "en",
      "para_id": "1407.264",
      "pub_code": "SAIN",
      "pub_name": "The Saints’ Inheritance",
      "refcode_long": "The Saints’ Inheritance, p. 63.2 (John Norton Loughborough)",
      "refcode_short": "SAIN 63.2",
      "pub_year": "1893",
      "snippet": "The <mark>saints</mark> are to <mark>reign</mark> with Christ a <mark>thousand years</mark>, and we have now ascertained that they commence that <mark>thousand-years’ reign</mark> before the throne in heaven …",
      "weight": 0.69,
      "group": "apl"
    },
    {
      "index": 14,
      "lang": "en",
      "para_id": "1065.70",
      "pub_code": "ARSH",
      "pub_name": "The Advent Review and Sabbath Herald, vol. 77",
      "refcode_long": "The Advent Review and Sabbath Herald, vol. 77 January 9,  1900, page 24 paragraph 3",
      "refcode_short": "ARSH January 9,  1900, page 24.3",
      "pub_year": "1900",
      "snippet": "… a <mark>thousand years</mark>, and that the <mark>saints</mark> live and <mark>reign</mark> with Christ a <mark>thousand years</mark>. “But the rest of the dead lived not again until the <mark>thousand years</mark> were finished …",
      "weight": 0.65,
      "group": "apl"
    },
    {
      "index": 15,
      "lang": "en",
      "para_id": "1102.50",
      "pub_code": "BEST",
      "pub_name": "Australasian Signs of the Times, vol. 18",
      "refcode_long": "Australasian Signs of the Times, vol. 18 June 15,  1903, page 284 paragraph 3",
      "refcode_short": "BEST June 15,  1903, page 284.3",
      "pub_year": "1903",
      "snippet": "… a <mark>thousand years</mark>, and that the <mark>saints</mark> live and <mark>reign</mark> with Christ a <mark>thousand years</mark>. “But the rest of the dead lived not again until the <mark>thousand years</mark> were finished …",
      "weight": 0.65,
      "group": "apl"
    },
    {
      "index": 16,
      "lang": "en",
      "para_id": "1184.143",
      "pub_code": "PTUK",
      "pub_name": "The Present Truth, vol. 16",
      "refcode_long": "The Present Truth, vol. 16 August 30,  1900, page 548 paragraph 3",
      "refcode_short": "PTUK August 30,  1900, page 548.3",
      "pub_year": "1900",
      "snippet": "… a <mark>thousand years</mark>, and that the <mark>saints</mark> live and <mark>reign</mark> with Christ a <mark>thousand years</mark>. “But the rest of the dead lived not again until the <mark>thousand years</mark> were finished …",
      "weight": 0.65,
      "group": "apl"
    },
    {
      "index": 17,
      "lang": "en",
      "para_id": "1689.681",
      "pub_code": "ARSH",
      "pub_name": "Advent Review, and Sabbath Herald, vol. 14",
      "refcode_long": "Advent Review, and Sabbath Herald, vol. 14 June 9,  1859, page 19 paragraph 6",
      "refcode_short": "ARSH June 9,  1859, page 19.6",
      "pub_year": "1859",
      "snippet": "… . The <mark>saints</mark> are to “<mark>reign</mark> with Christ a <mark>thousand years</mark>.” We have found already that they commence that <mark>thousand years</mark> before the throne IN HEAVEN. Who will venture …",
      "weight": 0.63,
      "group": "apl"
    },
    {
      "index": 18,
      "lang": "en",
      "para_id": "1689.670",
      "pub_code": "ARSH",
      "pub_name": "Advent Review, and Sabbath Herald, vol. 14",
      "refcode_long": "Advent Review, and Sabbath Herald, vol. 14 June 9,  1859, page 18 paragraph 15",
      "refcode_short": "ARSH June 9,  1859, page 18.15",
      "pub_year": "1859",
      "snippet": "… will <mark>reign</mark> on earth a <mark>thousand years</mark>; but “they shall <mark>reign</mark> with Christ a <mark>thousand years</mark>!”",
      "weight": 0.62,
      "group": "apl"
    },
    {
      "index": 19,
      "lang": "en",
      "para_id": "1689.665",
      "pub_code": "ARSH",
      "pub_name": "Advent Review, and Sabbath Herald, vol. 14",
      "refcode_long": "Advent Review, and Sabbath Herald, vol. 14 June 9,  1859, page 18 paragraph 10",
      "refcode_short": "ARSH June 9,  1859, page 18.10",
      "pub_year": "1859",
      "snippet": "… <mark>thousand years’ reign</mark> of the <mark>saints</mark>, and the condition of the earth during that <mark>thousand years</mark>. From the positions taken in this work, that the <mark>saints</mark> will …",
      "weight": 0.62,
      "group": "apl"
    },
    {
      "index": 20,
      "lang": "en",
      "para_id": "1652.2649",
      "pub_code": "HST",
      "pub_name": "The Advent Herald, and Signs of the Times Reporter [Himes], vol. 7",
      "refcode_long": "The Advent Herald, and Signs of the Times Reporter [Himes], vol. 7 April 10,  1844, page 73 paragraph 14",
      "refcode_short": "HST April 10,  1844, page 73.14",
      "pub_year": "1844",
      "snippet": "… the <mark>saints reign</mark> as joint heirs of Christ on earth for a <mark>thousand years</mark>. See Revelation 5:10, and 20:4 .",
      "weight": 0.62,
      "group": "apl"
    },
    {
      "index": 21,
      "lang": "en",
      "para_id": "1692.334",
      "pub_code": "ARSH",
      "pub_name": "Advent Review, and Sabbath Herald, vol. 11",
      "refcode_long": "Advent Review, and Sabbath Herald, vol. 11 November 19,  1857, page 10 paragraph 4",
      "refcode_short": "ARSH November 19,  1857, page 10.4",
      "pub_year": "1857",
      "snippet": "… the <mark>saints’ reigning</mark> over mortal nations on earth for one <mark>thousand years</mark>. They have said, “If the <mark>saints</mark> are going to <mark>reign</mark> a <mark>thousand years</mark> they must have somebody …",
      "weight": 0.61,
      "group": "apl"
    },
    {
      "index": 22,
      "lang": "en",
      "para_id": "1679.6500",
      "pub_code": "ARSH",
      "pub_name": "Advent Review, and Sabbath Herald, vol. 24",
      "refcode_long": "Advent Review, and Sabbath Herald, vol. 24 October 18,  1864, page 161 paragraph 19",
      "refcode_short": "ARSH October 18,  1864, page 161.19",
      "pub_year": "1864",
      "snippet": "… shall <mark>reign</mark> with him a <mark>thousand years</mark>.” Here, then, we see that the rest of the dead, i. e., the wicked, are not alive during the <mark>thousand years</mark>; but are as Job says, “remaining …",
      "weight": 0.6,
      "group": "apl"
    },
    {
      "index": 23,
      "lang": "en",
      "para_id": "1658.1286",
      "pub_code": "HST",
      "pub_name": "Signs of the Times and Expositor of Prophecy [Himes], vol. 2",
      "refcode_long": "Signs of the Times and Expositor of Prophecy [Himes], vol. 2 June 15,  1841, page 46 paragraph 19",
      "refcode_short": "HST June 15,  1841, page 46.19",
      "pub_year": "1841",
      "snippet": "… the <mark>thousand years</mark>. 3. Therefore, at the end of the <mark>thousand, years</mark> the <mark>reign</mark> of Christ will close.”",
      "weight": 0.6,
      "group": "apl"
    },
    {
      "index": 24,
      "lang": "en",
      "para_id": "1320.798",
      "pub_code": "MWV1",
      "pub_name": "Miller’s Works, vol. 1. Views of the Prophecies and Prophetic Chronology",
      "refcode_long": "Miller’s Works, vol. 1. Views of the Prophecies and Prophetic Chronology, p. 149.1 (William Miller)",
      "refcode_short": "MWV1 149.1",
      "pub_year": "1842",
      "snippet": "… shall <mark>reign</mark> with him a <mark>thousand years</mark>.” This is the day of the Lord, one <mark>thousand years</mark>. Is this day to be understood a literal or figurative <mark>thousand years</mark>? I answer …",
      "weight": 0.6,
      "group": "apl"
    }
  ]
}
