{
  "next": "https://a.egwwritings.org/search?lang=en&period=all&facets=False&query=Satan%20bound%20bottomless%20pit&offset=20&limit=20&order=rel&snippet=long&query_type=prefer_exact",
  "previous": null,
  "total": 78,
  "count": 78,
  "results": [
    {
      "index": 0,
      "lang": "en",
      "para_id": "14022.595",
      "pub_code": "GC-SG",
      "pub_name": "The Great Controversy -- Study Guide",
      "refcode_long": "The Great Controversy -- Study Guide, p. 75.5 (Ellen G. White Estate)",
      "refcode_short": "GC-SG 75.5",
      "pub_year": "2000",
      "snippet": "5. To what condition is the earth reduced? What is the “<mark>bottomless pit</mark>” and in what sense is <mark>Satan bound</mark>? 658:3-660:2 [ 740:1-742:2 ]",
      "weight": 1,
      "group": "reference"
    },
    {
      "index": 1,
      "lang": "en",
      "para_id": "1679.6512",
      "pub_code": "ARSH",
      "pub_name": "Advent Review, and Sabbath Herald, vol. 24",
      "refcode_long": "Advent Review, and Sabbath Herald, vol. 24 October 18,  1864, page 162 paragraph 8",
      "refcode_short": "ARSH October 18,  1864, page 162.8",
      "pub_year": "1864",
      "snippet": "… , and <mark>Satan</mark>, and <mark>bound</mark> him a thousand years, and cast him into the <mark>bottomless pit</mark>.” Here it is said that “<mark>Satan</mark> is cast into the <mark>bottomless pit</mark>.” In verse 10, it is said …",
      "weight": 0.93,
      "group": "apl"
    },
    {
      "index": 2,
      "lang": "en",
      "para_id": "1474.665",
      "pub_code": "PROLI",
      "pub_name": "Prophetic Lights",
      "refcode_long": "Prophetic Lights, p. 111.4 (Ellet Joseph Waggoner)",
      "refcode_short": "PROLI 111.4",
      "pub_year": "1889",
      "snippet": "… the <mark>bottomless pit</mark> and a great chain in his hand. And he laid hold on the dragon, that old serpent, which is the devil, and <mark>Satan</mark>, and <mark>bound</mark> him a thousand years, and …",
      "weight": 0.88,
      "group": "apl"
    },
    {
      "index": 3,
      "lang": "en",
      "para_id": "14721.5864",
      "pub_code": "ABC-NT",
      "pub_name": "Andrews Bible Commentary - New Testament",
      "refcode_long": "Andrews Bible Commentary - New Testament, p. 1996.11",
      "refcode_short": "ABC-NT 1996.11",
      "pub_year": "",
      "snippet": "",
      "weight": 0.88,
      "group": "bible",
      "action_required": "purchased"
    },
    {
      "index": 4,
      "lang": "en",
      "para_id": "2774.2482",
      "pub_code": "HF",
      "pub_name": "From Here to Forever",
      "refcode_long": "From Here to Forever, p. 398.1 (Ellen Gould White)",
      "refcode_short": "HF 398.1",
      "pub_year": "1982",
      "snippet": "… the <mark>bottomless pit</mark> and a great chain in his hand. And he laid hold on the dragon, that old serpent, which is the devil, and <mark>Satan</mark>, and <mark>bound</mark> him a thousand years, and …",
      "weight": 0.81,
      "group": "egwwritings"
    },
    {
      "index": 5,
      "lang": "en",
      "para_id": "14670.2979",
      "pub_code": "BR-ASI9",
      "pub_name": "Bible Readings — Bible Questions Answered",
      "refcode_long": "Bible Readings — Bible Questions Answered, p. 235.6 (Ellen G. White Estate)",
      "refcode_short": "BR-ASI9 235.6",
      "pub_year": "2023",
      "snippet": "… the <mark>bottomless pit</mark> and a great chain in his hand. And he laid hold on the dragon, that old serpent, which is the Devil, and <mark>Satan</mark>, and <mark>bound</mark> him a thousand years, and …",
      "weight": 0.81,
      "group": "bible"
    },
    {
      "index": 6,
      "lang": "en",
      "para_id": "12861.3579",
      "pub_code": "DAR",
      "pub_name": "Daniel and The Revelation",
      "refcode_long": "Daniel and The Revelation, p. 687.1 (Uriah Smith)",
      "refcode_short": "DAR 687.1",
      "pub_year": "1897",
      "snippet": "… the <mark>bottomless pit</mark> and a great chain in his hand. 2. And he laid hold on the dragon, that old serpent, which is the devil, and <mark>Satan</mark>, and <mark>bound</mark> him a thousand years …",
      "weight": 0.81,
      "group": "apl"
    },
    {
      "index": 7,
      "lang": "en",
      "para_id": "1297.3453",
      "pub_code": "DAR1909",
      "pub_name": "Daniel and The Revelation",
      "refcode_long": "Daniel and The Revelation, p. 732.1 (Uriah Smith)",
      "refcode_short": "DAR1909 732.1",
      "pub_year": "1909",
      "snippet": "… the <mark>bottomless pit</mark> and a great chain in his hand. 2. And he laid hold on the dragon, that old serpent, which is the devil, and <mark>Satan</mark>, and <mark>bound</mark> him a thousand years …",
      "weight": 0.81,
      "group": "apl"
    },
    {
      "index": 8,
      "lang": "en",
      "para_id": "1317.1156",
      "pub_code": "LUJ",
      "pub_name": "Looking Unto Jesus",
      "refcode_long": "Looking Unto Jesus, p. 262.5 (Uriah Smith)",
      "refcode_short": "LUJ 262.5",
      "pub_year": "1898",
      "snippet": "… the <mark>bottomless pit</mark>, and a great chain in his hand. And he laid hold on the dragon, that old serpent, which is the Devil and <mark>Satan</mark>, and <mark>bound</mark> him a thousand years, and …",
      "weight": 0.81,
      "group": "apl"
    },
    {
      "index": 9,
      "lang": "en",
      "para_id": "1408.1280",
      "pub_code": "STTHD",
      "pub_name": "The Sanctuary and the Twenty-three Hundred Days of Daniel 8:14",
      "refcode_long": "The Sanctuary and the Twenty-three Hundred Days of Daniel 8:14, p. 315.1 (Uriah Smith)",
      "refcode_short": "STTHD 315.1",
      "pub_year": "1877",
      "snippet": "… the <mark>bottomless pit</mark>, and a great chain in his hand. And he laid hold on the dragon, that old serpent, which is the devil and <mark>Satan</mark>, and <mark>bound</mark> him a thousand years, and …",
      "weight": 0.81,
      "group": "apl"
    },
    {
      "index": 10,
      "lang": "en",
      "para_id": "1399.364",
      "pub_code": "HPGO",
      "pub_name": "The Hope of the Gospel",
      "refcode_long": "The Hope of the Gospel, p. 79.1 (John Norton Loughborough)",
      "refcode_short": "HPGO 79.1",
      "pub_year": "1873",
      "snippet": "… , and <mark>Satan</mark>, and <mark>bound</mark> him a thousand years, and cast him into the <mark>bottomless pit</mark>.” Here the strong man is <mark>bound</mark>. He is rendered inactive. His power is broken, or as …",
      "weight": 0.81,
      "group": "apl"
    },
    {
      "index": 11,
      "lang": "en",
      "para_id": "961.538",
      "pub_code": "MPC",
      "pub_name": "An Examination of the Scripture Testimony",
      "refcode_long": "An Examination of the Scripture Testimony, p. 133.1 (John Norton Loughborough)",
      "refcode_short": "MPC 133.1",
      "pub_year": "1855",
      "snippet": "… , and <mark>Satan</mark>, and <mark>bound</mark> him a thousand years, and cast him into the <mark>bottomless pit</mark>.” Here the strong man is <mark>bound</mark>. Perhaps not literally. He is rendered inactive, cast …",
      "weight": 0.81,
      "group": "apl"
    },
    {
      "index": 12,
      "lang": "en",
      "para_id": "1541.4226",
      "pub_code": "SITI",
      "pub_name": "The Signs of the Times, vol. 14",
      "refcode_long": "The Signs of the Times, vol. 14 October 26,  1888, page 646 paragraph 13",
      "refcode_short": "SITI October 26,  1888, page 646.13",
      "pub_year": "1888",
      "snippet": "… the <mark>bottomless pit</mark> and a great chain in his hand. And he laid hold on the dragon, that old serpent, which is the Devil, and <mark>Satan</mark>, and <mark>bound</mark> him a thousand years, and …",
      "weight": 0.81,
      "group": "apl"
    },
    {
      "index": 13,
      "lang": "en",
      "para_id": "1441.476",
      "pub_code": "ATNM",
      "pub_name": "Angels: Their Nature and Ministry",
      "refcode_long": "Angels: Their Nature and Ministry, p. 117.1 (Joseph Harvey Waggoner)",
      "refcode_short": "ATNM 117.1",
      "pub_year": "1891",
      "snippet": "… the <mark>bottomless pit</mark> [abyss] and a great chain in his hand. And he laid hold on the dragon, that old serpent, which is the devil, and <mark>Satan</mark>, and <mark>bound</mark> him a thousand years …",
      "weight": 0.79,
      "group": "apl"
    },
    {
      "index": 14,
      "lang": "en",
      "para_id": "1658.1520",
      "pub_code": "HST",
      "pub_name": "Signs of the Times and Expositor of Prophecy [Himes], vol. 2",
      "refcode_long": "Signs of the Times and Expositor of Prophecy [Himes], vol. 2 July 1,  1841, page 55 paragraph 4",
      "refcode_short": "HST July 1,  1841, page 55.4",
      "pub_year": "1841",
      "snippet": "… the “<mark>bottomless pit</mark>,” where <mark>satan</mark> is to be <mark>bound</mark> a thousand years.",
      "weight": 0.79,
      "group": "apl"
    },
    {
      "index": 15,
      "lang": "en",
      "para_id": "12269.2247",
      "pub_code": "LF",
      "pub_name": "Love Under Fire",
      "refcode_long": "Love Under Fire, p. 265.1 (Ellen Gould White)",
      "refcode_short": "LF 265.1",
      "pub_year": "2011",
      "snippet": "… the <mark>bottomless pit</mark> and a great chain in his hand. He laid hold of the dragon, that serpent of old, who is the Devil and <mark>Satan</mark>, and <mark>bound</mark> him for a thousand years; and …",
      "weight": 0.78,
      "group": "egwwritings"
    },
    {
      "index": 16,
      "lang": "en",
      "para_id": "14753.2398",
      "pub_code": "5TC",
      "pub_name": "The Victory",
      "refcode_long": "The Victory, p. 377.2 (Ellen Gould White)",
      "refcode_short": "5TC 377.2",
      "pub_year": "2024",
      "snippet": "… the <mark>bottomless pit</mark> and a great chain in his hand. He laid hold of the dragon, that serpent of old, who is the Devil and <mark>Satan</mark>, and <mark>bound</mark> him for a thousand years; and …",
      "weight": 0.78,
      "group": "egwwritings"
    },
    {
      "index": 17,
      "lang": "en",
      "para_id": "1519.5196",
      "pub_code": "PTUK",
      "pub_name": "The Present Truth, vol. 11",
      "refcode_long": "The Present Truth, vol. 11 August 8,  1895, page 501 paragraph 9",
      "refcode_short": "PTUK August 8,  1895, page 501.9",
      "pub_year": "1895",
      "snippet": "… the <mark>bottomless pit</mark> and a great chain in his hand. And he laid hold on the dragon, that old serpent, which is the Devil, and <mark>Satan</mark>, and <mark>bound</mark> him a thousand years, and …",
      "weight": 0.78,
      "group": "apl"
    },
    {
      "index": 18,
      "lang": "en",
      "para_id": "1674.987",
      "pub_code": "ARSH",
      "pub_name": "Advent Review, and Sabbath Herald, vol. 9",
      "refcode_long": "Advent Review, and Sabbath Herald, vol. 9 November 27,  1856, page 28 paragraph 22",
      "refcode_short": "ARSH November 27,  1856, page 28.22",
      "pub_year": "1856",
      "snippet": "… the <mark>bottomless pit</mark>, and a great chain in his hand. And he laid hold on the dragon, that old serpent, which is the Devil and <mark>Satan</mark>, and <mark>bound</mark> him a thousand years, and …",
      "weight": 0.78,
      "group": "apl"
    },
    {
      "index": 19,
      "lang": "en",
      "para_id": "1692.5127",
      "pub_code": "ARSH",
      "pub_name": "Advent Review, and Sabbath Herald, vol. 11",
      "refcode_long": "Advent Review, and Sabbath Herald, vol. 11 March 18,  1858, page 140 paragraph 16",
      "refcode_short": "ARSH March 18,  1858, page 140.16",
      "pub_year": "1857",
      "snippet": "… the <mark>bottomless pit</mark>, and a great chain in his hand. And he laid hold on the dragon, that old serpent, which is the Devil and <mark>Satan</mark>, and <mark>bound</mark> him a thousand years, and …",
      "weight": 0.78,
      "group": "apl"
    }
  ]
}
