{
  "next": "https://a.egwwritings.org/search?lang=en&period=all&facets=False&query=great%20white%20throne%20books&offset=20&limit=20&order=rel&snippet=long&query_type=prefer_exact",
  "previous": null,
  "total": 137,
  "count": 137,
  "results": [
    {
      "index": 0,
      "lang": "en",
      "para_id": "14634.2077",
      "pub_code": "SRE",
      "pub_name": "Story of Redemption",
      "refcode_long": "Story of Redemption, p. 307.4 (Ellen Gould White)",
      "refcode_short": "SRE 307.4",
      "pub_year": "",
      "snippet": "… <mark> white throne</mark> and Him [Jesus] who was seated on it [the <mark>throne</mark>]. Earth and sky fled from His presence, and there was no place for them. And I saw the dead, <mark>great</mark> and …",
      "weight": 1,
      "group": "egwwritings"
    },
    {
      "index": 1,
      "lang": "en",
      "para_id": "14820.2256",
      "pub_code": "JTLD",
      "pub_name": "My Journey to Life - Daily Study Guide",
      "refcode_long": "My Journey to Life - Daily Study Guide, p. 380.2 (Ellen G. White Estate)",
      "refcode_short": "JTLD 380.2",
      "pub_year": "2025",
      "snippet": "… His <mark>great white throne</mark>. As the entire human race meets around this <mark>throne</mark>, some secure inside the city, some terrified outside, God carries out His last phase …",
      "weight": 0.99,
      "group": "reference"
    },
    {
      "index": 2,
      "lang": "en",
      "para_id": "15.1404",
      "pub_code": "COL",
      "pub_name": "Christ’s Object Lessons",
      "refcode_long": "Christ’s Object Lessons, p. 318.2 (Ellen Gould White)",
      "refcode_short": "COL 318.2",
      "pub_year": "1900",
      "snippet": "… and <mark>great</mark>, stand before God; and the <mark>books</mark> were opened; and another <mark>book</mark> was opened, which is the <mark>book</mark> of life; and the dead were judged out of those things which …",
      "weight": 0.97,
      "group": "egwwritings"
    },
    {
      "index": 3,
      "lang": "en",
      "para_id": "112.152",
      "pub_code": "8T",
      "pub_name": "Testimonies for the Church, vol. 8",
      "refcode_long": "Testimonies for the Church, vol. 8, p. 28.2 (Ellen Gould White)",
      "refcode_short": "8T 28.2",
      "pub_year": "1904",
      "snippet": "… and <mark>great</mark>, stand before God; and the <mark>books</mark> were opened: and another <mark>book</mark> was opened, which is the <mark>book</mark> of life: and the dead were judged out of those things which …",
      "weight": 0.97,
      "group": "egwwritings"
    },
    {
      "index": 4,
      "lang": "en",
      "para_id": "14789.72",
      "pub_code": "JTL27",
      "pub_name": "My Journey to Life, Step 27—The Millennium",
      "refcode_long": "My Journey to Life, Step 27—The Millennium, p. 10.1 (Ellen G. White Estate)",
      "refcode_short": "JTL27 10.1",
      "pub_year": "",
      "snippet": "… His <mark>great white throne</mark>. As the entire human race meets around this <mark>throne</mark>, some secure inside the city, some terrified outside, God carries out His last phase …",
      "weight": 0.96,
      "group": "reference"
    },
    {
      "index": 5,
      "lang": "en",
      "para_id": "1441.162",
      "pub_code": "ATNM",
      "pub_name": "Angels: Their Nature and Ministry",
      "refcode_long": "Angels: Their Nature and Ministry, p. 42.2 (Joseph Harvey Waggoner)",
      "refcode_short": "ATNM 42.2",
      "pub_year": "1891",
      "snippet": "… these <mark>books</mark> have to do with the judgment we may learn more fully in the <mark>book</mark> of the Revelation: “And I saw a <mark>great white throne</mark>, and Him that sat on it, from whose …",
      "weight": 0.93,
      "group": "apl"
    },
    {
      "index": 6,
      "lang": "en",
      "para_id": "73.874",
      "pub_code": "2MR",
      "pub_name": "Manuscript Releases, vol. 2 [Nos. 97-161]",
      "refcode_long": "Manuscript Releases, vol. 2 [Nos. 97-161], p. 167.3 (Ellen Gould White)",
      "refcode_short": "2MR 167.3",
      "pub_year": "1987",
      "snippet": "… the <mark>books</mark> shall be opened. “And I saw a <mark>great white throne</mark>, and Him that sat on it, from whose face the earth and the heaven fled away; and there was found no place …",
      "weight": 0.93,
      "group": "egwwritings"
    },
    {
      "index": 7,
      "lang": "en",
      "para_id": "14058.6127058",
      "pub_code": "8LtMs",
      "pub_name": "Letters and Manuscripts — Volume 8 (1893)",
      "refcode_long": "Letters and Manuscripts — Volume 8 (1893), Lt 13, 1893, par. 53",
      "refcode_short": "8LtMs, Lt 13, 1893, par. 53",
      "pub_year": "1893",
      "snippet": "… and <mark>great</mark>, stand before God; and the <mark>books</mark> were opened: and another <mark>book</mark> was opened, which is the <mark>book</mark> of life: and the dead were judged out of those things which …",
      "weight": 0.92,
      "group": "egwwritings"
    },
    {
      "index": 8,
      "lang": "en",
      "para_id": "12320.492",
      "pub_code": "GrH_c",
      "pub_name": "The Great Hope (Condensed)",
      "refcode_long": "The Great Hope (Condensed), p. 51.3 (Ellen Gould White)",
      "refcode_short": "GrH_c 51.3",
      "pub_year": "2012",
      "snippet": "… and <mark>great</mark>, stand before God; and the <mark>books</mark> were opened: and another <mark>book</mark> was opened, which is the <mark>book</mark> of life: and the dead were judged out of those things which …",
      "weight": 0.92,
      "group": "egwwritings"
    },
    {
      "index": 9,
      "lang": "en",
      "para_id": "36.537",
      "pub_code": "Hvn",
      "pub_name": "Heaven",
      "refcode_long": "Heaven, p. 126.2 (Ellen Gould White)",
      "refcode_short": "Hvn 126.2",
      "pub_year": "2003",
      "snippet": "… and <mark>great</mark>, stand before God; and the <mark>books</mark> were opened: and another <mark>book</mark> was opened, which is the <mark>book</mark> of life: and the dead were judged out of those things which …",
      "weight": 0.92,
      "group": "egwwritings"
    },
    {
      "index": 10,
      "lang": "en",
      "para_id": "2774.2514",
      "pub_code": "HF",
      "pub_name": "From Here to Forever",
      "refcode_long": "From Here to Forever, p. 403.3 (Ellen Gould White)",
      "refcode_short": "HF 403.3",
      "pub_year": "1982",
      "snippet": "… and <mark>great</mark>, stand before God; and the <mark>books</mark> were opened: and another <mark>book</mark> was opened, which is the <mark>book</mark> of life: and the dead were judged out of those things which …",
      "weight": 0.92,
      "group": "egwwritings"
    },
    {
      "index": 11,
      "lang": "en",
      "para_id": "14066.9845013",
      "pub_code": "16LtMs",
      "pub_name": "Letters and Manuscripts — Volume 16 (1901)",
      "refcode_long": "Letters and Manuscripts — Volume 16 (1901), Ms 24, 1901, par. 8",
      "refcode_short": "16LtMs, Ms 24, 1901, par. 8",
      "pub_year": "1901",
      "snippet": "… and <mark>great</mark>, stand before God; and the <mark>books</mark> were opened; and another <mark>book</mark> was opened, which is the <mark>book</mark> of life; and the dead were judged out of those things which …",
      "weight": 0.92,
      "group": "egwwritings"
    },
    {
      "index": 12,
      "lang": "en",
      "para_id": "14067.8452023",
      "pub_code": "17LtMs",
      "pub_name": "Letters and Manuscripts — Volume 17 (1902)",
      "refcode_long": "Letters and Manuscripts — Volume 17 (1902), Lt 54, 1902, par. 17",
      "refcode_short": "17LtMs, Lt 54, 1902, par. 17",
      "pub_year": "1902",
      "snippet": "… and <mark>great</mark>, stand before God; and the <mark>books</mark> were opened; and another <mark>book</mark> was opened, which is the <mark>book</mark> of life; and the dead were judged out of those things which …",
      "weight": 0.92,
      "group": "egwwritings"
    },
    {
      "index": 13,
      "lang": "en",
      "para_id": "14068.7511010",
      "pub_code": "18LtMs",
      "pub_name": "Letters and Manuscripts — Volume 18 (1903)",
      "refcode_long": "Letters and Manuscripts — Volume 18 (1903), Lt 37a, 1903, par. 4",
      "refcode_short": "18LtMs, Lt 37a, 1903, par. 4",
      "pub_year": "1903",
      "snippet": "… and <mark>great</mark>, stand before God; and the <mark>books</mark> were opened: and another <mark>book</mark> was opened, which is the <mark>book</mark> of life: and the dead were judged out of those things which …",
      "weight": 0.92,
      "group": "egwwritings"
    },
    {
      "index": 14,
      "lang": "en",
      "para_id": "821.23304",
      "pub_code": "RH",
      "pub_name": "The Review and Herald",
      "refcode_long": "The Review and Herald September 10,  1903, paragraph 6",
      "refcode_short": "RH September 10,  1903, par. 6",
      "pub_year": "1851",
      "snippet": "… and <mark>great</mark>, stand before God; and the <mark>books</mark> were opened: and another <mark>book</mark> was opened, which is the <mark>book</mark> of life: and the dead were judged out of those things which …",
      "weight": 0.92,
      "group": "egwwritings"
    },
    {
      "index": 15,
      "lang": "en",
      "para_id": "820.8498",
      "pub_code": "ST",
      "pub_name": "The Signs of the Times",
      "refcode_long": "The Signs of the Times December 29,  1887, paragraph 1",
      "refcode_short": "ST December 29,  1887, par. 1",
      "pub_year": "1874",
      "snippet": "… and <mark>great</mark>, stand before God; and the <mark>books</mark> were opened; and another <mark>book</mark> was opened, which is the <mark>book</mark> of life; and the dead were judged out of those things which …",
      "weight": 0.92,
      "group": "egwwritings"
    },
    {
      "index": 16,
      "lang": "en",
      "para_id": "12269.2275",
      "pub_code": "LF",
      "pub_name": "Love Under Fire",
      "refcode_long": "Love Under Fire, p. 268.6 (Ellen Gould White)",
      "refcode_short": "LF 268.6",
      "pub_year": "2011",
      "snippet": "… and <mark>great</mark>, standing before God, and <mark>books</mark> were opened. And another <mark>book</mark> was opened, which is the <mark>Book</mark> of Life. And the dead were judged according to their works …",
      "weight": 0.92,
      "group": "egwwritings"
    },
    {
      "index": 17,
      "lang": "en",
      "para_id": "14211.625",
      "pub_code": "SH",
      "pub_name": "Story of Hope",
      "refcode_long": "Story of Hope, p. 118.2 (Ellen Gould White)",
      "refcode_short": "SH 118.2",
      "pub_year": "2016",
      "snippet": "… and <mark>great</mark>, standing before God, and <mark>books</mark> were opened. And another <mark>book</mark> was opened, which is the <mark>Book</mark> of Life. And the dead were judged according to their works …",
      "weight": 0.92,
      "group": "egwwritings"
    },
    {
      "index": 18,
      "lang": "en",
      "para_id": "12280.494",
      "pub_code": "GrH_a",
      "pub_name": "The Great Hope (Adapted)",
      "refcode_long": "The Great Hope (Adapted), p. 51.3 (Ellen Gould White)",
      "refcode_short": "GrH_a 51.3",
      "pub_year": "2011",
      "snippet": "… and <mark>great</mark>, standing before God, and <mark>books</mark> were opened. And another <mark>book</mark> was opened, which is the <mark>Book</mark> of Life. And the dead were judged according to their works …",
      "weight": 0.92,
      "group": "egwwritings"
    },
    {
      "index": 19,
      "lang": "en",
      "para_id": "14753.2429",
      "pub_code": "5TC",
      "pub_name": "The Victory",
      "refcode_long": "The Victory, p. 383.1 (Ellen Gould White)",
      "refcode_short": "5TC 383.1",
      "pub_year": "2024",
      "snippet": "… and <mark>great</mark>, standing before God, and <mark>books</mark> were opened. And another <mark>book</mark> was opened, which is the <mark>Book</mark> of Life. And the dead were judged according to their works …",
      "weight": 0.92,
      "group": "egwwritings"
    }
  ]
}
