{
  "next": "https://a.egwwritings.org/search?lang=en&period=all&facets=False&query=new%20earth%20holy%20city&offset=25&limit=25&order=rel&snippet=long&query_type=prefer_exact",
  "previous": null,
  "total": 386,
  "count": 386,
  "results": [
    {
      "index": 0,
      "lang": "en",
      "para_id": "1658.29",
      "pub_code": "HST",
      "pub_name": "Signs of the Times and Expositor of Prophecy [Himes], vol. 2",
      "refcode_long": "Signs of the Times and Expositor of Prophecy [Himes], vol. 2 April 1,  1841, page 2 paragraph 6",
      "refcode_short": "HST April 1,  1841, page 2.6",
      "pub_year": "1841",
      "snippet": "… <mark>new earth</mark>. In the upper part of our atmosphere, where will be the <mark>new</mark> heavens, there will be the <mark>Holy City</mark> which God hath prepared for his people. This <mark>Holy City</mark> …",
      "weight": 1,
      "group": "apl"
    },
    {
      "index": 1,
      "lang": "en",
      "para_id": "1674.5251",
      "pub_code": "ARSH",
      "pub_name": "Advent Review, and Sabbath Herald, vol. 9",
      "refcode_long": "Advent Review, and Sabbath Herald, vol. 9 March 5,  1857, page 140 paragraph 15",
      "refcode_short": "ARSH March 5,  1857, page 140.15",
      "pub_year": "1856",
      "snippet": "… the <mark>new earth</mark>, called the <mark>Holy City, New</mark> Jerusalem. Read the following description of the <mark>Holy City</mark>, as applying to the church; and as you read, mark well the senseless …",
      "weight": 0.98,
      "group": "apl"
    },
    {
      "index": 2,
      "lang": "en",
      "para_id": "1658.1465",
      "pub_code": "HST",
      "pub_name": "Signs of the Times and Expositor of Prophecy [Himes], vol. 2",
      "refcode_long": "Signs of the Times and Expositor of Prophecy [Himes], vol. 2 July 1,  1841, page 52 paragraph 1",
      "refcode_short": "HST July 1,  1841, page 52.1",
      "pub_year": "1841",
      "snippet": "… present <mark>earth</mark>, defileth with sin. And as the <mark>New</mark> Jerusalem, the beloved <mark>city</mark>, comes down to the <mark>new earth</mark>, the beloved and <mark>holy city</mark>, is on the <mark>new earth</mark> during the …",
      "weight": 0.94,
      "group": "apl"
    },
    {
      "index": 3,
      "lang": "en",
      "para_id": "12666.10433",
      "pub_code": "HSDAT",
      "pub_name": "Handbook of SDA Theology",
      "refcode_long": "Handbook of SDA Theology, p. 955.2 (Raoul Dederen-GCSDA)",
      "refcode_short": "HSDAT 955.2",
      "pub_year": "2000",
      "snippet": "",
      "weight": 0.9,
      "group": "bible",
      "action_required": "purchased"
    },
    {
      "index": 4,
      "lang": "en",
      "para_id": "1089.347",
      "pub_code": "ChSa",
      "pub_name": "The Change of the Sabbath",
      "refcode_long": "The Change of the Sabbath, p. 76.2 (George Ide Butler)",
      "refcode_short": "ChSa 76.2",
      "pub_year": "1904",
      "snippet": "… . The <mark>new</mark> heavens and the <mark>new earth</mark> are created a thousand years after the coming of Christ. 2 Peter 3:8-13; Revelation 20:4-15; 21:1. The <mark>new earth</mark> will be the abode …",
      "weight": 0.89,
      "group": "apl"
    },
    {
      "index": 5,
      "lang": "en",
      "para_id": "1675.1337",
      "pub_code": "ARSH",
      "pub_name": "Advent Review, and Sabbath Herald, vol. 8",
      "refcode_long": "Advent Review, and Sabbath Herald, vol. 8 May 15,  1856, page 37",
      "refcode_short": "ARSH May 15,  1856, page 37",
      "pub_year": "1856",
      "snippet": "… create <mark>new</mark> heavens, and a <mark>new earth</mark>. And I saw a <mark>new</mark> heaven and a <mark>new earth</mark>. The former shall not be remembered The first ... were passed away. I create Jerusalem a rejoicing …",
      "weight": 0.89,
      "group": "apl"
    },
    {
      "index": 6,
      "lang": "en",
      "para_id": "12668.14945",
      "pub_code": "SDAEnc",
      "pub_name": "SDA Encyclopedia",
      "refcode_long": "SDA Encyclopedia, p. .0 (General Conference of SDA)",
      "refcode_short": "SDAEnc .0",
      "pub_year": "1966",
      "snippet": "",
      "weight": 0.89,
      "group": "bible",
      "action_required": "purchased"
    },
    {
      "index": 7,
      "lang": "en",
      "para_id": "1658.1469",
      "pub_code": "HST",
      "pub_name": "Signs of the Times and Expositor of Prophecy [Himes], vol. 2",
      "refcode_long": "Signs of the Times and Expositor of Prophecy [Himes], vol. 2 July 1,  1841, page 52 paragraph 5",
      "refcode_short": "HST July 1,  1841, page 52.5",
      "pub_year": "1841",
      "snippet": "… <mark>holy</mark> and beloved <mark>city</mark>, comes down to the <mark>new earth</mark>. Then the <mark>new earth</mark> must be in existence from the beginning of the one thousand years; for to the <mark>earth</mark> on …",
      "weight": 0.87,
      "group": "apl"
    },
    {
      "index": 8,
      "lang": "en",
      "para_id": "1652.3820",
      "pub_code": "HST",
      "pub_name": "The Advent Herald, and Signs of the Times Reporter [Himes], vol. 7",
      "refcode_long": "The Advent Herald, and Signs of the Times Reporter [Himes], vol. 7 May 8,  1844, page 109 paragraph 15",
      "refcode_short": "HST May 8,  1844, page 109.15",
      "pub_year": "1844",
      "snippet": "… a <mark>new</mark> heaven and a <mark>new earth</mark>, for the first heaven and the first <mark>earth</mark> were passed away, and there was no more sea. And I John saw the <mark>holy city, new</mark> Jerusalem coming …",
      "weight": 0.85,
      "group": "apl"
    },
    {
      "index": 9,
      "lang": "en",
      "para_id": "29.1578",
      "pub_code": "Ed",
      "pub_name": "Education",
      "refcode_long": "Education, p. 301.4 (Ellen Gould White)",
      "refcode_short": "Ed 301.4",
      "pub_year": "1903",
      "snippet": "“I saw a <mark>new</mark> heaven and a <mark>new earth</mark>: for the first heaven and the first <mark>earth</mark> were passed away.... And I John saw the <mark>Holy City, New</mark> Jerusalem, coming down from God out of heaven, prepared as a bride adorned for her husband.” Revelation 21:1, 2 .",
      "weight": 0.83,
      "group": "egwwritings"
    },
    {
      "index": 10,
      "lang": "en",
      "para_id": "36.630",
      "pub_code": "Hvn",
      "pub_name": "Heaven",
      "refcode_long": "Heaven, p. 146.4 (Ellen Gould White)",
      "refcode_short": "Hvn 146.4",
      "pub_year": "2003",
      "snippet": "“I saw a <mark>new</mark> heaven and a <mark>new earth</mark>: for the first heaven and the first <mark>earth</mark> were passed away.... And I John saw the <mark>Holy City, New</mark> Jerusalem, coming down from God out of heaven, prepared as a bride adorned for her husband.” Revelation 21:1, 2 .",
      "weight": 0.83,
      "group": "egwwritings"
    },
    {
      "index": 11,
      "lang": "en",
      "para_id": "131.2937",
      "pub_code": "FLB",
      "pub_name": "The Faith I Live By",
      "refcode_long": "The Faith I Live By, p. 360.4 (Ellen Gould White)",
      "refcode_short": "FLB 360.4",
      "pub_year": "1958",
      "snippet": "“I saw a <mark>new</mark> heaven and a <mark>new earth</mark>; for the first heaven and the first <mark>earth</mark> were passed away.... And I John saw the <mark>holy city, new</mark> Jerusalem, coming down from God out of heaven, prepared as a bride adorned for her husband.” Revelation 21:1, 2 ....",
      "weight": 0.83,
      "group": "egwwritings"
    },
    {
      "index": 12,
      "lang": "en",
      "para_id": "12666.10536",
      "pub_code": "HSDAT",
      "pub_name": "Handbook of SDA Theology",
      "refcode_long": "Handbook of SDA Theology, p. 964.5 (Raoul Dederen-GCSDA)",
      "refcode_short": "HSDAT 964.5",
      "pub_year": "2000",
      "snippet": "",
      "weight": 0.83,
      "group": "bible",
      "action_required": "purchased"
    },
    {
      "index": 13,
      "lang": "en",
      "para_id": "14670.6846",
      "pub_code": "BR-ASI9",
      "pub_name": "Bible Readings — Bible Questions Answered",
      "refcode_long": "Bible Readings — Bible Questions Answered, p. 492.10 (Ellen G. White Estate)",
      "refcode_short": "BR-ASI9 492.10",
      "pub_year": "2023",
      "snippet": "And when the <mark>new</mark> heavens and the <mark>new earth</mark> have appeared, and the <mark>holy city, New</mark> Jerusalem, has descended from God and become the metropolis of the <mark>new</mark> creation, what announcement will then be made?",
      "weight": 0.82,
      "group": "bible"
    },
    {
      "index": 14,
      "lang": "en",
      "para_id": "12667.565",
      "pub_code": "1EGWLM",
      "pub_name": "The Ellen G. White Letters and Manuscripts: Volume 1",
      "refcode_long": "The Ellen G. White Letters and Manuscripts: Volume 1, p. 119.2 (Ellen Gould White)",
      "refcode_short": "1EGWLM 119.2",
      "pub_year": "2014",
      "snippet": "… the <mark>earth</mark> by fire, resulting in “a <mark>new</mark> heaven and a <mark>new earth</mark>” ( Rev. 21:1 ). Events at the close of the millennium included the resurrection of the wicked dead, the loosing …",
      "weight": 0.81,
      "group": "egwwritings"
    },
    {
      "index": 15,
      "lang": "en",
      "para_id": "1407.321",
      "pub_code": "SAIN",
      "pub_name": "The Saints’ Inheritance",
      "refcode_long": "The Saints’ Inheritance, p. 77.2 (John Norton Loughborough)",
      "refcode_short": "SAIN 77.2",
      "pub_year": "1893",
      "snippet": "… a <mark>new</mark> heaven and a <mark>new earth</mark>; for the first heaven and the first <mark>earth</mark> were passed away.... And I John saw the <mark>holy city, New</mark> Jerusalem, coming down from God out of heaven …",
      "weight": 0.8,
      "group": "apl"
    },
    {
      "index": 16,
      "lang": "en",
      "para_id": "14721.5883",
      "pub_code": "ABC-NT",
      "pub_name": "Andrews Bible Commentary - New Testament",
      "refcode_long": "Andrews Bible Commentary - New Testament, p. 1997.14",
      "refcode_short": "ABC-NT 1997.14",
      "pub_year": "",
      "snippet": "",
      "weight": 0.8,
      "group": "bible",
      "action_required": "purchased"
    },
    {
      "index": 17,
      "lang": "en",
      "para_id": "1583.6528",
      "pub_code": "PFF4",
      "pub_name": "The Prophetic Faith of Our Fathers, vol. 4",
      "refcode_long": "The Prophetic Faith of Our Fathers, vol. 4, p. 1127.2 (LeRoy Edwin Froom)",
      "refcode_short": "PFF4 1127.2",
      "pub_year": "1954",
      "snippet": "… ). The <mark>new</mark> heavens and the <mark>new earth</mark> supersede the present heaven and <mark>earth</mark>, springing out of its ashes, after the destruction of the old. And the <mark>New</mark> Jerusalem …",
      "weight": 0.79,
      "group": "apl"
    },
    {
      "index": 18,
      "lang": "en",
      "para_id": "1693.1276",
      "pub_code": "ARSH",
      "pub_name": "Advent Review, and Sabbath Herald, vol. 10",
      "refcode_long": "Advent Review, and Sabbath Herald, vol. 10 June 4,  1857, page 36 paragraph 10",
      "refcode_short": "ARSH June 4,  1857, page 36.10",
      "pub_year": "1857",
      "snippet": "… <mark>earth</mark>. This is quoted from Psalm 37, and David adds, And shall dwell therein forever. And, in Revelation, after the <mark>new earth</mark> is described with the <mark>holy City</mark> upon …",
      "weight": 0.79,
      "group": "apl"
    },
    {
      "index": 19,
      "lang": "en",
      "para_id": "1131.48",
      "pub_code": "GGE",
      "pub_name": "The Glory of God in the Earth",
      "refcode_long": "The Glory of God in the Earth, p. 14.2 (Charles Fitch)",
      "refcode_short": "GGE 14.2",
      "pub_year": "1842",
      "snippet": "… a <mark>new</mark> heaven and a <mark>new earth</mark>; for the first heaven and the first <mark>earth</mark> were passed away; and there was no more sea. And I John saw the <mark>holy city</mark>, the <mark>New</mark> Jerusalem …",
      "weight": 0.79,
      "group": "apl"
    },
    {
      "index": 20,
      "lang": "en",
      "para_id": "756.4262",
      "pub_code": "EGWC",
      "pub_name": "Ellen G. White and Her Critics",
      "refcode_long": "Ellen G. White and Her Critics, p. 583.3 (Francis D. Nichol)",
      "refcode_short": "EGWC 583.3",
      "pub_year": "1994",
      "snippet": "… . The <mark>Holy City</mark> is called the Tabernacle of God, Revelation 21:3; Isaiah 33:20; but it is not called so, until it is situated on the <mark>New Earth</mark>. The <mark>City</mark> is also called …",
      "weight": 0.79,
      "group": "reference"
    },
    {
      "index": 21,
      "lang": "en",
      "para_id": "1998.188",
      "pub_code": "AWLF",
      "pub_name": "A Word to the “Little Flock”",
      "refcode_long": "A Word to the “Little Flock”, p. 23.3 (James Springer White)",
      "refcode_short": "AWLF 23.3",
      "pub_year": "1847",
      "snippet": "… . The <mark>Holy City</mark> is called the Tabernacle of God, Revelation 21:3; Isaiah 33:20; but it is not called so, until it is situated on the <mark>New Earth</mark>. The <mark>City</mark> is also called …",
      "weight": 0.79,
      "group": "apl"
    },
    {
      "index": 22,
      "lang": "en",
      "para_id": "1976.1315",
      "pub_code": "TEd",
      "pub_name": "True Education",
      "refcode_long": "True Education, p. 187.3 (Ellen Gould White)",
      "refcode_short": "TEd 187.3",
      "pub_year": "2000",
      "snippet": "… a <mark>new</mark> heaven and a <mark>new earth</mark>, for the first heaven and the first <mark>earth</mark> had passed away. ... Then I, John, saw the <mark>holy city, New</mark> Jerusalem, coming down out of heaven from …",
      "weight": 0.78,
      "group": "egwwritings"
    },
    {
      "index": 23,
      "lang": "en",
      "para_id": "14805.549",
      "pub_code": "CFL",
      "pub_name": "Counsels on Future Life",
      "refcode_long": "Counsels on Future Life, p. 79.2 (Ellen G. White Estate)",
      "refcode_short": "CFL 79.2",
      "pub_year": "2025",
      "snippet": "… the <mark>earth</mark> with the redeemed, all the inhabitants of heaven and the <mark>Holy City</mark>. Our recreated planet becomes the hub of the universe.God will be with us, making …",
      "weight": 0.78,
      "group": "reference"
    },
    {
      "index": 24,
      "lang": "en",
      "para_id": "1687.5945",
      "pub_code": "ARSH",
      "pub_name": "Advent Review, and Sabbath Herald, vol. 16",
      "refcode_long": "Advent Review, and Sabbath Herald, vol. 16 September 25,  1860, page 146 paragraph 8",
      "refcode_short": "ARSH September 25,  1860, page 146.8",
      "pub_year": "1860",
      "snippet": "… celestial <mark>city</mark>, which is to constitute the great central attraction of the <mark>new earth</mark>! The heirs of life are not only to be permitted to enter its pearly gates …",
      "weight": 0.75,
      "group": "apl"
    }
  ]
}
