{
  "next": "https://a.egwwritings.org/search?lang=en&period=all&facets=False&query=tree%20of%20life%20leaves&offset=20&limit=20&order=rel&snippet=long&query_type=prefer_exact",
  "previous": null,
  "total": 776,
  "count": 776,
  "results": [
    {
      "index": 0,
      "lang": "en",
      "para_id": "961.395",
      "pub_code": "MPC",
      "pub_name": "An Examination of the Scripture Testimony",
      "refcode_long": "An Examination of the Scripture Testimony, p. 98.1 (John Norton Loughborough)",
      "refcode_short": "MPC 98.1",
      "pub_year": "1855",
      "snippet": "… eat <mark>of</mark> the <mark>tree of life</mark>, which is in the midst <mark>of</mark> the paradise <mark>of</mark> God .” From the above we see that the paradise <mark>of</mark> God is where the <mark>tree of life</mark> is. Do the Scriptures …",
      "weight": 1,
      "group": "apl"
    },
    {
      "index": 1,
      "lang": "en",
      "para_id": "14634.38",
      "pub_code": "SRE",
      "pub_name": "Story of Redemption",
      "refcode_long": "Story of Redemption, p. 11.5 (Ellen Gould White)",
      "refcode_short": "SRE 11.5",
      "pub_year": "",
      "snippet": "… middle <mark>of</mark> the garden grew the <mark>tree of life</mark>. The <mark>tree of life</mark> was greater in glory than all the other <mark>trees</mark>. The fruit from the <mark>tree of life</mark> looked the same as apples …",
      "weight": 1,
      "group": "egwwritings"
    },
    {
      "index": 2,
      "lang": "en",
      "para_id": "433.6240",
      "pub_code": "LLM",
      "pub_name": "Loma Linda Messages",
      "refcode_long": "Loma Linda Messages, p. 521.3 (Ellen Gould White)",
      "refcode_short": "LLM 521.3",
      "pub_year": "1981",
      "snippet": "… <mark>leave</mark> the world without something that would lead man to the Source <mark>of Life</mark>. He began to drop some <mark>of</mark> the <mark>leaves</mark> from the real <mark>tree of life</mark>—fragments <mark>of</mark> the …",
      "weight": 0.99,
      "group": "egwwritings"
    },
    {
      "index": 3,
      "lang": "en",
      "para_id": "96.764",
      "pub_code": "7BC",
      "pub_name": "EGW SDA Bible Commentary, vol. 7",
      "refcode_long": "EGW SDA Bible Commentary, vol. 7, p. 957.7 (Ellen Gould White)",
      "refcode_short": "7BC 957.7",
      "pub_year": "1957",
      "snippet": "… eat <mark>of</mark> the <mark>leaves of</mark> the <mark>tree of life</mark>? He who receives into his heart the words <mark>of</mark> Christ knows what it means to eat the <mark>leaves of</mark> the <mark>tree of life</mark>. [ John 6:33-63 quoted …",
      "weight": 0.98,
      "group": "bible"
    },
    {
      "index": 4,
      "lang": "en",
      "para_id": "74.2396",
      "pub_code": "Mar",
      "pub_name": "Maranatha",
      "refcode_long": "Maranatha, p. 325.4 (Ellen Gould White)",
      "refcode_short": "Mar 325.4",
      "pub_year": "1976",
      "snippet": "… <mark>tree of life</mark>. They will eat freely <mark>of</mark> it as our first parents did before their fall. The <mark>leaves of</mark> that immortal widespread <mark>tree</mark> will be for the healing <mark>of</mark> the …",
      "weight": 0.96,
      "group": "egwwritings"
    },
    {
      "index": 5,
      "lang": "en",
      "para_id": "79.2668",
      "pub_code": "ML",
      "pub_name": "My Life Today",
      "refcode_long": "My Life Today, p. 355.4 (Ellen Gould White)",
      "refcode_short": "ML 355.4",
      "pub_year": "1952",
      "snippet": "… <mark>tree of life</mark>. They will eat freely <mark>of</mark> it as our first parents did before their fall. The <mark>leaves of</mark> that immortal widespread <mark>tree</mark> will be for the healing <mark>of</mark> the …",
      "weight": 0.96,
      "group": "egwwritings"
    },
    {
      "index": 6,
      "lang": "en",
      "para_id": "469.32",
      "pub_code": "YI",
      "pub_name": "The Youth’s Instructor",
      "refcode_long": "The Youth’s Instructor October 1,  1852, paragraph 3",
      "refcode_short": "YI October 1,  1852, par. 3",
      "pub_year": "1852",
      "snippet": "… <mark>tree of life</mark>. They will eat freely <mark>of</mark> it, as our first parents did before their fall. The <mark>leaves of</mark> that immortal wide-spread <mark>tree</mark> will be for the healing <mark>of</mark> the …",
      "weight": 0.95,
      "group": "egwwritings"
    },
    {
      "index": 7,
      "lang": "en",
      "para_id": "1682.2837",
      "pub_code": "ARSH",
      "pub_name": "Advent Review, and Sabbath Herald, vol. 21",
      "refcode_long": "Advent Review, and Sabbath Herald, vol. 21 February 3,  1863, page 76 paragraph 3",
      "refcode_short": "ARSH February 3,  1863, page 76.3",
      "pub_year": "1862",
      "snippet": "… the <mark>tree of life</mark>. At first I thought I saw two <mark>trees</mark>; but I looked again, and saw that they were united at the top in one <mark>tree</mark>. So it was the <mark>tree of life</mark> on either side …",
      "weight": 0.94,
      "group": "apl"
    },
    {
      "index": 8,
      "lang": "en",
      "para_id": "28.1399",
      "pub_code": "EW",
      "pub_name": "Early Writings",
      "refcode_long": "Early Writings, p. 289.1 (Ellen Gould White)",
      "refcode_short": "EW 289.1",
      "pub_year": "1882",
      "snippet": "… , “The <mark>leaves of</mark> this <mark>tree</mark> are for the healing <mark>of</mark> the nations. Eat ye all <mark>of</mark> it.” Upon the <mark>tree of life</mark> was most beautiful fruit, <mark>of</mark> which the saints could partake freely …",
      "weight": 0.93,
      "group": "egwwritings"
    },
    {
      "index": 9,
      "lang": "en",
      "para_id": "145.1964",
      "pub_code": "SR",
      "pub_name": "The Story of Redemption",
      "refcode_long": "The Story of Redemption, p. 414.1 (Ellen Gould White)",
      "refcode_short": "SR 414.1",
      "pub_year": "1947",
      "snippet": "… , “The <mark>leaves of</mark> this <mark>tree</mark> are for the healing <mark>of</mark> the nations. Eat ye all <mark>of</mark> it.” Upon the <mark>tree of life</mark> was most beautiful fruit, <mark>of</mark> which the saints could partake freely …",
      "weight": 0.93,
      "group": "egwwritings"
    },
    {
      "index": 10,
      "lang": "en",
      "para_id": "14211.595",
      "pub_code": "SH",
      "pub_name": "Story of Hope",
      "refcode_long": "Story of Hope, p. 112.3 (Ellen Gould White)",
      "refcode_short": "SH 112.3",
      "pub_year": "2016",
      "snippet": "… , “The <mark>leaves of</mark> this <mark>tree</mark> are for the healing <mark>of</mark> the nations. Eat from it, all <mark>of</mark> you.” On the <mark>tree of life</mark> was most beautiful fruit, <mark>of</mark> which the saints could eat freely …",
      "weight": 0.93,
      "group": "egwwritings"
    },
    {
      "index": 11,
      "lang": "en",
      "para_id": "1641.2282",
      "pub_code": "ARSH",
      "pub_name": "The Advent Review, and Sabbath Herald, vol. 7",
      "refcode_long": "The Advent Review, and Sabbath Herald, vol. 7 October 30,  1855, page 66 paragraph 9",
      "refcode_short": "ARSH October 30,  1855, page 66.9",
      "pub_year": "1855",
      "snippet": "… eat <mark>of</mark> the <mark>tree of life</mark>, which is in the midst <mark>of</mark> the paradise <mark>of</mark> God .” From the above we see that the paradise <mark>of</mark> God is where the <mark>tree of life</mark> is. Do the Scriptures …",
      "weight": 0.93,
      "group": "apl"
    },
    {
      "index": 12,
      "lang": "en",
      "para_id": "104.771",
      "pub_code": "1SG",
      "pub_name": "Spiritual Gifts, vol. 1",
      "refcode_long": "Spiritual Gifts, vol. 1, p. 210.1 (Ellen Gould White)",
      "refcode_short": "1SG 210.1",
      "pub_year": "1858",
      "snippet": "… river <mark>of</mark> water <mark>of life</mark>, as clear as crystal. On either side <mark>of</mark> this river <mark>of life</mark> was the <mark>tree of life</mark>. On the banks <mark>of</mark> the river were beautiful <mark>trees</mark> bearing fruit …",
      "weight": 0.91,
      "group": "egwwritings"
    },
    {
      "index": 13,
      "lang": "en",
      "para_id": "1237.1263",
      "pub_code": "SSP",
      "pub_name": "The Story of the Seer of Patmos",
      "refcode_long": "The Story of the Seer of Patmos, p. 352.2 (Stephen Nelson Haskell)",
      "refcode_short": "SSP 352.2",
      "pub_year": "1905",
      "snippet": "… type <mark>of</mark> the river <mark>of life</mark>; and every <mark>tree</mark> that grows will remind the one who listens for the voice <mark>of</mark> God, <mark>of</mark> that <mark>tree of life</mark>, which grows on either bank <mark>of</mark> the …",
      "weight": 0.91,
      "group": "apl"
    },
    {
      "index": 14,
      "lang": "en",
      "para_id": "1407.370",
      "pub_code": "SAIN",
      "pub_name": "The Saints’ Inheritance",
      "refcode_long": "The Saints’ Inheritance, p. 84.7 (John Norton Loughborough)",
      "refcode_short": "SAIN 84.7",
      "pub_year": "1893",
      "snippet": "… side <mark>of</mark> the river, was there the <mark>tree of life</mark>, which bare twelve manner <mark>of</mark> fruits, and yielded her fruit every month; and the <mark>leaves of</mark> the <mark>tree</mark> were for the healing …",
      "weight": 0.9,
      "group": "apl"
    },
    {
      "index": 15,
      "lang": "en",
      "para_id": "1688.5667",
      "pub_code": "ARSH",
      "pub_name": "Advent Review, and Sabbath Herald, vol. 15",
      "refcode_long": "Advent Review, and Sabbath Herald, vol. 15 March 22,  1860, page 140 paragraph 7",
      "refcode_short": "ARSH March 22,  1860, page 140.7",
      "pub_year": "1859",
      "snippet": "… <mark></mark> the <mark>tree of life</mark> which is in the midst <mark>of</mark> the paradise <mark>of</mark> God.” Revelation 2:7. This is the next mention we have <mark>of</mark> the <mark>tree of life</mark> in the Bible, after <mark>leaving</mark> it …",
      "weight": 0.89,
      "group": "apl"
    },
    {
      "index": 16,
      "lang": "en",
      "para_id": "80.2246",
      "pub_code": "OFC",
      "pub_name": "Our Father Cares",
      "refcode_long": "Our Father Cares, p. 305.2 (Ellen Gould White)",
      "refcode_short": "OFC 305.2",
      "pub_year": "1991",
      "snippet": "Must we wait until we are translated before we eat <mark>of</mark> the <mark>leaves of</mark> the <mark>tree of life</mark>? He who receives into his heart the words <mark>of</mark> Christ knows what it means to eat the <mark>leaves of</mark> the <mark>tree of life</mark>....",
      "weight": 0.88,
      "group": "egwwritings"
    },
    {
      "index": 17,
      "lang": "en",
      "para_id": "147.1689",
      "pub_code": "UL",
      "pub_name": "The Upward Look",
      "refcode_long": "The Upward Look, p. 224.2 (Ellen Gould White)",
      "refcode_short": "UL 224.2",
      "pub_year": "1982",
      "snippet": "Must we wait until we are translated before we eat <mark>of</mark> the <mark>leaves of</mark> the <mark>tree of life</mark>? He who receives into his heart the words <mark>of</mark> Christ knows what it means to eat the <mark>leaves of</mark> the <mark>tree of life</mark>....",
      "weight": 0.88,
      "group": "egwwritings"
    },
    {
      "index": 18,
      "lang": "en",
      "para_id": "79.2667",
      "pub_code": "ML",
      "pub_name": "My Life Today",
      "refcode_long": "My Life Today, p. 355.3 (Ellen Gould White)",
      "refcode_short": "ML 355.3",
      "pub_year": "1952",
      "snippet": "… <mark>of</mark> death. Its <mark>leaves</mark> were for the sustaining <mark>of life</mark> and immortality.... After the entrance <mark>of</mark> sin the heavenly Husbandman transplanted the <mark>tree of life</mark> to the …",
      "weight": 0.88,
      "group": "egwwritings"
    },
    {
      "index": 19,
      "lang": "en",
      "para_id": "14070.8849061",
      "pub_code": "20LtMs",
      "pub_name": "Letters and Manuscripts — Volume 20 (1905)",
      "refcode_long": "Letters and Manuscripts — Volume 20 (1905), Ms 192, 1905, par. 55",
      "refcode_short": "20LtMs, Ms 192, 1905, par. 55",
      "pub_year": "1905",
      "snippet": "… the <mark>tree of life</mark>? Christ will give you the <mark>leaves of</mark> the <mark>tree of life</mark> for the healing <mark>of</mark> the nations right here. What do you mean? I mean the Bible. I mean the words …",
      "weight": 0.87,
      "group": "egwwritings"
    }
  ]
}
