{
  "next": "https://a.egwwritings.org/search?lang=en&period=all&facets=False&query=blessed%20are%20they%20overcome&offset=15&limit=15&order=rel&snippet=long&query_type=prefer_exact",
  "previous": null,
  "total": 492,
  "count": 492,
  "results": [
    {
      "index": 0,
      "lang": "en",
      "para_id": "112.740",
      "pub_code": "8T",
      "pub_name": "Testimonies for the Church, vol. 8",
      "refcode_long": "Testimonies for the Church, vol. 8, p. 127.3 (Ellen Gould White)",
      "refcode_short": "8T 127.3",
      "pub_year": "1904",
      "snippet": "… <mark>overcome</mark> the world.” “<mark>Blessed are they</mark> which <mark>are</mark> persecuted for righteousness’ sake: for theirs <mark>is</mark> the kingdom of heaven. <mark>Blessed are</mark> ye, when men <mark>shall</mark> revile …",
      "weight": 1,
      "group": "egwwritings"
    },
    {
      "index": 1,
      "lang": "en",
      "para_id": "2004.1343",
      "pub_code": "3TT",
      "pub_name": "Testimony Treasures, vol. 3",
      "refcode_long": "Testimony Treasures, vol. 3, p. 233.1 (Ellen Gould White)",
      "refcode_short": "3TT 233.1",
      "pub_year": "1949",
      "snippet": "… <mark>overcome</mark> the world.” “<mark>Blessed are they</mark> which <mark>are</mark> persecuted for righteousness’ sake: for theirs <mark>is</mark> the kingdom of heaven. <mark>Blessed are</mark> ye, when men <mark>shall</mark> revile …",
      "weight": 1,
      "group": "egwwritings"
    },
    {
      "index": 2,
      "lang": "en",
      "para_id": "1645.1153",
      "pub_code": "ARSH",
      "pub_name": "The Advent Review, and Sabbath Herald, vol. 3",
      "refcode_long": "The Advent Review, and Sabbath Herald, vol. 3 June 24,  1852, page 31 paragraph 17",
      "refcode_short": "ARSH June 24,  1852, page 31.17",
      "pub_year": "1852",
      "snippet": "… <mark></mark> about to finish up the Revelation sent us, [ Revelation 22:14 ,] the Alpha and Omega says, “<mark>Blessed are they</mark> that do his [the Father’s] commandments, that <mark>they</mark> may …",
      "weight": 0.73,
      "group": "apl"
    },
    {
      "index": 3,
      "lang": "en",
      "para_id": "1641.683",
      "pub_code": "ARSH",
      "pub_name": "The Advent Review, and Sabbath Herald, vol. 7",
      "refcode_long": "The Advent Review, and Sabbath Herald, vol. 7 August 7,  1855, page 23 paragraph 7",
      "refcode_short": "ARSH August 7,  1855, page 23.7",
      "pub_year": "1855",
      "snippet": "… , Here <mark>are they</mark> that keep the commandments of God and the Faith of Jesus. Revelation 14:12. And then again he says in Revelation 22:14, <mark>Blessed are they</mark> that do his …",
      "weight": 0.72,
      "group": "apl"
    },
    {
      "index": 4,
      "lang": "en",
      "para_id": "12670.1082",
      "pub_code": "EA",
      "pub_name": "Experiences in Australia",
      "refcode_long": "Experiences in Australia, p. 167.4 (Ellen Gould White)",
      "refcode_short": "EA 167.4",
      "pub_year": "1891",
      "snippet": "… may <mark>overcome</mark> and sit down with Him in His throne. “<mark>Blessed are they</mark> that do His commandments, that <mark>they</mark> may have right to the tree of life, and enter in through …",
      "weight": 0.72,
      "group": "egwwritings"
    },
    {
      "index": 5,
      "lang": "en",
      "para_id": "14059.6534045",
      "pub_code": "9LtMs",
      "pub_name": "Letters and Manuscripts — Volume 9 (1894)",
      "refcode_long": "Letters and Manuscripts — Volume 9 (1894), Ms 20, 1894, par. 40",
      "refcode_short": "9LtMs, Ms 20, 1894, par. 40",
      "pub_year": "1894",
      "snippet": "… may <mark>be</mark> able to <mark>overcome</mark> and sit down with Him on His throne, and He says, “<mark>Blessed are they</mark> that do my commandments, that <mark>they</mark> may have right to the tree of life and …",
      "weight": 0.71,
      "group": "egwwritings"
    },
    {
      "index": 6,
      "lang": "en",
      "para_id": "820.1123",
      "pub_code": "ST",
      "pub_name": "The Signs of the Times",
      "refcode_long": "The Signs of the Times August 1,  1878, paragraph 14",
      "refcode_short": "ST August 1,  1878, par. 14",
      "pub_year": "1874",
      "snippet": "… Lord <mark>will be</mark> their joy, and no shadow <mark>will</mark> ever darken their heavenly home. Said Christ, “<mark>Blessed are they</mark> that do his commandments, that <mark>they</mark> may have right to …",
      "weight": 0.63,
      "group": "egwwritings"
    },
    {
      "index": 7,
      "lang": "en",
      "para_id": "1648.4317",
      "pub_code": "HST",
      "pub_name": "The Advent Herald, and Signs of the Times Reporter [Himes], vol. 8",
      "refcode_long": "The Advent Herald, and Signs of the Times Reporter [Himes], vol. 8 December 18,  1844, page 151 paragraph 2",
      "refcode_short": "HST December 18,  1844, page 151.2",
      "pub_year": "1844",
      "snippet": "… wise <mark>shall</mark> understand,” <mark>they will, being</mark> watchful, “discern” the “time” so that the day of the Lord <mark>will</mark> not overtake them as a thief. These <mark>are they</mark> “that wait for their …",
      "weight": 0.59,
      "group": "apl"
    },
    {
      "index": 8,
      "lang": "en",
      "para_id": "1541.2597",
      "pub_code": "SITI",
      "pub_name": "The Signs of the Times, vol. 14",
      "refcode_long": "The Signs of the Times, vol. 14 June 15,  1888, page 358 paragraph 44",
      "refcode_short": "SITI June 15,  1888, page 358.44",
      "pub_year": "1888",
      "snippet": "… Christ, “<mark>Blessed are they</mark> which do hunger and thirst after righteousness; for <mark>they shall be</mark> filled.” Matthew 5:4. The trouble too often <mark>is</mark>, that, instead of having …",
      "weight": 0.56,
      "group": "apl"
    },
    {
      "index": 9,
      "lang": "en",
      "para_id": "1539.796",
      "pub_code": "SITI",
      "pub_name": "The Signs of the Times, vol. 12",
      "refcode_long": "The Signs of the Times, vol. 12 July 1,  1886, page 390 paragraph 13",
      "refcode_short": "SITI July 1,  1886, page 390.13",
      "pub_year": "1886",
      "snippet": "… Christ: “<mark>Blessed are they</mark> that do hunger and thirst after righteousness; for <mark>they shall be</mark> filled.” Matthew 5:6. The trouble too often <mark>is</mark>, that instead of having …",
      "weight": 0.56,
      "group": "apl"
    },
    {
      "index": 10,
      "lang": "en",
      "para_id": "1237.1141",
      "pub_code": "SSP",
      "pub_name": "The Story of the Seer of Patmos",
      "refcode_long": "The Story of the Seer of Patmos, p. 318.2 (Stephen Nelson Haskell)",
      "refcode_short": "SSP 318.2",
      "pub_year": "1905",
      "snippet": "… him, <mark>Blessed is</mark> he that <mark>shall</mark> eat bread in the kingdom of God. Luke 14:15. Zechariah 14:4. <mark>They shall</mark> not hunger nor thirst; neither <mark>shall</mark> the heat nor sun smite them …",
      "weight": 0.52,
      "group": "apl"
    },
    {
      "index": 11,
      "lang": "en",
      "para_id": "14054.4270018",
      "pub_code": "4LtMs",
      "pub_name": "Letters and Manuscripts — Volume 4 (1883 - 1886)",
      "refcode_long": "Letters and Manuscripts — Volume 4 (1883 - 1886), Lt 15, 1884, par. 12",
      "refcode_short": "4LtMs, Lt 15, 1884, par. 12",
      "pub_year": "1883",
      "snippet": "… <mark> are</mark> wrong and help them with unselfish interest to <mark>overcome</mark>, yourselves appreciating the words of Jesus, “<mark>Blessed are</mark> the pure in heart for <mark>they shall</mark> see …",
      "weight": 0.52,
      "group": "egwwritings"
    },
    {
      "index": 12,
      "lang": "en",
      "para_id": "14054.4180031",
      "pub_code": "4LtMs",
      "pub_name": "Letters and Manuscripts — Volume 4 (1883 - 1886)",
      "refcode_long": "Letters and Manuscripts — Volume 4 (1883 - 1886), Ms 2, 1885, par. 25",
      "refcode_short": "4LtMs, Ms 2, 1885, par. 25",
      "pub_year": "1883",
      "snippet": "… . <mark>They are</mark> very small. <mark>They</mark> do not appear attractive. “It doth not yet appear what we <mark>shall be</mark>: but when He <mark>shall</mark> appear, we <mark>shall be</mark> like Him; for we <mark>shall</mark> see …",
      "weight": 0.51,
      "group": "egwwritings"
    },
    {
      "index": 13,
      "lang": "en",
      "para_id": "821.8835",
      "pub_code": "RH",
      "pub_name": "The Review and Herald",
      "refcode_long": "The Review and Herald May 1,  1888, paragraph 11",
      "refcode_short": "RH May 1,  1888, par. 11",
      "pub_year": "1851",
      "snippet": "… believe. “<mark>Blessed are they</mark> that do his commandments, that <mark>they</mark> may have right to the tree of life, and may enter in through the gates into the city.” Use your talents …",
      "weight": 0.5,
      "group": "egwwritings"
    },
    {
      "index": 14,
      "lang": "en",
      "para_id": "1671.4089",
      "pub_code": "GCB",
      "pub_name": "General Conference Bulletin, vol. 3",
      "refcode_long": "General Conference Bulletin, vol. 3 April 1,  1900, page 122 paragraph 3",
      "refcode_short": "GCB April 1,  1900, page 122.3",
      "pub_year": "1899",
      "snippet": "… believe. “<mark>Blessed are they</mark> that do his commandments, that <mark>they</mark> may have right to the tree of life, and may enter in through the gates into the city.” Use your talents …",
      "weight": 0.5,
      "group": "apl"
    }
  ]
}
